%!PS-Adobe-3.0 EPSF-3.0
%%Creator: (MATLAB, The Mathworks, Inc. Version 8.4.0.150421 \(R2014b\). Operating System: Windows 8)
%%Title: (C:/Users/Tina/Documents/nus/Waveguide Figures/proximity_data_sameheight_aug16.eps)
%%CreationDate: 2018-08-16T21:23:43
%%Pages: (atend)
%%BoundingBox: 0 0 420 315
%%LanguageLevel: 2
%%EndComments
%%BeginProlog
%%BeginResource: procset (Apache XML Graphics Std ProcSet) 1.2 0
%%Version: 1.2 0
%%Copyright: (Copyright 2001-2003,2010 The Apache Software Foundation. License terms: http://www.apache.org/licenses/LICENSE-2.0)
/bd{bind def}bind def
/ld{load def}bd
/GR/grestore ld
/M/moveto ld
/LJ/setlinejoin ld
/C/curveto ld
/f/fill ld
/LW/setlinewidth ld
/GC/setgray ld
/t/show ld
/N/newpath ld
/CT/concat ld
/cp/closepath ld
/S/stroke ld
/L/lineto ld
/CC/setcmykcolor ld
/A/ashow ld
/GS/gsave ld
/RC/setrgbcolor ld
/RM/rmoveto ld
/ML/setmiterlimit ld
/re {4 2 roll M
1 index 0 rlineto
0 exch rlineto
neg 0 rlineto
cp } bd
/_ctm matrix def
/_tm matrix def
/BT { _ctm currentmatrix pop matrix _tm copy pop 0 0 moveto } bd
/ET { _ctm setmatrix } bd
/iTm { _ctm setmatrix _tm concat } bd
/Tm { _tm astore pop iTm 0 0 moveto } bd
/ux 0.0 def
/uy 0.0 def
/F {
  /Tp exch def
  /Tf exch def
  Tf findfont Tp scalefont setfont
  /cf Tf def  /cs Tp def
} bd
/ULS {currentpoint /uy exch def /ux exch def} bd
/ULE {
  /Tcx currentpoint pop def
  gsave
  newpath
  cf findfont cs scalefont dup
  /FontMatrix get 0 get /Ts exch def /FontInfo get dup
  /UnderlinePosition get Ts mul /To exch def
  /UnderlineThickness get Ts mul /Tt exch def
  ux uy To add moveto  Tcx uy To add lineto
  Tt setlinewidth stroke
  grestore
} bd
/OLE {
  /Tcx currentpoint pop def
  gsave
  newpath
  cf findfont cs scalefont dup
  /FontMatrix get 0 get /Ts exch def /FontInfo get dup
  /UnderlinePosition get Ts mul /To exch def
  /UnderlineThickness get Ts mul /Tt exch def
  ux uy To add cs add moveto Tcx uy To add cs add lineto
  Tt setlinewidth stroke
  grestore
} bd
/SOE {
  /Tcx currentpoint pop def
  gsave
  newpath
  cf findfont cs scalefont dup
  /FontMatrix get 0 get /Ts exch def /FontInfo get dup
  /UnderlinePosition get Ts mul /To exch def
  /UnderlineThickness get Ts mul /Tt exch def
  ux uy To add cs 10 mul 26 idiv add moveto Tcx uy To add cs 10 mul 26 idiv add lineto
  Tt setlinewidth stroke
  grestore
} bd
/QT {
/Y22 exch store
/X22 exch store
/Y21 exch store
/X21 exch store
currentpoint
/Y21 load 2 mul add 3 div exch
/X21 load 2 mul add 3 div exch
/X21 load 2 mul /X22 load add 3 div
/Y21 load 2 mul /Y22 load add 3 div
/X22 load /Y22 load curveto
} bd
/SSPD {
dup length /d exch dict def
{
/v exch def
/k exch def
currentpagedevice k known {
/cpdv currentpagedevice k get def
v cpdv ne {
/upd false def
/nullv v type /nulltype eq def
/nullcpdv cpdv type /nulltype eq def
nullv nullcpdv or
{
/upd true def
} {
/sametype v type cpdv type eq def
sametype {
v type /arraytype eq {
/vlen v length def
/cpdvlen cpdv length def
vlen cpdvlen eq {
0 1 vlen 1 sub {
/i exch def
/obj v i get def
/cpdobj cpdv i get def
obj cpdobj ne {
/upd true def
exit
} if
} for
} {
/upd true def
} ifelse
} {
v type /dicttype eq {
v {
/dv exch def
/dk exch def
/cpddv cpdv dk get def
dv cpddv ne {
/upd true def
exit
} if
} forall
} {
/upd true def
} ifelse
} ifelse
} if
} ifelse
upd true eq {
d k v put
} if
} if
} if
} forall
d length 0 gt {
d setpagedevice
} if
} bd
%%EndResource
%%BeginResource: procset (Apache XML Graphics EPS ProcSet) 1.0 0
%%Version: 1.0 0
%%Copyright: (Copyright 2002-2003 The Apache Software Foundation. License terms: http://www.apache.org/licenses/LICENSE-2.0)
/BeginEPSF { %def
/b4_Inc_state save def         % Save state for cleanup
/dict_count countdictstack def % Count objects on dict stack
/op_count count 1 sub def      % Count objects on operand stack
userdict begin                 % Push userdict on dict stack
/showpage { } def              % Redefine showpage, { } = null proc
0 setgray 0 setlinecap         % Prepare graphics state
1 setlinewidth 0 setlinejoin
10 setmiterlimit [ ] 0 setdash newpath
/languagelevel where           % If level not equal to 1 then
{pop languagelevel             % set strokeadjust and
1 ne                           % overprint to their defaults.
{false setstrokeadjust false setoverprint
} if
} if
} bd
/EndEPSF { %def
count op_count sub {pop} repeat            % Clean up stacks
countdictstack dict_count sub {end} repeat
b4_Inc_state restore
} bd
%%EndResource
%FOPBeginFontDict
%%IncludeResource: font Courier-Bold
%%IncludeResource: font Helvetica
%%IncludeResource: font Courier-BoldOblique
%%IncludeResource: font Courier-Oblique
%%IncludeResource: font Times-Roman
%%IncludeResource: font Helvetica-BoldOblique
%%IncludeResource: font Helvetica-Bold
%%IncludeResource: font Helvetica-Oblique
%%IncludeResource: font Times-BoldItalic
%%IncludeResource: font Courier
%%IncludeResource: font Times-Italic
%%IncludeResource: font Times-Bold
%%IncludeResource: font Symbol
%%IncludeResource: font ZapfDingbats
%FOPEndFontDict
%%BeginResource: encoding WinAnsiEncoding
/WinAnsiEncoding [
/.notdef /.notdef /.notdef /.notdef /.notdef
/.notdef /.notdef /.notdef /.notdef /.notdef
/.notdef /.notdef /.notdef /.notdef /.notdef
/.notdef /.notdef /.notdef /.notdef /.notdef
/.notdef /.notdef /.notdef /.notdef /.notdef
/.notdef /.notdef /.notdef /.notdef /.notdef
/.notdef /.notdef /space /exclam /quotedbl
/numbersign /dollar /percent /ampersand /quotesingle
/parenleft /parenright /asterisk /plus /comma
/hyphen /period /slash /zero /one
/two /three /four /five /six
/seven /eight /nine /colon /semicolon
/less /equal /greater /question /at
/A /B /C /D /E
/F /G /H /I /J
/K /L /M /N /O
/P /Q /R /S /T
/U /V /W /X /Y
/Z /bracketleft /backslash /bracketright /asciicircum
/underscore /quoteleft /a /b /c
/d /e /f /g /h
/i /j /k /l /m
/n /o /p /q /r
/s /t /u /v /w
/x /y /z /braceleft /bar
/braceright /asciitilde /bullet /Euro /bullet
/quotesinglbase /florin /quotedblbase /ellipsis /dagger
/daggerdbl /circumflex /perthousand /Scaron /guilsinglleft
/OE /bullet /Zcaron /bullet /bullet
/quoteleft /quoteright /quotedblleft /quotedblright /bullet
/endash /emdash /asciitilde /trademark /scaron
/guilsinglright /oe /bullet /zcaron /Ydieresis
/space /exclamdown /cent /sterling /currency
/yen /brokenbar /section /dieresis /copyright
/ordfeminine /guillemotleft /logicalnot /sfthyphen /registered
/macron /degree /plusminus /twosuperior /threesuperior
/acute /mu /paragraph /middot /cedilla
/onesuperior /ordmasculine /guillemotright /onequarter /onehalf
/threequarters /questiondown /Agrave /Aacute /Acircumflex
/Atilde /Adieresis /Aring /AE /Ccedilla
/Egrave /Eacute /Ecircumflex /Edieresis /Igrave
/Iacute /Icircumflex /Idieresis /Eth /Ntilde
/Ograve /Oacute /Ocircumflex /Otilde /Odieresis
/multiply /Oslash /Ugrave /Uacute /Ucircumflex
/Udieresis /Yacute /Thorn /germandbls /agrave
/aacute /acircumflex /atilde /adieresis /aring
/ae /ccedilla /egrave /eacute /ecircumflex
/edieresis /igrave /iacute /icircumflex /idieresis
/eth /ntilde /ograve /oacute /ocircumflex
/otilde /odieresis /divide /oslash /ugrave
/uacute /ucircumflex /udieresis /yacute /thorn
/ydieresis
] def
%%EndResource
%FOPBeginFontReencode
/Courier-Bold findfont
dup length dict begin
  {1 index /FID ne {def} {pop pop} ifelse} forall
  /Encoding WinAnsiEncoding def
  currentdict
end
/Courier-Bold exch definefont pop
/Helvetica findfont
dup length dict begin
  {1 index /FID ne {def} {pop pop} ifelse} forall
  /Encoding WinAnsiEncoding def
  currentdict
end
/Helvetica exch definefont pop
/Courier-BoldOblique findfont
dup length dict begin
  {1 index /FID ne {def} {pop pop} ifelse} forall
  /Encoding WinAnsiEncoding def
  currentdict
end
/Courier-BoldOblique exch definefont pop
/Courier-Oblique findfont
dup length dict begin
  {1 index /FID ne {def} {pop pop} ifelse} forall
  /Encoding WinAnsiEncoding def
  currentdict
end
/Courier-Oblique exch definefont pop
/Times-Roman findfont
dup length dict begin
  {1 index /FID ne {def} {pop pop} ifelse} forall
  /Encoding WinAnsiEncoding def
  currentdict
end
/Times-Roman exch definefont pop
/Helvetica-BoldOblique findfont
dup length dict begin
  {1 index /FID ne {def} {pop pop} ifelse} forall
  /Encoding WinAnsiEncoding def
  currentdict
end
/Helvetica-BoldOblique exch definefont pop
/Helvetica-Bold findfont
dup length dict begin
  {1 index /FID ne {def} {pop pop} ifelse} forall
  /Encoding WinAnsiEncoding def
  currentdict
end
/Helvetica-Bold exch definefont pop
/Helvetica-Oblique findfont
dup length dict begin
  {1 index /FID ne {def} {pop pop} ifelse} forall
  /Encoding WinAnsiEncoding def
  currentdict
end
/Helvetica-Oblique exch definefont pop
/Times-BoldItalic findfont
dup length dict begin
  {1 index /FID ne {def} {pop pop} ifelse} forall
  /Encoding WinAnsiEncoding def
  currentdict
end
/Times-BoldItalic exch definefont pop
/Courier findfont
dup length dict begin
  {1 index /FID ne {def} {pop pop} ifelse} forall
  /Encoding WinAnsiEncoding def
  currentdict
end
/Courier exch definefont pop
/Times-Italic findfont
dup length dict begin
  {1 index /FID ne {def} {pop pop} ifelse} forall
  /Encoding WinAnsiEncoding def
  currentdict
end
/Times-Italic exch definefont pop
/Times-Bold findfont
dup length dict begin
  {1 index /FID ne {def} {pop pop} ifelse} forall
  /Encoding WinAnsiEncoding def
  currentdict
end
/Times-Bold exch definefont pop
%FOPEndFontReencode
%%EndProlog
%%Page: 1 1
%%PageBoundingBox: 0 0 420 315
%%BeginPageSetup
[1 0 0 -1 0 315] CT
%%EndPageSetup
GS
[0.75 0 0 0.75 0 0] CT
1 GC
N
0 0 560 420 re
f
GR
GS
[0.75 0 0 0.75 0 0] CT
1 GC
N
0 0 560 420 re
f
GR
GS
[0.75 0 0 0.75 0 0] CT
1 GC
N
73 374 M
507 374 L
507 31 L
73 31 L
cp
f
GR
GS
[0.75 0 0 0.75 217.5 297.01366] CT
0.149 GC
/Helvetica 15 F
GS
[1 0 0 1 0 0] CT
-27.495 15.081 moveto 
1 -1 scale
(Time \(s\)) t 
GR
GR
GS
[0.75 0 0 0.75 0 0] CT
0.149 GC
2 setlinecap
10.0 ML
N
73 374 M
507 374 L
S
GR
GS
[0.75 0 0 0.75 0 0] CT
0.149 GC
2 setlinecap
10.0 ML
N
73 31 M
507 31 L
S
GR
GS
[0.75 0 0 0.75 0 0] CT
0.149 GC
2 setlinecap
10.0 ML
N
73 374 M
73 369.66 L
S
GR
GS
[0.75 0 0 0.75 0 0] CT
0.149 GC
2 setlinecap
10.0 ML
N
73 31 M
73 35.34 L
S
GR
GS
[0.75 0 0 0.75 0 0] CT
0.149 GC
2 setlinecap
10.0 ML
N
118.684 374 M
118.684 369.66 L
S
GR
GS
[0.75 0 0 0.75 0 0] CT
0.149 GC
2 setlinecap
10.0 ML
N
118.684 31 M
118.684 35.34 L
S
GR
GS
[0.75 0 0 0.75 0 0] CT
0.149 GC
2 setlinecap
10.0 ML
N
164.368 374 M
164.368 369.66 L
S
GR
GS
[0.75 0 0 0.75 0 0] CT
0.149 GC
2 setlinecap
10.0 ML
N
164.368 31 M
164.368 35.34 L
S
GR
GS
[0.75 0 0 0.75 0 0] CT
0.149 GC
2 setlinecap
10.0 ML
N
210.053 374 M
210.053 369.66 L
S
GR
GS
[0.75 0 0 0.75 0 0] CT
0.149 GC
2 setlinecap
10.0 ML
N
210.053 31 M
210.053 35.34 L
S
GR
GS
[0.75 0 0 0.75 0 0] CT
0.149 GC
2 setlinecap
10.0 ML
N
255.737 374 M
255.737 369.66 L
S
GR
GS
[0.75 0 0 0.75 0 0] CT
0.149 GC
2 setlinecap
10.0 ML
N
255.737 31 M
255.737 35.34 L
S
GR
GS
[0.75 0 0 0.75 0 0] CT
0.149 GC
2 setlinecap
10.0 ML
N
301.421 374 M
301.421 369.66 L
S
GR
GS
[0.75 0 0 0.75 0 0] CT
0.149 GC
2 setlinecap
10.0 ML
N
301.421 31 M
301.421 35.34 L
S
GR
GS
[0.75 0 0 0.75 0 0] CT
0.149 GC
2 setlinecap
10.0 ML
N
347.105 374 M
347.105 369.66 L
S
GR
GS
[0.75 0 0 0.75 0 0] CT
0.149 GC
2 setlinecap
10.0 ML
N
347.105 31 M
347.105 35.34 L
S
GR
GS
[0.75 0 0 0.75 0 0] CT
0.149 GC
2 setlinecap
10.0 ML
N
392.789 374 M
392.789 369.66 L
S
GR
GS
[0.75 0 0 0.75 0 0] CT
0.149 GC
2 setlinecap
10.0 ML
N
392.789 31 M
392.789 35.34 L
S
GR
GS
[0.75 0 0 0.75 0 0] CT
0.149 GC
2 setlinecap
10.0 ML
N
438.474 374 M
438.474 369.66 L
S
GR
GS
[0.75 0 0 0.75 0 0] CT
0.149 GC
2 setlinecap
10.0 ML
N
438.474 31 M
438.474 35.34 L
S
GR
GS
[0.75 0 0 0.75 0 0] CT
0.149 GC
2 setlinecap
10.0 ML
N
484.158 374 M
484.158 369.66 L
S
GR
GS
[0.75 0 0 0.75 0 0] CT
0.149 GC
2 setlinecap
10.0 ML
N
484.158 31 M
484.158 35.34 L
S
GR
GS
[0.75 0 0 0.75 54.75 284.50001] CT
0.149 GC
/Helvetica 13 F
GS
[1 0 0 1 0 0] CT
-3.615 13.07 moveto 
1 -1 scale
(0) t 
GR
GR
GS
[0.75 0 0 0.75 89.01316 284.50001] CT
0.149 GC
/Helvetica 13 F
GS
[1 0 0 1 0 0] CT
-3.615 13.07 moveto 
1 -1 scale
(2) t 
GR
GR
GS
[0.75 0 0 0.75 123.27632 284.50001] CT
0.149 GC
/Helvetica 13 F
GS
[1 0 0 1 0 0] CT
-3.615 13.07 moveto 
1 -1 scale
(4) t 
GR
GR
GS
[0.75 0 0 0.75 157.53947 284.50001] CT
0.149 GC
/Helvetica 13 F
GS
[1 0 0 1 0 0] CT
-3.615 13.07 moveto 
1 -1 scale
(6) t 
GR
GR
GS
[0.75 0 0 0.75 191.80264 284.50001] CT
0.149 GC
/Helvetica 13 F
GS
[1 0 0 1 0 0] CT
-3.615 13.07 moveto 
1 -1 scale
(8) t 
GR
GR
GS
[0.75 0 0 0.75 226.06579 284.50001] CT
0.149 GC
/Helvetica 13 F
GS
[1 0 0 1 0 0] CT
-7.23 13.07 moveto 
1 -1 scale
(10) t 
GR
GR
GS
[0.75 0 0 0.75 260.32894 284.50001] CT
0.149 GC
/Helvetica 13 F
GS
[1 0 0 1 0 0] CT
-7.23 13.07 moveto 
1 -1 scale
(12) t 
GR
GR
GS
[0.75 0 0 0.75 294.59209 284.50001] CT
0.149 GC
/Helvetica 13 F
GS
[1 0 0 1 0 0] CT
-7.23 13.07 moveto 
1 -1 scale
(14) t 
GR
GR
GS
[0.75 0 0 0.75 328.85527 284.50001] CT
0.149 GC
/Helvetica 13 F
GS
[1 0 0 1 0 0] CT
-7.23 13.07 moveto 
1 -1 scale
(16) t 
GR
GR
GS
[0.75 0 0 0.75 363.11842 284.50001] CT
0.149 GC
/Helvetica 13 F
GS
[1 0 0 1 0 0] CT
-7.23 13.07 moveto 
1 -1 scale
(18) t 
GR
GR
GS
[0 -0.75 0.75 0 42.32752 151.875] CT
0.149 GC
/Helvetica 15 F
GS
[1 0 0 1 0 0] CT
-37.518 -3.787 moveto 
1 -1 scale
(Voltage \(V\)) t 
GR
GR
GS
[0.75 0 0 0.75 0 0] CT
0.149 GC
2 setlinecap
10.0 ML
N
73 374 M
73 31 L
S
GR
GS
[0.75 0 0 0.75 0 0] CT
0.149 GC
2 setlinecap
10.0 ML
N
507 374 M
507 31 L
S
GR
GS
[0.75 0 0 0.75 0 0] CT
0.149 GC
2 setlinecap
10.0 ML
N
73 345.417 M
77.34 345.417 L
S
GR
GS
[0.75 0 0 0.75 0 0] CT
0.149 GC
2 setlinecap
10.0 ML
N
507 345.417 M
502.66 345.417 L
S
GR
GS
[0.75 0 0 0.75 0 0] CT
0.149 GC
2 setlinecap
10.0 ML
N
73 288.25 M
77.34 288.25 L
S
GR
GS
[0.75 0 0 0.75 0 0] CT
0.149 GC
2 setlinecap
10.0 ML
N
507 288.25 M
502.66 288.25 L
S
GR
GS
[0.75 0 0 0.75 0 0] CT
0.149 GC
2 setlinecap
10.0 ML
N
73 231.083 M
77.34 231.083 L
S
GR
GS
[0.75 0 0 0.75 0 0] CT
0.149 GC
2 setlinecap
10.0 ML
N
507 231.083 M
502.66 231.083 L
S
GR
GS
[0.75 0 0 0.75 0 0] CT
0.149 GC
2 setlinecap
10.0 ML
N
73 173.917 M
77.34 173.917 L
S
GR
GS
[0.75 0 0 0.75 0 0] CT
0.149 GC
2 setlinecap
10.0 ML
N
507 173.917 M
502.66 173.917 L
S
GR
GS
[0.75 0 0 0.75 0 0] CT
0.149 GC
2 setlinecap
10.0 ML
N
73 116.75 M
77.34 116.75 L
S
GR
GS
[0.75 0 0 0.75 0 0] CT
0.149 GC
2 setlinecap
10.0 ML
N
507 116.75 M
502.66 116.75 L
S
GR
GS
[0.75 0 0 0.75 0 0] CT
0.149 GC
2 setlinecap
10.0 ML
N
73 59.583 M
77.34 59.583 L
S
GR
GS
[0.75 0 0 0.75 0 0] CT
0.149 GC
2 setlinecap
10.0 ML
N
507 59.583 M
502.66 59.583 L
S
GR
GS
[0.75 0 0 0.75 50.75 259.06249] CT
0.149 GC
/Helvetica 13 F
GS
[1 0 0 1 0 0] CT
-7.23 5.394 moveto 
1 -1 scale
(1) t 
GR
GR
GS
[0.75 0 0 0.75 50.75 216.1875] CT
0.149 GC
/Helvetica 13 F
GS
[1 0 0 1 0 0] CT
-7.23 5.394 moveto 
1 -1 scale
(2) t 
GR
GR
GS
[0.75 0 0 0.75 50.75 173.3125] CT
0.149 GC
/Helvetica 13 F
GS
[1 0 0 1 0 0] CT
-7.23 5.394 moveto 
1 -1 scale
(3) t 
GR
GR
GS
[0.75 0 0 0.75 50.75 130.4375] CT
0.149 GC
/Helvetica 13 F
GS
[1 0 0 1 0 0] CT
-7.23 5.394 moveto 
1 -1 scale
(4) t 
GR
GR
GS
[0.75 0 0 0.75 50.75 87.5625] CT
0.149 GC
/Helvetica 13 F
GS
[1 0 0 1 0 0] CT
-7.23 5.394 moveto 
1 -1 scale
(5) t 
GR
GR
GS
[0.75 0 0 0.75 50.75 44.6875] CT
0.149 GC
/Helvetica 13 F
GS
[1 0 0 1 0 0] CT
-7.23 5.394 moveto 
1 -1 scale
(6) t 
GR
GR
GS
[0.75 0 0 0.75 0 0] CT
0 0.447 0.741 RC
2 setlinecap
10.0 ML
N
73 88.095 M
73 88.095 L
73.25 88.014 L
73.25 88.014 L
73.459 87.99 L
73.5 87.991 L
73.5 87.991 L
73.5 87.991 L
73.75 88.02 L
73.75 88.02 L
73.75 88.02 L
74 88.083 L
74 88.083 L
74.25 88.169 L
74.25 88.169 L
74.5 88.261 L
74.5 88.261 L
74.75 88.354 L
74.75 88.354 L
75 88.449 L
75 88.449 L
75.25 88.544 L
75.25 88.544 L
75.5 88.631 L
75.5 88.631 L
75.75 88.708 L
75.75 88.708 L
76 88.783 L
76 88.783 L
76.25 88.844 L
76.25 88.844 L
76.5 88.911 L
76.5 88.911 L
76.5 88.911 L
76.75 88.97 L
76.75 88.97 L
77 89.02 L
77 89.02 L
77.25 89.051 L
77.25 89.051 L
77.25 89.051 L
77.5 89.083 L
77.5 89.083 L
77.5 89.083 L
77.75 89.13 L
77.75 89.13 L
77.999 89.174 L
78 89.174 L
78 89.174 L
78.247 89.191 L
78.25 89.191 L
78.25 89.191 L
78.329 89.193 L
78.495 89.19 L
78.5 89.19 L
78.5 89.19 L
78.519 89.191 L
78.681 89.184 L
78.75 89.186 L
78.75 89.186 L
79 89.199 L
79 89.199 L
79.196 89.207 L
79.25 89.206 L
79.25 89.206 L
79.285 89.207 L
79.5 89.197 L
79.5 89.197 L
79.75 89.183 L
79.75 89.183 L
79.751 89.183 L
80 89.16 L
80 89.16 L
80.003 89.16 L
80.25 89.145 L
80.25 89.145 L
80.25 89.145 L
80.5 89.123 L
80.5 89.123 L
80.748 89.107 L
80.75 89.108 L
80.75 89.108 L
81 89.088 L
81 89.088 L
81.25 89.057 L
81.25 89.057 L
81.25 89.057 L
81.5 89.028 L
81.5 89.028 L
81.749 89.011 L
81.75 89.011 L
81.75 89.011 L
81.976 89.006 L
82 89.006 L
82 89.006 L
82.043 89.007 L
82.25 88.994 L
82.25 88.994 L
82.5 88.968 L
82.5 88.968 L
82.75 88.947 L
82.75 88.947 L
82.75 88.947 L
82.753 88.947 L
82.978 88.941 L
83 88.942 L
83 88.942 L
83.187 88.937 L
83.25 88.938 L
83.25 88.938 L
83.256 88.938 L
83.499 88.924 L
83.5 88.924 L
83.5 88.924 L
83.73 88.911 L
83.75 88.912 L
83.75 88.912 L
83.836 88.911 L
83.999 88.916 L
84 88.916 L
84 88.916 L
84.006 88.915 L
84.166 88.919 L
84.25 88.918 L
84.25 88.918 L
84.251 88.919 L
84.493 88.913 L
84.5 88.913 L
84.5 88.913 L
84.75 88.907 L
84.75 88.907 L
84.75 88.907 L
84.877 88.904 L
85 88.905 L
85 88.905 L
85.246 88.914 L
85.25 88.914 L
85.25 88.914 L
85.259 88.913 L
85.437 88.916 L
85.5 88.916 L
85.5 88.916 L
85.51 88.915 L
85.696 88.918 L
85.75 88.918 L
85.75 88.918 L
85.828 88.917 L
85.993 88.919 L
86 88.919 L
86 88.919 L
86.002 88.919 L
86.213 88.922 L
86.25 88.922 L
86.25 88.922 L
86.252 88.922 L
86.487 88.927 L
86.5 88.926 L
86.5 88.926 L
86.501 88.926 L
86.726 88.927 L
86.75 88.927 L
86.75 88.927 L
86.752 88.927 L
86.989 88.935 L
87 88.935 L
87 88.935 L
87.148 88.937 L
87.25 88.937 L
87.25 88.937 L
87.252 88.936 L
87.5 88.939 L
87.5 88.939 L
87.727 88.945 L
87.75 88.945 L
87.75 88.945 L
87.753 88.945 L
88 88.948 L
88 88.948 L
88 88.948 L
88.04 88.947 L
88.197 88.949 L
88.25 88.948 L
88.25 88.948 L
88.275 88.949 L
88.379 88.947 L
88.5 88.948 L
88.5 88.948 L
88.663 88.948 L
88.742 88.95 L
88.75 88.95 L
88.75 88.95 L
88.896 88.951 L
88.971 88.949 L
89 88.95 L
89 88.95 L
89.002 88.95 L
89.167 88.948 L
89.25 88.949 L
89.25 88.949 L
89.38 88.949 L
89.454 88.95 L
89.5 88.95 L
89.5 88.95 L
89.717 88.953 L
89.75 88.952 L
89.75 88.953 L
89.791 88.952 L
89.997 88.955 L
90 88.955 L
90 88.955 L
90.001 88.955 L
90.249 88.957 L
90.25 88.957 L
90.25 88.957 L
90.425 88.961 L
90.5 88.961 L
90.5 88.961 L
90.501 88.961 L
90.721 88.963 L
90.75 88.963 L
90.75 88.963 L
90.784 88.963 L
90.999 88.959 L
91 88.959 L
91 88.959 L
91.009 88.96 L
91.24 88.954 L
91.25 88.954 L
91.25 88.954 L
91.273 88.954 L
91.432 88.951 L
91.5 88.951 L
91.5 88.951 L
91.548 88.95 L
91.746 88.954 L
91.75 88.954 L
91.75 88.953 L
91.794 88.955 L
91.967 88.953 L
92 88.954 L
92 88.954 L
92.086 88.954 L
92.25 88.951 L
92.25 88.951 L
92.328 88.95 L
92.416 88.952 L
92.5 88.951 L
92.5 88.951 L
92.538 88.952 L
92.744 88.95 L
92.75 88.95 L
92.75 88.95 L
92.766 88.95 L
92.96 88.948 L
93 88.948 L
93 88.948 L
93.011 88.948 L
93.218 88.95 L
93.25 88.948 L
93.25 88.948 L
93.251 88.949 L
93.495 88.943 L
93.5 88.943 L
93.5 88.943 L
93.743 88.937 L
93.75 88.937 L
93.75 88.937 L
93.984 88.928 L
94 88.929 L
94 88.929 L
94.001 88.929 L
94.25 88.923 L
94.25 88.923 L
94.304 88.923 L
94.495 88.921 L
94.5 88.921 L
94.5 88.921 L
94.592 88.922 L
94.699 88.92 L
94.75 88.92 L
94.75 88.92 L
94.755 88.92 L
94.999 88.914 L
95 88.914 L
95 88.914 L
95.229 88.904 L
95.25 88.904 L
95.25 88.904 L
95.497 88.896 L
95.5 88.896 L
95.5 88.896 L
95.501 88.896 L
95.732 88.893 L
95.75 88.894 L
95.75 88.894 L
95.753 88.894 L
95.994 88.884 L
96 88.884 L
96 88.884 L
96.008 88.884 L
96.246 88.876 L
96.25 88.876 L
96.25 88.876 L
96.251 88.876 L
96.499 88.862 L
96.5 88.862 L
96.5 88.862 L
96.503 88.863 L
96.75 88.852 L
96.75 88.852 L
96.754 88.852 L
97 88.839 L
97 88.839 L
97.25 88.826 L
97.25 88.826 L
97.5 88.811 L
97.5 88.811 L
97.5 88.811 L
97.75 88.796 L
97.75 88.796 L
98 88.779 L
98 88.779 L
98.25 88.761 L
98.25 88.761 L
98.25 88.762 L
98.251 88.762 L
98.5 88.745 L
98.5 88.745 L
98.5 88.745 L
98.75 88.73 L
98.75 88.73 L
98.75 88.73 L
98.751 88.73 L
98.998 88.714 L
99 88.714 L
99 88.714 L
99.001 88.714 L
99.25 88.693 L
99.25 88.693 L
99.251 88.693 L
99.5 88.674 L
99.5 88.674 L
99.75 88.657 L
99.75 88.657 L
100 88.639 L
100 88.639 L
100 88.639 L
100.25 88.62 L
100.25 88.62 L
100.498 88.605 L
100.5 88.605 L
100.5 88.605 L
100.747 88.591 L
100.75 88.591 L
100.75 88.591 L
100.998 88.578 L
101 88.578 L
101 88.578 L
101.247 88.561 L
101.25 88.561 L
101.25 88.561 L
101.251 88.561 L
101.5 88.545 L
101.5 88.545 L
101.5 88.545 L
101.75 88.532 L
101.75 88.532 L
101.75 88.532 L
101.75 88.532 L
101.995 88.522 L
102 88.523 L
102 88.523 L
102.001 88.523 L
102.25 88.51 L
102.25 88.51 L
102.25 88.51 L
102.251 88.51 L
102.5 88.499 L
102.5 88.5 L
102.749 88.49 L
102.75 88.49 L
102.75 88.49 L
102.772 88.491 L
102.984 88.485 L
103 88.485 L
103 88.485 L
103.064 88.486 L
103.25 88.481 L
103.25 88.481 L
103.25 88.481 L
103.259 88.481 L
103.461 88.477 L
103.5 88.478 L
103.5 88.478 L
103.51 88.478 L
103.66 88.474 L
103.75 88.474 L
103.75 88.474 L
103.849 88.474 L
103.997 88.471 L
104 88.471 L
104 88.471 L
104.001 88.471 L
104.248 88.467 L
104.25 88.467 L
104.25 88.467 L
104.38 88.467 L
104.483 88.468 L
104.5 88.468 L
104.5 88.468 L
104.603 88.469 L
104.719 88.466 L
104.75 88.467 L
104.75 88.467 L
104.753 88.467 L
104.996 88.473 L
105 88.473 L
105 88.473 L
105.074 88.474 L
105.25 88.472 L
105.25 88.472 L
105.253 88.473 L
105.5 88.471 L
105.5 88.471 L
105.5 88.471 L
105.505 88.471 L
105.749 88.474 L
105.75 88.474 L
105.75 88.474 L
105.768 88.473 L
105.994 88.477 L
106 88.477 L
106 88.477 L
106.044 88.476 L
106.13 88.477 L
106.25 88.476 L
106.25 88.476 L
106.256 88.477 L
106.489 88.474 L
106.5 88.474 L
106.5 88.474 L
106.731 88.473 L
106.75 88.473 L
106.75 88.473 L
106.755 88.473 L
106.948 88.47 L
107 88.471 L
107 88.471 L
107.086 88.472 L
107.247 88.468 L
107.25 88.468 L
107.25 88.468 L
107.492 88.465 L
107.5 88.465 L
107.5 88.465 L
107.745 88.461 L
107.75 88.462 L
107.75 88.462 L
107.772 88.462 L
107.998 88.456 L
108 88.456 L
108 88.456 L
108.25 88.453 L
108.25 88.453 L
108.25 88.453 L
108.496 88.443 L
108.5 88.443 L
108.5 88.443 L
108.501 88.443 L
108.75 88.439 L
108.75 88.439 L
108.783 88.439 L
108.998 88.435 L
109 88.435 L
109 88.435 L
109.003 88.435 L
109.248 88.429 L
109.25 88.429 L
109.25 88.429 L
109.492 88.421 L
109.5 88.421 L
109.5 88.421 L
109.501 88.421 L
109.75 88.415 L
109.75 88.415 L
109.75 88.415 L
109.998 88.405 L
110 88.405 L
110 88.405 L
110.249 88.397 L
110.25 88.397 L
110.25 88.397 L
110.25 88.397 L
110.5 88.388 L
110.5 88.388 L
110.5 88.388 L
110.743 88.384 L
110.75 88.385 L
110.75 88.385 L
110.754 88.385 L
110.998 88.378 L
111 88.378 L
111 88.378 L
111.001 88.378 L
111.247 88.369 L
111.25 88.369 L
111.25 88.369 L
111.486 88.364 L
111.5 88.364 L
111.5 88.364 L
111.749 88.359 L
111.75 88.359 L
111.75 88.359 L
111.751 88.359 L
111.999 88.356 L
112 88.356 L
112 88.356 L
112.075 88.357 L
112.243 88.355 L
112.25 88.356 L
112.25 88.356 L
112.28 88.355 L
112.498 88.36 L
112.5 88.36 L
112.5 88.36 L
112.503 88.36 L
112.75 88.367 L
112.75 88.367 L
112.75 88.367 L
113 88.379 L
113 88.379 L
113.002 88.379 L
113.25 88.395 L
113.25 88.395 L
113.25 88.395 L
113.5 88.42 L
113.5 88.42 L
113.75 88.453 L
113.75 88.453 L
114 88.491 L
114 88.491 L
114.25 88.533 L
114.25 88.533 L
114.5 88.582 L
114.5 88.582 L
114.75 88.64 L
114.75 88.64 L
115 88.702 L
115 88.702 L
115.25 88.768 L
115.25 88.768 L
115.5 88.837 L
115.5 88.837 L
115.75 88.899 L
115.75 88.899 L
116 88.963 L
116 88.963 L
116.25 89.022 L
116.25 89.022 L
116.5 89.075 L
116.5 89.075 L
116.75 89.119 L
116.75 89.119 L
117 89.156 L
117 89.156 L
117 89.156 L
117.248 89.178 L
117.25 89.178 L
117.25 89.178 L
117.25 89.178 L
117.5 89.186 L
117.5 89.186 L
117.5 89.186 L
117.595 89.187 L
117.75 89.181 L
117.75 89.181 L
117.752 89.181 L
117.999 89.165 L
118 89.165 L
118 89.165 L
118.25 89.139 L
118.25 89.139 L
118.5 89.105 L
118.5 89.105 L
118.5 89.105 L
118.75 89.064 L
118.75 89.064 L
119 89.022 L
119 89.022 L
119 89.022 L
119.25 88.982 L
119.25 88.981 L
119.25 88.982 L
119.5 88.938 L
119.5 88.938 L
119.5 88.938 L
119.5 88.938 L
119.749 88.895 L
119.75 88.895 L
119.75 88.895 L
119.999 88.863 L
120 88.863 L
120 88.863 L
120.249 88.835 L
120.25 88.835 L
120.25 88.835 L
120.499 88.812 L
120.5 88.812 L
120.5 88.812 L
120.501 88.812 L
120.75 88.802 L
120.75 88.802 L
120.806 88.8 L
120.981 88.802 L
121 88.802 L
121 88.802 L
121.005 88.802 L
121.207 88.805 L
121.25 88.805 L
121.25 88.805 L
121.251 88.805 L
121.494 88.813 L
121.5 88.813 L
121.5 88.813 L
121.509 88.813 L
121.749 88.823 L
121.75 88.823 L
121.75 88.823 L
121.751 88.823 L
122 88.834 L
122 88.834 L
122.227 88.843 L
122.25 88.842 L
122.25 88.842 L
122.277 88.842 L
122.46 88.847 L
122.5 88.846 L
122.5 88.846 L
122.511 88.846 L
122.666 88.849 L
122.75 88.848 L
122.75 88.848 L
122.814 88.849 L
123 88.845 L
123 88.845 L
123 88.845 L
123.01 88.846 L
123.25 88.837 L
123.25 88.837 L
123.25 88.837 L
123.254 88.837 L
123.5 88.822 L
123.5 88.822 L
123.749 88.806 L
123.75 88.806 L
123.75 88.806 L
123.751 88.806 L
124 88.786 L
124 88.786 L
124.249 88.763 L
124.25 88.763 L
124.25 88.763 L
124.499 88.744 L
124.5 88.744 L
124.5 88.744 L
124.501 88.744 L
124.75 88.74 L
124.75 88.74 L
124.75 88.74 L
124.772 88.74 L
124.999 88.748 L
125 88.748 L
125 88.748 L
125.25 88.772 L
125.25 88.772 L
125.25 88.772 L
125.5 88.814 L
125.5 88.814 L
125.75 88.876 L
125.75 88.876 L
125.75 88.876 L
126 88.959 L
126 88.96 L
126.25 89.059 L
126.25 89.06 L
126.5 89.181 L
126.5 89.181 L
126.75 89.31 L
126.75 89.311 L
127 89.45 L
127 89.451 L
127.25 89.595 L
127.25 89.596 L
127.5 89.748 L
127.5 89.748 L
127.75 89.909 L
127.75 89.909 L
128 90.078 L
128 90.078 L
128.25 90.251 L
128.25 90.251 L
128.5 90.429 L
128.5 90.43 L
128.75 90.62 L
128.75 90.621 L
129 90.828 L
129 90.828 L
129.25 91.063 L
129.25 91.063 L
129.5 91.34 L
129.5 91.341 L
129.75 91.683 L
129.75 91.683 L
130 92.117 L
130 92.118 L
130.25 92.683 L
130.25 92.684 L
130.5 93.426 L
130.5 93.427 L
130.75 94.406 L
130.75 94.407 L
131 95.681 L
131 95.683 L
131.25 97.295 L
131.25 97.296 L
131.5 99.222 L
131.5 99.224 L
131.75 101.362 L
131.75 101.364 L
132 103.573 L
132 103.575 L
132.25 105.767 L
132.25 105.769 L
132.5 107.921 L
132.5 107.923 L
132.75 110.05 L
132.75 110.052 L
133 112.169 L
133 112.171 L
133.25 114.276 L
133.25 114.278 L
133.5 116.339 L
133.5 116.341 L
133.75 118.304 L
133.75 118.306 L
134 120.102 L
134 120.103 L
134.25 121.673 L
134.25 121.674 L
134.5 122.963 L
134.5 122.964 L
134.75 123.958 L
134.75 123.959 L
135 124.719 L
135 124.72 L
135.25 125.361 L
135.25 125.361 L
135.5 125.994 L
135.5 125.995 L
135.75 126.687 L
135.75 126.688 L
136 127.428 L
136 127.429 L
136.25 128.181 L
136.25 128.182 L
136.5 128.906 L
136.5 128.906 L
136.75 129.588 L
136.75 129.589 L
137 130.234 L
137 130.235 L
137.25 130.867 L
137.25 130.868 L
137.5 131.505 L
137.5 131.506 L
137.75 132.14 L
137.75 132.141 L
138 132.763 L
138 132.763 L
138.25 133.34 L
138.25 133.34 L
138.5 133.867 L
138.5 133.868 L
138.75 134.352 L
138.75 134.352 L
139 134.797 L
139 134.797 L
139.25 135.196 L
139.25 135.197 L
139.5 135.551 L
139.5 135.552 L
139.75 135.873 L
139.75 135.874 L
140 136.167 L
140 136.168 L
140.25 136.427 L
140.25 136.427 L
140.5 136.651 L
140.5 136.652 L
140.75 136.839 L
140.75 136.839 L
141 136.995 L
141 136.995 L
141.25 137.114 L
141.25 137.114 L
141.5 137.198 L
141.5 137.198 L
141.75 137.253 L
141.75 137.253 L
141.998 137.282 L
142 137.281 L
142 137.282 L
142 137.282 L
142.247 137.294 L
142.25 137.294 L
142.25 137.294 L
142.25 137.294 L
142.499 137.296 L
142.5 137.296 L
142.5 137.296 L
142.512 137.297 L
142.745 137.293 L
142.75 137.294 L
142.75 137.294 L
142.766 137.294 L
142.999 137.29 L
143 137.29 L
143 137.29 L
143.25 137.275 L
143.25 137.275 L
143.5 137.255 L
143.5 137.255 L
143.75 137.238 L
143.75 137.238 L
143.75 137.238 L
143.998 137.223 L
144 137.224 L
144 137.223 L
144.248 137.211 L
144.25 137.211 L
144.25 137.211 L
144.5 137.201 L
144.5 137.201 L
144.518 137.201 L
144.671 137.198 L
144.75 137.201 L
144.75 137.2 L
145 137.207 L
145 137.207 L
145 137.207 L
145.001 137.207 L
145.25 137.224 L
145.25 137.224 L
145.491 137.235 L
145.5 137.235 L
145.5 137.235 L
145.502 137.235 L
145.75 137.243 L
145.75 137.243 L
145.75 137.243 L
145.837 137.244 L
145.992 137.24 L
146 137.24 L
146 137.24 L
146.032 137.24 L
146.244 137.233 L
146.25 137.233 L
146.25 137.233 L
146.252 137.233 L
146.471 137.227 L
146.5 137.228 L
146.5 137.228 L
146.55 137.226 L
146.743 137.23 L
146.75 137.23 L
146.75 137.23 L
146.787 137.229 L
146.968 137.231 L
147 137.23 L
147 137.23 L
147.025 137.231 L
147.228 137.228 L
147.25 137.228 L
147.25 137.228 L
147.335 137.227 L
147.456 137.229 L
147.5 137.228 L
147.5 137.228 L
147.52 137.229 L
147.749 137.226 L
147.75 137.226 L
147.75 137.226 L
147.753 137.226 L
147.994 137.227 L
148 137.227 L
148 137.227 L
148.019 137.227 L
148.104 137.229 L
148.25 137.227 L
148.25 137.227 L
148.365 137.229 L
148.495 137.226 L
148.5 137.226 L
148.5 137.226 L
148.593 137.225 L
148.749 137.228 L
148.75 137.228 L
148.75 137.228 L
148.75 137.228 L
148.997 137.239 L
149 137.239 L
149 137.239 L
149.249 137.254 L
149.25 137.254 L
149.25 137.254 L
149.252 137.254 L
149.5 137.277 L
149.5 137.277 L
149.5 137.277 L
149.75 137.306 L
149.75 137.306 L
150 137.339 L
150 137.339 L
150.001 137.339 L
150.25 137.375 L
150.25 137.375 L
150.5 137.418 L
150.5 137.418 L
150.75 137.462 L
150.75 137.462 L
151 137.505 L
151 137.505 L
151.25 137.546 L
151.25 137.546 L
151.5 137.585 L
151.5 137.585 L
151.75 137.627 L
151.75 137.626 L
152 137.673 L
152 137.673 L
152 137.673 L
152 137.673 L
152.25 137.721 L
152.25 137.721 L
152.5 137.772 L
152.5 137.772 L
152.75 137.821 L
152.75 137.821 L
152.999 137.864 L
153 137.864 L
153 137.864 L
153.25 137.894 L
153.25 137.894 L
153.5 137.921 L
153.5 137.921 L
153.5 137.921 L
153.501 137.921 L
153.75 137.946 L
153.75 137.946 L
153.75 137.946 L
154 137.981 L
154 137.981 L
154.25 138.024 L
154.25 138.024 L
154.5 138.073 L
154.5 138.073 L
154.5 138.073 L
154.75 138.123 L
154.75 138.123 L
155 138.178 L
155 138.178 L
155.25 138.231 L
155.25 138.231 L
155.5 138.279 L
155.5 138.279 L
155.75 138.325 L
155.75 138.325 L
155.999 138.364 L
156 138.364 L
156 138.364 L
156.25 138.406 L
156.25 138.406 L
156.499 138.452 L
156.5 138.452 L
156.5 138.452 L
156.75 138.505 L
156.75 138.505 L
157 138.562 L
157 138.562 L
157 138.562 L
157.25 138.621 L
157.25 138.621 L
157.5 138.682 L
157.5 138.682 L
157.75 138.741 L
157.75 138.741 L
158 138.799 L
158 138.799 L
158.25 138.857 L
158.25 138.857 L
158.5 138.911 L
158.5 138.911 L
158.75 138.964 L
158.75 138.964 L
158.75 138.964 L
159 139.013 L
159 139.013 L
159 139.013 L
159.25 139.062 L
159.25 139.062 L
159.25 139.062 L
159.5 139.114 L
159.5 139.114 L
159.75 139.167 L
159.75 139.167 L
160 139.219 L
160 139.219 L
160 139.219 L
160.249 139.268 L
160.25 139.268 L
160.25 139.268 L
160.5 139.315 L
160.5 139.315 L
160.75 139.352 L
160.75 139.352 L
160.751 139.352 L
161 139.384 L
161 139.384 L
161.25 139.415 L
161.25 139.415 L
161.25 139.415 L
161.499 139.444 L
161.5 139.444 L
161.5 139.444 L
161.75 139.468 L
161.75 139.468 L
162 139.495 L
162 139.495 L
162 139.495 L
162.25 139.527 L
162.25 139.527 L
162.5 139.569 L
162.5 139.569 L
162.75 139.614 L
162.75 139.614 L
163 139.661 L
163 139.661 L
163.25 139.703 L
163.25 139.703 L
163.25 139.703 L
163.5 139.741 L
163.5 139.741 L
163.75 139.773 L
163.75 139.773 L
163.75 139.773 L
164 139.801 L
164 139.801 L
164.249 139.835 L
164.25 139.835 L
164.25 139.835 L
164.5 139.869 L
164.5 139.869 L
164.75 139.895 L
164.75 139.895 L
164.751 139.895 L
165 139.915 L
165 139.915 L
165.249 139.929 L
165.25 139.929 L
165.25 139.929 L
165.486 139.94 L
165.5 139.939 L
165.5 139.939 L
165.516 139.94 L
165.75 139.935 L
165.75 139.935 L
165.761 139.935 L
165.997 139.924 L
166 139.924 L
166 139.924 L
166.25 139.908 L
166.25 139.908 L
166.25 139.908 L
166.252 139.908 L
166.5 139.884 L
166.5 139.884 L
166.75 139.863 L
166.75 139.863 L
166.75 139.863 L
166.999 139.845 L
167 139.845 L
167 139.845 L
167.001 139.845 L
167.25 139.83 L
167.25 139.83 L
167.498 139.814 L
167.5 139.814 L
167.5 139.814 L
167.75 139.794 L
167.75 139.794 L
167.75 139.794 L
168 139.777 L
168 139.777 L
168.248 139.766 L
168.25 139.766 L
168.25 139.766 L
168.283 139.766 L
168.355 139.764 L
168.5 139.765 L
168.5 139.765 L
168.521 139.766 L
168.568 139.764 L
168.75 139.765 L
168.75 139.765 L
168.788 139.764 L
169 139.766 L
169 139.766 L
169.017 139.766 L
169.205 139.77 L
169.25 139.77 L
169.25 139.77 L
169.275 139.77 L
169.5 139.774 L
169.5 139.774 L
169.519 139.774 L
169.748 139.781 L
169.75 139.781 L
169.75 139.781 L
170 139.794 L
170 139.794 L
170.249 139.806 L
170.25 139.806 L
170.25 139.806 L
170.499 139.822 L
170.5 139.822 L
170.5 139.822 L
170.75 139.835 L
170.75 139.835 L
170.75 139.834 L
170.997 139.84 L
171 139.84 L
171 139.84 L
171.004 139.84 L
171.153 139.842 L
171.25 139.842 L
171.25 139.841 L
171.391 139.84 L
171.5 139.842 L
171.5 139.842 L
171.548 139.842 L
171.593 139.843 L
171.75 139.843 L
171.75 139.843 L
171.81 139.843 L
171.99 139.845 L
172 139.845 L
172 139.845 L
172.002 139.844 L
172.24 139.847 L
172.25 139.846 L
172.25 139.846 L
172.349 139.845 L
172.456 139.848 L
172.5 139.846 L
172.5 139.846 L
172.599 139.846 L
172.703 139.847 L
172.75 139.847 L
172.75 139.847 L
172.791 139.847 L
172.991 139.844 L
173 139.844 L
173 139.844 L
173.015 139.844 L
173.249 139.84 L
173.25 139.84 L
173.25 139.84 L
173.251 139.841 L
173.495 139.835 L
173.5 139.835 L
173.5 139.835 L
173.505 139.835 L
173.74 139.833 L
173.75 139.833 L
173.75 139.833 L
173.999 139.827 L
174 139.827 L
174 139.827 L
174.003 139.827 L
174.172 139.826 L
174.25 139.827 L
174.25 139.827 L
174.25 139.827 L
174.487 139.832 L
174.5 139.832 L
174.5 139.832 L
174.516 139.831 L
174.746 139.838 L
174.75 139.838 L
174.75 139.838 L
174.752 139.838 L
174.857 139.84 L
175 139.839 L
175 139.839 L
175 139.839 L
175.249 139.836 L
175.25 139.836 L
175.25 139.836 L
175.252 139.836 L
175.476 139.833 L
175.5 139.833 L
175.5 139.833 L
175.668 139.832 L
175.743 139.833 L
175.75 139.833 L
175.75 139.833 L
175.751 139.833 L
175.999 139.837 L
176 139.837 L
176 139.837 L
176.249 139.845 L
176.25 139.845 L
176.25 139.845 L
176.25 139.845 L
176.5 139.86 L
176.5 139.86 L
176.504 139.86 L
176.749 139.874 L
176.75 139.873 L
176.75 139.873 L
176.751 139.873 L
177 139.889 L
177 139.889 L
177.25 139.904 L
177.25 139.904 L
177.498 139.92 L
177.5 139.92 L
177.5 139.92 L
177.749 139.936 L
177.75 139.936 L
177.75 139.936 L
177.999 139.952 L
178 139.952 L
178 139.952 L
178.006 139.952 L
178.249 139.968 L
178.25 139.968 L
178.25 139.968 L
178.499 139.985 L
178.5 139.985 L
178.5 139.985 L
178.501 139.985 L
178.75 140.002 L
178.75 140.002 L
178.999 140.022 L
179 140.022 L
179 140.022 L
179.25 140.043 L
179.25 140.043 L
179.5 140.065 L
179.5 140.065 L
179.749 140.086 L
179.75 140.086 L
179.75 140.086 L
180 140.109 L
180 140.109 L
180.249 140.127 L
180.25 140.127 L
180.25 140.127 L
180.499 140.148 L
180.5 140.148 L
180.5 140.148 L
180.749 140.173 L
180.75 140.173 L
180.75 140.173 L
181 140.196 L
181 140.196 L
181 140.196 L
181.25 140.217 L
181.25 140.217 L
181.497 140.238 L
181.5 140.238 L
181.5 140.238 L
181.5 140.238 L
181.748 140.252 L
181.75 140.252 L
181.75 140.252 L
181.999 140.268 L
182 140.268 L
182 140.268 L
182.249 140.288 L
182.25 140.288 L
182.25 140.288 L
182.5 140.309 L
182.5 140.309 L
182.501 140.309 L
182.75 140.332 L
182.75 140.332 L
183 140.361 L
183 140.361 L
183 140.361 L
183 140.361 L
183.248 140.388 L
183.25 140.388 L
183.25 140.388 L
183.5 140.413 L
183.5 140.413 L
183.75 140.438 L
183.75 140.438 L
184 140.464 L
184 140.464 L
184.249 140.489 L
184.25 140.489 L
184.25 140.489 L
184.499 140.518 L
184.5 140.518 L
184.5 140.518 L
184.75 140.554 L
184.75 140.554 L
185 140.596 L
185 140.596 L
185.25 140.643 L
185.25 140.643 L
185.25 140.643 L
185.5 140.688 L
185.5 140.688 L
185.5 140.688 L
185.75 140.735 L
185.75 140.735 L
185.75 140.735 L
186 140.78 L
186 140.78 L
186.25 140.829 L
186.25 140.829 L
186.5 140.877 L
186.5 140.877 L
186.5 140.877 L
186.75 140.933 L
186.75 140.933 L
186.75 140.933 L
187 140.987 L
187 140.987 L
187.25 141.036 L
187.25 141.036 L
187.5 141.083 L
187.5 141.083 L
187.5 141.083 L
187.75 141.127 L
187.75 141.127 L
188 141.169 L
188 141.169 L
188.25 141.205 L
188.25 141.205 L
188.5 141.245 L
188.5 141.245 L
188.75 141.285 L
188.75 141.286 L
189 141.327 L
189 141.327 L
189.001 141.327 L
189.25 141.368 L
189.25 141.368 L
189.499 141.412 L
189.5 141.412 L
189.5 141.412 L
189.75 141.451 L
189.75 141.451 L
190 141.494 L
190 141.494 L
190 141.494 L
190.25 141.538 L
190.25 141.538 L
190.25 141.538 L
190.5 141.59 L
190.5 141.59 L
190.75 141.649 L
190.75 141.649 L
191 141.716 L
191 141.716 L
191.25 141.788 L
191.25 141.788 L
191.5 141.864 L
191.5 141.864 L
191.75 141.942 L
191.75 141.942 L
192 142.021 L
192 142.021 L
192 142.021 L
192.25 142.107 L
192.25 142.107 L
192.5 142.195 L
192.5 142.195 L
192.75 142.282 L
192.75 142.282 L
192.75 142.282 L
193 142.363 L
193 142.363 L
193.25 142.443 L
193.25 142.443 L
193.5 142.52 L
193.5 142.52 L
193.75 142.588 L
193.75 142.588 L
194 142.648 L
194 142.648 L
194.25 142.695 L
194.25 142.695 L
194.25 142.695 L
194.5 142.723 L
194.5 142.723 L
194.5 142.723 L
194.635 142.729 L
194.75 142.727 L
194.75 142.727 L
194.751 142.727 L
195 142.71 L
195 142.71 L
195.25 142.666 L
195.25 142.666 L
195.5 142.571 L
195.5 142.571 L
195.75 142.383 L
195.75 142.382 L
196 142.045 L
196 142.045 L
196.25 141.466 L
196.25 141.465 L
196.5 140.571 L
196.5 140.57 L
196.75 139.273 L
196.75 139.272 L
197 137.523 L
197 137.522 L
197.25 135.302 L
197.25 135.3 L
197.5 132.618 L
197.5 132.616 L
197.75 129.525 L
197.75 129.522 L
198 126.108 L
198 126.105 L
198.25 122.464 L
198.25 122.46 L
198.5 118.663 L
198.5 118.66 L
198.75 114.77 L
198.75 114.767 L
199 110.87 L
199 110.866 L
199.25 107.026 L
199.25 107.022 L
199.5 103.334 L
199.5 103.331 L
199.75 99.896 L
199.75 99.893 L
200 96.798 L
200 96.796 L
200.25 94.121 L
200.25 94.119 L
200.5 91.901 L
200.5 91.9 L
200.75 90.166 L
200.75 90.165 L
201 88.877 L
201 88.876 L
201.25 87.985 L
201.25 87.985 L
201.5 87.404 L
201.5 87.403 L
201.75 87.045 L
201.75 87.044 L
202 86.844 L
202 86.844 L
202.25 86.74 L
202.25 86.74 L
202.5 86.689 L
202.5 86.689 L
202.5 86.689 L
202.75 86.669 L
202.75 86.669 L
202.751 86.669 L
202.998 86.661 L
203 86.661 L
203 86.661 L
203.007 86.662 L
203.25 86.651 L
203.25 86.651 L
203.5 86.64 L
203.5 86.64 L
203.5 86.64 L
203.501 86.64 L
203.75 86.624 L
203.75 86.624 L
203.75 86.624 L
203.999 86.61 L
204 86.61 L
204 86.61 L
204.25 86.595 L
204.25 86.595 L
204.497 86.587 L
204.5 86.587 L
204.5 86.587 L
204.509 86.586 L
204.749 86.589 L
204.75 86.589 L
204.75 86.589 L
204.751 86.589 L
204.998 86.597 L
205 86.597 L
205 86.597 L
205 86.597 L
205.25 86.611 L
205.25 86.611 L
205.25 86.611 L
205.499 86.635 L
205.5 86.635 L
205.5 86.635 L
205.501 86.635 L
205.75 86.682 L
205.75 86.682 L
205.75 86.682 L
206 86.75 L
206 86.75 L
206.25 86.847 L
206.25 86.847 L
206.25 86.847 L
206.5 86.983 L
206.5 86.983 L
206.75 87.162 L
206.75 87.162 L
207 87.386 L
207 87.387 L
207.25 87.67 L
207.25 87.67 L
207.5 88.022 L
207.5 88.023 L
207.75 88.458 L
207.75 88.459 L
208 88.994 L
208 88.994 L
208.25 89.672 L
208.25 89.672 L
208.5 90.556 L
208.5 90.557 L
208.75 91.758 L
208.75 91.759 L
209 93.391 L
209 93.393 L
209.25 95.445 L
209.25 95.447 L
209.5 97.742 L
209.5 97.744 L
209.75 100.082 L
209.75 100.084 L
210 102.392 L
210 102.394 L
210.25 104.685 L
210.25 104.687 L
210.5 106.976 L
210.5 106.978 L
210.75 109.254 L
210.75 109.256 L
211 111.496 L
211 111.498 L
211.25 113.664 L
211.25 113.666 L
211.5 115.736 L
211.5 115.738 L
211.75 117.67 L
211.75 117.671 L
212 119.389 L
212 119.391 L
212.25 120.768 L
212.25 120.769 L
212.5 121.694 L
212.5 121.695 L
212.75 122.239 L
212.75 122.24 L
213 122.599 L
213 122.6 L
213.25 122.95 L
213.25 122.95 L
213.5 123.316 L
213.5 123.317 L
213.75 123.668 L
213.75 123.669 L
214 123.981 L
214 123.981 L
214.25 124.26 L
214.25 124.26 L
214.5 124.535 L
214.5 124.535 L
214.75 124.823 L
214.75 124.824 L
215 125.106 L
215 125.106 L
215.25 125.37 L
215.25 125.371 L
215.5 125.618 L
215.5 125.618 L
215.75 125.853 L
215.75 125.853 L
216 126.091 L
216 126.092 L
216.25 126.325 L
216.25 126.325 L
216.5 126.551 L
216.5 126.552 L
216.75 126.767 L
216.75 126.767 L
217 126.977 L
217 126.977 L
217.25 127.189 L
217.25 127.189 L
217.5 127.404 L
217.5 127.404 L
217.75 127.611 L
217.75 127.611 L
218 127.796 L
218 127.796 L
218.25 127.963 L
218.25 127.963 L
218.5 128.122 L
218.5 128.122 L
218.75 128.278 L
218.75 128.278 L
219 128.433 L
219 128.433 L
219.25 128.584 L
219.25 128.584 L
219.5 128.723 L
219.5 128.723 L
219.75 128.848 L
219.75 128.848 L
220 128.956 L
220 128.956 L
220.25 129.047 L
220.25 129.047 L
220.5 129.125 L
220.5 129.125 L
220.75 129.192 L
220.75 129.192 L
221 129.246 L
221 129.246 L
221.25 129.295 L
221.25 129.295 L
221.251 129.295 L
221.5 129.333 L
221.5 129.334 L
221.75 129.362 L
221.75 129.362 L
221.999 129.384 L
222 129.384 L
222 129.384 L
222 129.384 L
222.246 129.399 L
222.25 129.399 L
222.25 129.399 L
222.5 129.412 L
222.5 129.412 L
222.5 129.412 L
222.512 129.412 L
222.749 129.42 L
222.75 129.42 L
222.75 129.42 L
222.751 129.42 L
222.998 129.438 L
223 129.438 L
223 129.438 L
223.25 129.465 L
223.25 129.465 L
223.25 129.465 L
223.5 129.499 L
223.5 129.499 L
223.75 129.54 L
223.75 129.54 L
224 129.579 L
224 129.579 L
224.25 129.611 L
224.25 129.611 L
224.25 129.611 L
224.499 129.641 L
224.5 129.641 L
224.5 129.641 L
224.75 129.672 L
224.75 129.672 L
224.75 129.672 L
225 129.707 L
225 129.707 L
225 129.707 L
225.25 129.746 L
225.25 129.746 L
225.5 129.782 L
225.5 129.782 L
225.5 129.782 L
225.749 129.816 L
225.75 129.816 L
225.75 129.816 L
226 129.845 L
226 129.845 L
226 129.845 L
226.25 129.872 L
226.25 129.872 L
226.5 129.896 L
226.5 129.896 L
226.75 129.912 L
226.75 129.912 L
226.986 129.921 L
227 129.92 L
227 129.92 L
227.001 129.92 L
227.228 129.923 L
227.25 129.923 L
227.25 129.923 L
227.279 129.922 L
227.484 129.928 L
227.5 129.928 L
227.5 129.928 L
227.75 129.934 L
227.75 129.934 L
227.75 129.934 L
227.999 129.94 L
228 129.94 L
228 129.94 L
228.001 129.94 L
228.244 129.949 L
228.25 129.948 L
228.25 129.948 L
228.253 129.948 L
228.465 129.953 L
228.5 129.953 L
228.5 129.953 L
228.536 129.953 L
228.71 129.955 L
228.75 129.955 L
228.75 129.955 L
228.754 129.954 L
228.994 129.957 L
229 129.957 L
229 129.957 L
229.007 129.957 L
229.247 129.964 L
229.25 129.964 L
229.25 129.964 L
229.499 129.97 L
229.5 129.97 L
229.5 129.97 L
229.745 129.976 L
229.75 129.976 L
229.75 129.976 L
229.783 129.976 L
230 129.984 L
230 129.984 L
230 129.984 L
230.249 129.993 L
230.25 129.993 L
230.25 129.993 L
230.5 130.002 L
230.5 130.002 L
230.5 130.002 L
230.502 130.002 L
230.749 130.012 L
230.75 130.012 L
230.75 130.012 L
230.751 130.012 L
231 130.025 L
231 130.025 L
231 130.025 L
231.25 130.039 L
231.25 130.039 L
231.252 130.039 L
231.5 130.058 L
231.5 130.058 L
231.5 130.058 L
231.748 130.074 L
231.75 130.074 L
231.75 130.074 L
232 130.094 L
232 130.094 L
232.25 130.119 L
232.25 130.119 L
232.25 130.119 L
232.5 130.147 L
232.5 130.147 L
232.5 130.147 L
232.75 130.176 L
232.75 130.176 L
233 130.204 L
233 130.204 L
233.25 130.231 L
233.25 130.231 L
233.25 130.231 L
233.5 130.259 L
233.5 130.259 L
233.75 130.293 L
233.75 130.293 L
233.75 130.293 L
233.75 130.293 L
234 130.326 L
234 130.326 L
234.249 130.358 L
234.25 130.358 L
234.25 130.358 L
234.499 130.385 L
234.5 130.385 L
234.5 130.385 L
234.75 130.41 L
234.75 130.41 L
234.75 130.41 L
235 130.432 L
235 130.432 L
235.001 130.432 L
235.25 130.458 L
235.25 130.458 L
235.5 130.485 L
235.5 130.485 L
235.5 130.485 L
235.75 130.507 L
235.75 130.507 L
235.75 130.507 L
235.999 130.528 L
236 130.528 L
236 130.528 L
236.001 130.528 L
236.246 130.548 L
236.25 130.548 L
236.25 130.548 L
236.5 130.573 L
236.5 130.573 L
236.75 130.598 L
236.75 130.598 L
237 130.618 L
237 130.618 L
237 130.618 L
237.002 130.618 L
237.25 130.64 L
237.25 130.64 L
237.25 130.64 L
237.5 130.667 L
237.5 130.667 L
237.5 130.667 L
237.75 130.698 L
237.75 130.698 L
238 130.737 L
238 130.737 L
238 130.737 L
238.249 130.78 L
238.25 130.78 L
238.25 130.78 L
238.5 130.826 L
238.5 130.826 L
238.75 130.872 L
238.75 130.872 L
239 130.922 L
239 130.922 L
239.25 130.98 L
239.25 130.98 L
239.5 131.045 L
239.5 131.045 L
239.75 131.114 L
239.75 131.114 L
239.75 131.114 L
240 131.185 L
240 131.185 L
240.25 131.259 L
240.25 131.259 L
240.5 131.33 L
240.5 131.331 L
240.75 131.399 L
240.75 131.399 L
240.75 131.399 L
241 131.463 L
241 131.463 L
241.25 131.522 L
241.25 131.522 L
241.25 131.522 L
241.5 131.578 L
241.5 131.578 L
241.5 131.578 L
241.75 131.63 L
241.75 131.63 L
242 131.678 L
242 131.678 L
242.249 131.722 L
242.25 131.722 L
242.25 131.722 L
242.251 131.722 L
242.5 131.76 L
242.5 131.759 L
242.75 131.789 L
242.75 131.789 L
242.999 131.812 L
243 131.812 L
243 131.812 L
243 131.812 L
243.25 131.834 L
243.25 131.834 L
243.5 131.849 L
243.5 131.849 L
243.5 131.849 L
243.749 131.86 L
243.75 131.86 L
243.75 131.86 L
243.755 131.86 L
243.989 131.875 L
244 131.875 L
244 131.875 L
244.248 131.888 L
244.25 131.888 L
244.25 131.888 L
244.499 131.903 L
244.5 131.903 L
244.5 131.903 L
244.749 131.922 L
244.75 131.922 L
244.75 131.922 L
245 131.94 L
245 131.94 L
245.25 131.953 L
245.25 131.953 L
245.498 131.967 L
245.5 131.966 L
245.5 131.966 L
245.748 131.981 L
245.75 131.981 L
245.75 131.981 L
245.752 131.981 L
246 131.999 L
246 131.999 L
246 131.999 L
246.25 132.021 L
246.25 132.021 L
246.498 132.042 L
246.5 132.042 L
246.5 132.042 L
246.746 132.061 L
246.75 132.061 L
246.75 132.061 L
246.753 132.061 L
246.999 132.083 L
247 132.083 L
247 132.083 L
247.25 132.105 L
247.25 132.105 L
247.25 132.105 L
247.5 132.125 L
247.5 132.125 L
247.5 132.125 L
247.75 132.143 L
247.75 132.143 L
247.75 132.143 L
248 132.158 L
248 132.158 L
248 132.158 L
248.242 132.17 L
248.25 132.17 L
248.25 132.17 L
248.253 132.17 L
248.499 132.182 L
248.5 132.182 L
248.5 132.182 L
248.5 132.182 L
248.75 132.197 L
248.75 132.197 L
248.751 132.197 L
248.998 132.214 L
249 132.214 L
249 132.214 L
249.246 132.233 L
249.25 132.233 L
249.25 132.233 L
249.5 132.254 L
249.5 132.254 L
249.5 132.254 L
249.75 132.271 L
249.75 132.271 L
249.999 132.287 L
250 132.287 L
250 132.286 L
250.25 132.303 L
250.25 132.303 L
250.25 132.303 L
250.5 132.318 L
250.5 132.318 L
250.746 132.329 L
250.75 132.328 L
250.75 132.328 L
250.751 132.328 L
250.994 132.343 L
251 132.343 L
251 132.343 L
251.25 132.365 L
251.25 132.365 L
251.251 132.365 L
251.499 132.391 L
251.5 132.391 L
251.5 132.391 L
251.75 132.418 L
251.75 132.418 L
252 132.446 L
252 132.446 L
252.25 132.472 L
252.25 132.472 L
252.25 132.472 L
252.251 132.472 L
252.498 132.494 L
252.5 132.494 L
252.5 132.494 L
252.501 132.494 L
252.749 132.508 L
252.75 132.508 L
252.75 132.508 L
253 132.522 L
253 132.522 L
253 132.522 L
253 132.522 L
253.25 132.535 L
253.25 132.535 L
253.25 132.535 L
253.251 132.535 L
253.491 132.548 L
253.5 132.548 L
253.5 132.548 L
253.75 132.56 L
253.75 132.56 L
254 132.571 L
254 132.571 L
254.25 132.586 L
254.25 132.586 L
254.25 132.586 L
254.252 132.586 L
254.5 132.598 L
254.5 132.598 L
254.5 132.598 L
254.744 132.605 L
254.75 132.605 L
254.75 132.605 L
254.756 132.604 L
254.967 132.608 L
255 132.607 L
255 132.607 L
255.043 132.608 L
255.242 132.606 L
255.25 132.606 L
255.25 132.606 L
255.251 132.606 L
255.49 132.6 L
255.5 132.601 L
255.5 132.601 L
255.746 132.588 L
255.75 132.589 L
255.75 132.589 L
255.75 132.589 L
255.998 132.577 L
256 132.577 L
256 132.577 L
256.249 132.57 L
256.25 132.57 L
256.25 132.57 L
256.252 132.57 L
256.487 132.565 L
256.5 132.565 L
256.5 132.565 L
256.518 132.565 L
256.747 132.557 L
256.75 132.557 L
256.75 132.557 L
256.751 132.557 L
257 132.55 L
257 132.55 L
257 132.55 L
257.245 132.547 L
257.25 132.547 L
257.25 132.547 L
257.258 132.548 L
257.498 132.543 L
257.5 132.543 L
257.5 132.543 L
257.747 132.537 L
257.75 132.537 L
257.75 132.537 L
257.751 132.537 L
257.997 132.532 L
258 132.532 L
258 132.532 L
258.006 132.532 L
258.214 132.529 L
258.25 132.53 L
258.25 132.53 L
258.268 132.529 L
258.431 132.532 L
258.5 132.532 L
258.5 132.532 L
258.509 132.532 L
258.749 132.542 L
258.75 132.542 L
258.75 132.542 L
258.999 132.558 L
259 132.558 L
259 132.558 L
259.001 132.558 L
259.249 132.582 L
259.25 132.582 L
259.25 132.582 L
259.5 132.609 L
259.5 132.609 L
259.75 132.638 L
259.75 132.638 L
259.751 132.638 L
260 132.669 L
260 132.669 L
260 132.669 L
260.25 132.704 L
260.25 132.704 L
260.5 132.735 L
260.5 132.735 L
260.5 132.735 L
260.75 132.767 L
260.75 132.767 L
260.75 132.767 L
261 132.798 L
261 132.798 L
261 132.798 L
261.249 132.832 L
261.25 132.832 L
261.25 132.832 L
261.5 132.858 L
261.5 132.859 L
261.75 132.884 L
261.75 132.884 L
262 132.908 L
262 132.908 L
262 132.908 L
262.25 132.929 L
262.25 132.929 L
262.25 132.929 L
262.499 132.947 L
262.5 132.947 L
262.5 132.947 L
262.749 132.962 L
262.75 132.962 L
262.75 132.962 L
262.752 132.961 L
262.999 132.974 L
263 132.974 L
263 132.974 L
263.249 132.983 L
263.25 132.983 L
263.25 132.983 L
263.499 132.992 L
263.5 132.992 L
263.5 132.992 L
263.501 132.992 L
263.748 132.999 L
263.75 132.999 L
263.75 132.999 L
263.988 133.009 L
264 133.009 L
264 133.009 L
264.007 133.008 L
264.249 133.016 L
264.25 133.016 L
264.25 133.016 L
264.499 133.025 L
264.5 133.025 L
264.5 133.025 L
264.537 133.025 L
264.75 133.035 L
264.75 133.035 L
264.75 133.035 L
264.999 133.048 L
265 133.048 L
265 133.048 L
265.25 133.063 L
265.25 133.063 L
265.25 133.063 L
265.5 133.081 L
265.5 133.081 L
265.75 133.103 L
265.75 133.103 L
265.999 133.123 L
266 133.123 L
266 133.123 L
266.25 133.147 L
266.25 133.147 L
266.5 133.168 L
266.5 133.168 L
266.75 133.189 L
266.75 133.189 L
267 133.212 L
267 133.212 L
267.25 133.237 L
267.25 133.237 L
267.5 133.267 L
267.5 133.267 L
267.75 133.302 L
267.75 133.302 L
267.75 133.302 L
268 133.341 L
268 133.341 L
268 133.341 L
268.25 133.387 L
268.25 133.387 L
268.499 133.439 L
268.5 133.439 L
268.5 133.439 L
268.75 133.492 L
268.75 133.492 L
268.75 133.492 L
268.75 133.492 L
269 133.546 L
269 133.546 L
269.25 133.602 L
269.25 133.602 L
269.5 133.668 L
269.5 133.668 L
269.75 133.746 L
269.75 133.746 L
270 133.841 L
270 133.841 L
270.25 133.954 L
270.25 133.954 L
270.5 134.081 L
270.5 134.081 L
270.75 134.217 L
270.75 134.217 L
271 134.355 L
271 134.355 L
271.25 134.497 L
271.25 134.497 L
271.5 134.637 L
271.5 134.637 L
271.75 134.774 L
271.75 134.774 L
272 134.897 L
272 134.897 L
272.25 135.018 L
272.25 135.018 L
272.5 135.126 L
272.5 135.126 L
272.75 135.226 L
272.75 135.226 L
273 135.316 L
273 135.316 L
273.25 135.386 L
273.25 135.386 L
273.499 135.436 L
273.5 135.436 L
273.5 135.436 L
273.75 135.462 L
273.75 135.462 L
273.75 135.462 L
273.752 135.462 L
273.943 135.468 L
274 135.467 L
274 135.467 L
274.025 135.467 L
274.247 135.46 L
274.25 135.46 L
274.25 135.46 L
274.5 135.443 L
274.5 135.443 L
274.5 135.443 L
274.75 135.417 L
274.75 135.417 L
274.75 135.417 L
274.999 135.383 L
275 135.383 L
275 135.383 L
275.25 135.349 L
275.25 135.349 L
275.5 135.313 L
275.5 135.313 L
275.749 135.278 L
275.75 135.278 L
275.75 135.278 L
275.75 135.278 L
276 135.243 L
276 135.243 L
276.25 135.206 L
276.25 135.206 L
276.5 135.165 L
276.5 135.165 L
276.75 135.115 L
276.75 135.115 L
277 135.035 L
277 135.035 L
277.25 134.898 L
277.25 134.898 L
277.5 134.65 L
277.5 134.65 L
277.75 134.219 L
277.75 134.218 L
278 133.506 L
278 133.505 L
278.25 132.434 L
278.25 132.433 L
278.5 130.959 L
278.5 130.957 L
278.75 129.057 L
278.75 129.055 L
279 126.757 L
279 126.755 L
279.25 124.092 L
279.25 124.089 L
279.5 121.124 L
279.5 121.121 L
279.75 117.939 L
279.75 117.936 L
280 114.625 L
280 114.622 L
280.25 111.245 L
280.25 111.242 L
280.5 107.875 L
280.5 107.872 L
280.75 104.564 L
280.75 104.561 L
281 101.394 L
281 101.391 L
281.25 98.44 L
281.25 98.438 L
281.5 95.804 L
281.5 95.802 L
281.75 93.549 L
281.75 93.547 L
282 91.716 L
282 91.714 L
282.25 90.312 L
282.25 90.311 L
282.5 89.31 L
282.5 89.309 L
282.75 88.668 L
282.75 88.667 L
283 88.311 L
283 88.311 L
283.25 88.156 L
283.25 88.156 L
283.47 88.126 L
283.5 88.128 L
283.5 88.128 L
283.503 88.128 L
283.75 88.172 L
283.75 88.172 L
284 88.253 L
284 88.253 L
284.25 88.362 L
284.25 88.362 L
284.5 88.492 L
284.5 88.492 L
284.75 88.641 L
284.75 88.641 L
285 88.821 L
285 88.821 L
285.25 89.038 L
285.25 89.038 L
285.5 89.294 L
285.5 89.294 L
285.75 89.59 L
285.75 89.591 L
286 89.94 L
286 89.94 L
286.25 90.36 L
286.25 90.361 L
286.5 90.887 L
286.5 90.887 L
286.75 91.573 L
286.75 91.574 L
287 92.513 L
287 92.514 L
287.25 93.865 L
287.25 93.867 L
287.5 95.896 L
287.5 95.898 L
287.75 98.704 L
287.75 98.706 L
288 102.01 L
288 102.013 L
288.25 105.49 L
288.25 105.493 L
288.5 108.92 L
288.5 108.923 L
288.75 112.309 L
288.75 112.312 L
289 115.722 L
289 115.725 L
289.25 119.179 L
289.25 119.182 L
289.5 122.641 L
289.5 122.644 L
289.75 126.056 L
289.75 126.059 L
290 129.38 L
290 129.383 L
290.25 132.557 L
290.25 132.56 L
290.5 135.474 L
290.5 135.477 L
290.75 137.933 L
290.75 137.935 L
291 139.636 L
291 139.637 L
291.25 140.601 L
291.25 140.601 L
291.5 141.145 L
291.5 141.146 L
291.75 141.586 L
291.75 141.586 L
292 142.057 L
292 142.057 L
292.25 142.503 L
292.25 142.504 L
292.5 142.862 L
292.5 142.862 L
292.75 143.128 L
292.75 143.129 L
293 143.333 L
293 143.333 L
293.25 143.511 L
293.25 143.511 L
293.5 143.669 L
293.5 143.669 L
293.75 143.798 L
293.75 143.799 L
294 143.898 L
294 143.898 L
294.25 143.983 L
294.25 143.983 L
294.5 144.066 L
294.5 144.066 L
294.75 144.156 L
294.75 144.156 L
295 144.248 L
295 144.248 L
295.25 144.342 L
295.25 144.342 L
295.5 144.452 L
295.5 144.453 L
295.75 144.585 L
295.75 144.585 L
296 144.737 L
296 144.737 L
296.25 144.909 L
296.25 144.91 L
296.5 145.097 L
296.5 145.097 L
296.75 145.283 L
296.75 145.284 L
297 145.463 L
297 145.464 L
297.25 145.631 L
297.25 145.632 L
297.5 145.788 L
297.5 145.788 L
297.75 145.936 L
297.75 145.936 L
298 146.076 L
298 146.077 L
298.25 146.21 L
298.25 146.21 L
298.5 146.334 L
298.5 146.334 L
298.75 146.443 L
298.75 146.443 L
299 146.529 L
299 146.529 L
299.25 146.6 L
299.25 146.6 L
299.5 146.657 L
299.5 146.657 L
299.75 146.694 L
299.75 146.694 L
300 146.715 L
300 146.715 L
300.248 146.728 L
300.25 146.728 L
300.25 146.728 L
300.25 146.728 L
300.496 146.732 L
300.5 146.732 L
300.5 146.732 L
300.516 146.732 L
300.75 146.736 L
300.75 146.736 L
300.75 146.736 L
300.836 146.737 L
300.969 146.736 L
301 146.736 L
301 146.736 L
301 146.736 L
301.215 146.733 L
301.25 146.733 L
301.25 146.733 L
301.289 146.734 L
301.499 146.731 L
301.5 146.731 L
301.5 146.731 L
301.516 146.732 L
301.742 146.727 L
301.75 146.728 L
301.75 146.728 L
301.999 146.72 L
302 146.72 L
302 146.72 L
302.006 146.72 L
302.248 146.711 L
302.25 146.711 L
302.25 146.711 L
302.25 146.711 L
302.487 146.706 L
302.5 146.706 L
302.5 146.706 L
302.506 146.706 L
302.746 146.701 L
302.75 146.701 L
302.75 146.701 L
302.779 146.701 L
302.87 146.702 L
303 146.701 L
303 146.701 L
303.246 146.71 L
303.25 146.709 L
303.25 146.709 L
303.25 146.709 L
303.499 146.727 L
303.5 146.727 L
303.5 146.727 L
303.75 146.749 L
303.75 146.749 L
303.75 146.749 L
303.75 146.749 L
304 146.78 L
304 146.78 L
304 146.78 L
304.249 146.814 L
304.25 146.814 L
304.25 146.814 L
304.251 146.814 L
304.5 146.855 L
304.5 146.855 L
304.75 146.897 L
304.75 146.897 L
305 146.941 L
305 146.941 L
305.25 146.986 L
305.25 146.986 L
305.5 147.04 L
305.5 147.04 L
305.75 147.1 L
305.75 147.1 L
306 147.164 L
306 147.164 L
306.25 147.229 L
306.25 147.229 L
306.5 147.294 L
306.5 147.294 L
306.75 147.358 L
306.75 147.358 L
307 147.419 L
307 147.419 L
307.25 147.478 L
307.25 147.478 L
307.25 147.478 L
307.5 147.532 L
307.5 147.532 L
307.5 147.532 L
307.75 147.586 L
307.75 147.586 L
308 147.636 L
308 147.636 L
308.25 147.687 L
308.25 147.687 L
308.5 147.736 L
308.5 147.736 L
308.75 147.786 L
308.75 147.786 L
309 147.835 L
309 147.835 L
309.25 147.877 L
309.25 147.877 L
309.25 147.877 L
309.5 147.914 L
309.5 147.914 L
309.5 147.914 L
309.75 147.948 L
309.75 147.948 L
309.75 147.948 L
310 147.98 L
310 147.98 L
310 147.98 L
310.25 148.011 L
310.25 148.011 L
310.5 148.043 L
310.5 148.043 L
310.75 148.068 L
310.75 148.068 L
310.75 148.068 L
310.75 148.068 L
311 148.092 L
311 148.092 L
311 148.092 L
311 148.092 L
311.25 148.112 L
311.25 148.112 L
311.25 148.112 L
311.5 148.131 L
311.5 148.131 L
311.5 148.131 L
311.75 148.15 L
311.75 148.15 L
312 148.172 L
312 148.172 L
312.249 148.193 L
312.25 148.193 L
312.25 148.193 L
312.497 148.212 L
312.5 148.212 L
312.5 148.212 L
312.75 148.236 L
312.75 148.236 L
312.75 148.236 L
313 148.264 L
313 148.264 L
313 148.264 L
313.25 148.294 L
313.25 148.294 L
313.5 148.325 L
313.5 148.325 L
313.5 148.325 L
313.749 148.349 L
313.75 148.349 L
313.75 148.349 L
313.999 148.376 L
314 148.376 L
314 148.376 L
314.001 148.376 L
314.25 148.409 L
314.25 148.409 L
314.5 148.449 L
314.5 148.449 L
314.75 148.493 L
314.75 148.493 L
315 148.544 L
315 148.544 L
315.25 148.59 L
315.25 148.59 L
315.5 148.635 L
315.5 148.635 L
315.75 148.677 L
315.75 148.677 L
316 148.717 L
316 148.717 L
316.249 148.753 L
316.25 148.753 L
316.25 148.753 L
316.5 148.793 L
316.5 148.793 L
316.5 148.793 L
316.75 148.832 L
316.75 148.832 L
317 148.875 L
317 148.875 L
317.25 148.926 L
317.25 148.927 L
317.5 148.977 L
317.5 148.977 L
317.5 148.977 L
317.75 149.024 L
317.75 149.024 L
318 149.066 L
318 149.066 L
318.25 149.108 L
318.25 149.108 L
318.5 149.147 L
318.5 149.148 L
318.75 149.188 L
318.75 149.188 L
319 149.227 L
319 149.227 L
319.25 149.268 L
319.25 149.268 L
319.5 149.307 L
319.5 149.307 L
319.75 149.338 L
319.75 149.338 L
319.999 149.368 L
320 149.368 L
320 149.368 L
320.25 149.393 L
320.25 149.393 L
320.25 149.393 L
320.5 149.41 L
320.5 149.41 L
320.501 149.41 L
320.749 149.42 L
320.75 149.42 L
320.75 149.42 L
320.974 149.425 L
321 149.425 L
321 149.425 L
321.002 149.425 L
321.25 149.418 L
321.25 149.418 L
321.499 149.404 L
321.5 149.404 L
321.5 149.404 L
321.75 149.383 L
321.75 149.383 L
322 149.358 L
322 149.358 L
322.25 149.333 L
322.25 149.333 L
322.251 149.333 L
322.5 149.307 L
322.5 149.307 L
322.75 149.28 L
322.75 149.28 L
322.75 149.279 L
323 149.252 L
323 149.252 L
323.25 149.23 L
323.25 149.23 L
323.25 149.23 L
323.5 149.205 L
323.5 149.205 L
323.749 149.184 L
323.75 149.184 L
323.75 149.184 L
323.75 149.184 L
324 149.164 L
324 149.164 L
324.244 149.154 L
324.25 149.154 L
324.25 149.154 L
324.251 149.154 L
324.471 149.149 L
324.5 149.149 L
324.5 149.149 L
324.563 149.149 L
324.749 149.152 L
324.75 149.152 L
324.75 149.152 L
324.755 149.152 L
325 149.165 L
325 149.165 L
325.001 149.165 L
325.25 149.183 L
325.25 149.183 L
325.5 149.204 L
325.5 149.204 L
325.5 149.204 L
325.744 149.222 L
325.75 149.222 L
325.75 149.222 L
326 149.24 L
326 149.24 L
326.25 149.257 L
326.25 149.257 L
326.496 149.273 L
326.5 149.273 L
326.5 149.273 L
326.749 149.286 L
326.75 149.286 L
326.75 149.286 L
326.751 149.286 L
326.999 149.298 L
327 149.298 L
327 149.298 L
327.004 149.298 L
327.25 149.309 L
327.25 149.309 L
327.499 149.318 L
327.5 149.318 L
327.5 149.318 L
327.506 149.317 L
327.75 149.327 L
327.75 149.327 L
327.75 149.327 L
327.757 149.327 L
327.994 149.333 L
328 149.333 L
328 149.333 L
328.002 149.333 L
328.249 149.34 L
328.25 149.34 L
328.25 149.34 L
328.263 149.339 L
328.5 149.346 L
328.5 149.346 L
328.5 149.345 L
328.75 149.354 L
328.75 149.354 L
329 149.365 L
329 149.365 L
329.007 149.365 L
329.25 149.382 L
329.25 149.382 L
329.499 149.399 L
329.5 149.399 L
329.5 149.399 L
329.75 149.419 L
329.75 149.419 L
329.75 149.419 L
330 149.441 L
330 149.441 L
330 149.441 L
330.25 149.461 L
330.25 149.461 L
330.25 149.461 L
330.251 149.461 L
330.5 149.481 L
330.5 149.481 L
330.5 149.481 L
330.749 149.503 L
330.75 149.503 L
330.75 149.503 L
331 149.523 L
331 149.523 L
331 149.523 L
331.25 149.546 L
331.25 149.546 L
331.5 149.568 L
331.5 149.568 L
331.75 149.587 L
331.75 149.587 L
331.75 149.587 L
331.75 149.587 L
332 149.606 L
332 149.606 L
332.25 149.622 L
332.25 149.622 L
332.25 149.622 L
332.25 149.622 L
332.5 149.638 L
332.5 149.638 L
332.501 149.638 L
332.749 149.655 L
332.75 149.655 L
332.75 149.655 L
333 149.675 L
333 149.675 L
333 149.675 L
333.247 149.688 L
333.25 149.687 L
333.25 149.687 L
333.251 149.687 L
333.499 149.7 L
333.5 149.7 L
333.5 149.7 L
333.5 149.7 L
333.75 149.714 L
333.75 149.714 L
333.999 149.727 L
334 149.727 L
334 149.727 L
334.249 149.739 L
334.25 149.739 L
334.25 149.739 L
334.251 149.739 L
334.497 149.753 L
334.5 149.753 L
334.5 149.753 L
334.502 149.752 L
334.749 149.766 L
334.75 149.766 L
334.75 149.766 L
335 149.781 L
335 149.781 L
335 149.781 L
335.25 149.801 L
335.25 149.801 L
335.25 149.801 L
335.5 149.817 L
335.5 149.817 L
335.502 149.817 L
335.748 149.83 L
335.75 149.83 L
335.75 149.829 L
335.752 149.829 L
336 149.838 L
336 149.838 L
336 149.838 L
336.25 149.85 L
336.25 149.85 L
336.263 149.849 L
336.498 149.857 L
336.5 149.857 L
336.5 149.857 L
336.501 149.857 L
336.75 149.867 L
336.75 149.867 L
336.751 149.867 L
337 149.883 L
337 149.883 L
337.001 149.883 L
337.249 149.899 L
337.25 149.899 L
337.25 149.899 L
337.5 149.918 L
337.5 149.918 L
337.501 149.918 L
337.75 149.938 L
337.75 149.938 L
338 149.954 L
338 149.954 L
338.249 149.967 L
338.25 149.967 L
338.25 149.967 L
338.45 149.974 L
338.5 149.974 L
338.5 149.974 L
338.509 149.973 L
338.718 149.975 L
338.75 149.975 L
338.75 149.975 L
338.756 149.975 L
338.898 149.976 L
339 149.975 L
339 149.975 L
339.043 149.975 L
339.233 149.977 L
339.25 149.977 L
339.25 149.977 L
339.26 149.977 L
339.466 149.979 L
339.5 149.978 L
339.5 149.978 L
339.526 149.979 L
339.712 149.977 L
339.75 149.978 L
339.75 149.978 L
339.768 149.978 L
339.977 149.982 L
340 149.981 L
340 149.981 L
340.076 149.982 L
340.224 149.98 L
340.25 149.98 L
340.25 149.98 L
340.269 149.98 L
340.495 149.976 L
340.5 149.976 L
340.5 149.976 L
340.621 149.978 L
340.749 149.975 L
340.75 149.975 L
340.75 149.975 L
340.779 149.975 L
340.999 149.97 L
341 149.97 L
341 149.97 L
341.001 149.971 L
341.249 149.963 L
341.25 149.963 L
341.25 149.963 L
341.25 149.963 L
341.463 149.957 L
341.5 149.958 L
341.5 149.958 L
341.557 149.957 L
341.746 149.96 L
341.75 149.96 L
341.75 149.96 L
341.752 149.96 L
341.995 149.969 L
342 149.969 L
342 149.969 L
342.001 149.969 L
342.249 149.982 L
342.25 149.982 L
342.25 149.982 L
342.251 149.982 L
342.5 150.003 L
342.5 150.003 L
342.5 150.003 L
342.501 150.003 L
342.75 150.026 L
342.75 150.026 L
343 150.047 L
343 150.047 L
343 150.047 L
343 150.047 L
343.25 150.069 L
343.25 150.069 L
343.5 150.089 L
343.5 150.089 L
343.748 150.112 L
343.75 150.112 L
343.75 150.112 L
344 150.133 L
344 150.133 L
344.003 150.133 L
344.248 150.153 L
344.25 150.153 L
344.25 150.153 L
344.251 150.153 L
344.5 150.178 L
344.5 150.178 L
344.749 150.209 L
344.75 150.209 L
344.75 150.209 L
345 150.241 L
345 150.24 L
345.247 150.265 L
345.25 150.265 L
345.25 150.265 L
345.499 150.288 L
345.5 150.288 L
345.5 150.288 L
345.75 150.306 L
345.75 150.306 L
345.998 150.317 L
346 150.317 L
346 150.317 L
346.006 150.317 L
346.25 150.328 L
346.25 150.328 L
346.497 150.34 L
346.5 150.34 L
346.5 150.34 L
346.742 150.355 L
346.75 150.355 L
346.75 150.355 L
347 150.371 L
347 150.371 L
347 150.371 L
347.249 150.389 L
347.25 150.389 L
347.25 150.389 L
347.5 150.402 L
347.5 150.402 L
347.5 150.402 L
347.502 150.402 L
347.738 150.411 L
347.75 150.411 L
347.75 150.411 L
347.757 150.411 L
347.916 150.415 L
348 150.415 L
348 150.415 L
348.006 150.415 L
348.226 150.413 L
348.25 150.414 L
348.25 150.414 L
348.386 150.416 L
348.448 150.413 L
348.5 150.414 L
348.5 150.414 L
348.514 150.414 L
348.728 150.418 L
348.75 150.417 L
348.75 150.417 L
348.752 150.417 L
348.999 150.427 L
349 150.427 L
349 150.427 L
349.001 150.427 L
349.248 150.437 L
349.25 150.437 L
349.25 150.437 L
349.5 150.452 L
349.5 150.452 L
349.5 150.452 L
349.75 150.466 L
349.75 150.466 L
349.751 150.466 L
350 150.483 L
350 150.483 L
350.001 150.483 L
350.249 150.499 L
350.25 150.499 L
350.25 150.499 L
350.5 150.512 L
350.5 150.512 L
350.749 150.531 L
350.75 150.531 L
350.75 150.531 L
351 150.552 L
351 150.552 L
351.249 150.576 L
351.25 150.576 L
351.25 150.575 L
351.5 150.603 L
351.5 150.603 L
351.5 150.603 L
351.749 150.629 L
351.75 150.629 L
351.75 150.629 L
351.999 150.66 L
352 150.66 L
352 150.66 L
352.25 150.693 L
352.25 150.693 L
352.5 150.728 L
352.5 150.728 L
352.75 150.768 L
352.75 150.768 L
352.999 150.812 L
353 150.812 L
353 150.812 L
353 150.812 L
353.25 150.853 L
353.25 150.853 L
353.5 150.897 L
353.5 150.897 L
353.75 150.942 L
353.75 150.942 L
353.75 150.942 L
354 150.989 L
354 150.989 L
354.25 151.029 L
354.25 151.029 L
354.5 151.067 L
354.5 151.067 L
354.75 151.107 L
354.75 151.107 L
354.999 151.146 L
355 151.145 L
355 151.145 L
355.25 151.186 L
355.25 151.186 L
355.25 151.186 L
355.5 151.225 L
355.5 151.225 L
355.75 151.265 L
355.75 151.265 L
355.75 151.265 L
356 151.308 L
356 151.308 L
356.249 151.344 L
356.25 151.344 L
356.25 151.344 L
356.499 151.36 L
356.5 151.359 L
356.5 151.359 L
356.51 151.36 L
356.75 151.325 L
356.75 151.325 L
357 151.206 L
357 151.205 L
357.25 150.953 L
357.25 150.953 L
357.5 150.493 L
357.5 150.493 L
357.75 149.721 L
357.75 149.721 L
358 148.548 L
358 148.547 L
358.25 146.889 L
358.25 146.887 L
358.5 144.693 L
358.5 144.691 L
358.75 141.925 L
358.75 141.923 L
359 138.589 L
359 138.585 L
359.25 134.772 L
359.25 134.769 L
359.5 130.617 L
359.5 130.613 L
359.75 126.264 L
359.75 126.26 L
360 121.81 L
360 121.806 L
360.25 117.353 L
360.25 117.349 L
360.5 112.96 L
360.5 112.956 L
360.75 108.701 L
360.75 108.697 L
361 104.674 L
361 104.671 L
361.25 100.985 L
361.25 100.982 L
361.5 97.732 L
361.5 97.729 L
361.75 94.973 L
361.75 94.971 L
362 92.767 L
362 92.765 L
362.25 91.127 L
362.25 91.126 L
362.5 90.03 L
362.5 90.03 L
362.75 89.361 L
362.75 89.361 L
363 88.981 L
363 88.981 L
363.25 88.772 L
363.25 88.772 L
363.5 88.664 L
363.5 88.664 L
363.75 88.598 L
363.75 88.598 L
363.999 88.557 L
364 88.557 L
364 88.557 L
364.25 88.52 L
364.25 88.52 L
364.25 88.52 L
364.5 88.485 L
364.5 88.485 L
364.75 88.454 L
364.75 88.454 L
364.999 88.418 L
365 88.418 L
365 88.418 L
365.25 88.388 L
365.25 88.387 L
365.5 88.358 L
365.5 88.358 L
365.5 88.358 L
365.5 88.358 L
365.75 88.341 L
365.75 88.341 L
365.75 88.341 L
365.985 88.332 L
366 88.332 L
366 88.332 L
366.24 88.327 L
366.25 88.327 L
366.25 88.327 L
366.381 88.324 L
366.5 88.329 L
366.5 88.329 L
366.5 88.329 L
366.501 88.329 L
366.75 88.337 L
366.75 88.337 L
367 88.36 L
367 88.36 L
367 88.36 L
367.25 88.406 L
367.25 88.406 L
367.5 88.465 L
367.5 88.465 L
367.75 88.553 L
367.75 88.553 L
368 88.669 L
368 88.669 L
368.25 88.818 L
368.25 88.818 L
368.5 89.035 L
368.5 89.035 L
368.75 89.359 L
368.75 89.36 L
369 89.879 L
369 89.88 L
369.25 90.745 L
369.25 90.746 L
369.5 92.274 L
369.5 92.276 L
369.75 94.791 L
369.75 94.793 L
370 97.928 L
370 97.931 L
370.25 101.249 L
370.25 101.252 L
370.5 104.455 L
370.5 104.458 L
370.75 107.593 L
370.75 107.596 L
371 110.765 L
371 110.768 L
371.25 114.004 L
371.25 114.007 L
371.5 117.265 L
371.5 117.268 L
371.75 120.488 L
371.75 120.491 L
372 123.636 L
372 123.639 L
372.25 126.692 L
372.25 126.695 L
372.5 129.575 L
372.5 129.577 L
372.75 132.092 L
372.75 132.094 L
373 133.838 L
373 133.839 L
373.25 134.684 L
373.25 134.684 L
373.5 135.072 L
373.5 135.072 L
373.75 135.431 L
373.75 135.431 L
374 135.929 L
374 135.929 L
374.25 136.464 L
374.25 136.464 L
374.5 136.957 L
374.5 136.958 L
374.75 137.394 L
374.75 137.394 L
375 137.815 L
375 137.815 L
375.25 138.269 L
375.25 138.27 L
375.5 138.749 L
375.5 138.749 L
375.75 139.223 L
375.75 139.223 L
376 139.678 L
376 139.678 L
376.25 140.127 L
376.25 140.127 L
376.5 140.583 L
376.5 140.584 L
376.75 141.047 L
376.75 141.047 L
377 141.498 L
377 141.498 L
377.25 141.949 L
377.25 141.949 L
377.5 142.411 L
377.5 142.412 L
377.75 142.888 L
377.75 142.888 L
378 143.374 L
378 143.374 L
378.25 143.872 L
378.25 143.872 L
378.5 144.381 L
378.5 144.382 L
378.75 144.889 L
378.75 144.889 L
379 145.39 L
379 145.391 L
379.25 145.877 L
379.25 145.877 L
379.5 146.344 L
379.5 146.344 L
379.75 146.798 L
379.75 146.799 L
380 147.236 L
380 147.237 L
380.25 147.648 L
380.25 147.649 L
380.5 148.02 L
380.5 148.02 L
380.75 148.354 L
380.75 148.354 L
381 148.645 L
381 148.645 L
381.25 148.908 L
381.25 148.908 L
381.5 149.135 L
381.5 149.135 L
381.75 149.329 L
381.75 149.329 L
382 149.489 L
382 149.489 L
382.25 149.616 L
382.25 149.616 L
382.5 149.718 L
382.5 149.718 L
382.75 149.803 L
382.75 149.803 L
383 149.874 L
383 149.874 L
383.25 149.921 L
383.25 149.921 L
383.25 149.921 L
383.499 149.955 L
383.5 149.955 L
383.5 149.955 L
383.749 149.982 L
383.75 149.982 L
383.75 149.982 L
384 150.007 L
384 150.007 L
384.001 150.007 L
384.25 150.031 L
384.25 150.031 L
384.5 150.05 L
384.5 150.05 L
384.748 150.066 L
384.75 150.066 L
384.75 150.066 L
385 150.085 L
385 150.085 L
385 150.085 L
385.25 150.109 L
385.25 150.109 L
385.5 150.141 L
385.5 150.141 L
385.75 150.176 L
385.75 150.176 L
386 150.209 L
386 150.209 L
386 150.209 L
386 150.209 L
386.25 150.231 L
386.25 150.231 L
386.25 150.231 L
386.499 150.249 L
386.5 150.249 L
386.5 150.249 L
386.749 150.263 L
386.75 150.263 L
386.75 150.263 L
387 150.275 L
387 150.275 L
387 150.275 L
387.25 150.283 L
387.25 150.283 L
387.251 150.283 L
387.5 150.29 L
387.5 150.291 L
387.749 150.306 L
387.75 150.306 L
387.75 150.306 L
388 150.328 L
388 150.328 L
388.25 150.352 L
388.25 150.352 L
388.5 150.374 L
388.5 150.374 L
388.503 150.374 L
388.746 150.391 L
388.75 150.391 L
388.75 150.391 L
388.999 150.404 L
389 150.404 L
389 150.404 L
389.247 150.41 L
389.25 150.41 L
389.25 150.41 L
389.494 150.415 L
389.5 150.414 L
389.5 150.414 L
389.539 150.415 L
389.64 150.414 L
389.75 150.414 L
389.75 150.414 L
389.992 150.411 L
390 150.412 L
390 150.412 L
390.038 150.412 L
390.249 150.406 L
390.25 150.406 L
390.25 150.406 L
390.5 150.395 L
390.5 150.395 L
390.5 150.395 L
390.502 150.395 L
390.75 150.391 L
390.75 150.391 L
390.885 150.391 L
390.997 150.389 L
391 150.389 L
391 150.389 L
391.024 150.389 L
391.25 150.383 L
391.25 150.383 L
391.5 150.364 L
391.5 150.364 L
391.75 150.333 L
391.75 150.332 L
392 150.287 L
392 150.287 L
392.25 150.234 L
392.25 150.234 L
392.5 150.173 L
392.5 150.173 L
392.5 150.173 L
392.75 150.102 L
392.75 150.102 L
393 150.025 L
393 150.025 L
393.25 149.944 L
393.25 149.944 L
393.5 149.863 L
393.5 149.863 L
393.75 149.788 L
393.75 149.788 L
394 149.72 L
394 149.72 L
394.249 149.654 L
394.25 149.654 L
394.25 149.654 L
394.5 149.594 L
394.5 149.594 L
394.5 149.594 L
394.5 149.594 L
394.75 149.539 L
394.75 149.539 L
394.75 149.539 L
395 149.494 L
395 149.494 L
395 149.494 L
395.249 149.449 L
395.25 149.449 L
395.25 149.449 L
395.25 149.449 L
395.5 149.408 L
395.5 149.408 L
395.5 149.408 L
395.75 149.375 L
395.75 149.375 L
395.75 149.375 L
395.999 149.348 L
396 149.348 L
396 149.348 L
396.003 149.348 L
396.25 149.333 L
396.25 149.333 L
396.25 149.333 L
396.483 149.327 L
396.5 149.327 L
396.5 149.327 L
396.503 149.327 L
396.715 149.324 L
396.75 149.325 L
396.75 149.325 L
396.761 149.325 L
396.795 149.324 L
397 149.324 L
397 149.325 L
397.01 149.325 L
397.25 149.32 L
397.25 149.32 L
397.499 149.311 L
397.5 149.312 L
397.5 149.312 L
397.749 149.302 L
397.75 149.302 L
397.75 149.302 L
397.751 149.302 L
397.998 149.284 L
398 149.284 L
398 149.284 L
398.007 149.284 L
398.249 149.269 L
398.25 149.269 L
398.25 149.269 L
398.25 149.269 L
398.5 149.252 L
398.5 149.252 L
398.748 149.243 L
398.75 149.243 L
398.75 149.243 L
398.752 149.243 L
398.947 149.241 L
399 149.241 L
399 149.241 L
399.07 149.241 L
399.249 149.244 L
399.25 149.244 L
399.25 149.244 L
399.252 149.244 L
399.5 149.249 L
399.5 149.249 L
399.5 149.249 L
399.547 149.248 L
399.74 149.25 L
399.75 149.25 L
399.75 149.25 L
399.812 149.25 L
399.985 149.252 L
400 149.252 L
400 149.252 L
400.215 149.253 L
400.25 149.251 L
400.25 149.251 L
400.25 149.251 L
400.257 149.251 L
400.498 149.253 L
400.5 149.253 L
400.5 149.253 L
400.5 149.253 L
400.735 149.26 L
400.75 149.26 L
400.75 149.26 L
400.75 149.26 L
400.999 149.275 L
401 149.275 L
401 149.275 L
401.25 149.29 L
401.25 149.29 L
401.5 149.309 L
401.5 149.309 L
401.5 149.309 L
401.75 149.326 L
401.75 149.326 L
401.752 149.326 L
401.997 149.34 L
402 149.339 L
402 149.339 L
402.003 149.339 L
402.237 149.347 L
402.25 149.347 L
402.25 149.347 L
402.373 149.348 L
402.487 149.345 L
402.5 149.345 L
402.5 149.345 L
402.501 149.345 L
402.75 149.339 L
402.75 149.339 L
402.753 149.339 L
403 149.329 L
403 149.329 L
403 149.329 L
403.249 149.317 L
403.25 149.317 L
403.25 149.317 L
403.494 149.303 L
403.5 149.303 L
403.5 149.303 L
403.75 149.288 L
403.75 149.288 L
403.75 149.288 L
404 149.274 L
404 149.273 L
404.248 149.254 L
404.25 149.254 L
404.25 149.254 L
404.5 149.236 L
404.5 149.236 L
404.5 149.236 L
404.749 149.216 L
404.75 149.216 L
404.75 149.216 L
404.996 149.202 L
405 149.202 L
405 149.202 L
405.248 149.191 L
405.25 149.191 L
405.25 149.191 L
405.259 149.191 L
405.5 149.182 L
405.5 149.182 L
405.5 149.182 L
405.71 149.176 L
405.75 149.177 L
405.75 149.177 L
405.757 149.177 L
405.995 149.175 L
406 149.175 L
406 149.175 L
406.234 149.173 L
406.25 149.173 L
406.25 149.173 L
406.253 149.173 L
406.5 149.177 L
406.5 149.177 L
406.535 149.176 L
406.738 149.182 L
406.75 149.182 L
406.75 149.182 L
406.999 149.184 L
407 149.184 L
407 149.184 L
407.026 149.183 L
407.227 149.186 L
407.25 149.185 L
407.25 149.185 L
407.385 149.186 L
407.5 149.184 L
407.5 149.184 L
407.571 149.185 L
407.727 149.182 L
407.75 149.183 L
407.75 149.183 L
407.758 149.183 L
407.982 149.178 L
408 149.179 L
408 149.179 L
408.003 149.179 L
408.177 149.181 L
408.25 149.179 L
408.25 149.179 L
408.268 149.18 L
408.494 149.176 L
408.5 149.176 L
408.5 149.176 L
408.502 149.176 L
408.749 149.169 L
408.75 149.169 L
408.75 149.169 L
408.772 149.169 L
408.998 149.16 L
409 149.16 L
409 149.16 L
409.247 149.151 L
409.25 149.151 L
409.25 149.151 L
409.499 149.141 L
409.5 149.141 L
409.5 149.141 L
409.503 149.141 L
409.749 149.133 L
409.75 149.133 L
409.75 149.133 L
409.765 149.134 L
410 149.13 L
410 149.13 L
410.236 149.126 L
410.25 149.127 L
410.25 149.127 L
410.251 149.127 L
410.499 149.135 L
410.5 149.135 L
410.5 149.135 L
410.501 149.135 L
410.749 149.148 L
410.75 149.148 L
410.75 149.148 L
410.75 149.148 L
410.999 149.168 L
411 149.168 L
411 149.168 L
411.25 149.197 L
411.25 149.197 L
411.25 149.197 L
411.5 149.233 L
411.5 149.233 L
411.75 149.28 L
411.75 149.28 L
412 149.335 L
412 149.335 L
412.25 149.395 L
412.25 149.395 L
412.5 149.454 L
412.5 149.454 L
412.75 149.509 L
412.75 149.509 L
412.999 149.558 L
413 149.558 L
413 149.558 L
413.25 149.602 L
413.25 149.602 L
413.5 149.64 L
413.5 149.64 L
413.75 149.677 L
413.75 149.677 L
414 149.706 L
414 149.706 L
414.249 149.732 L
414.25 149.732 L
414.25 149.732 L
414.25 149.732 L
414.498 149.752 L
414.5 149.752 L
414.5 149.752 L
414.5 149.752 L
414.75 149.767 L
414.75 149.767 L
414.752 149.767 L
414.976 149.774 L
415 149.774 L
415 149.774 L
415.01 149.775 L
415.25 149.763 L
415.25 149.763 L
415.25 149.763 L
415.251 149.763 L
415.5 149.745 L
415.5 149.745 L
415.505 149.745 L
415.75 149.726 L
415.75 149.726 L
415.75 149.726 L
415.751 149.726 L
416 149.712 L
416 149.712 L
416.248 149.704 L
416.25 149.704 L
416.25 149.704 L
416.499 149.699 L
416.5 149.7 L
416.5 149.7 L
416.501 149.7 L
416.671 149.696 L
416.75 149.697 L
416.75 149.697 L
416.806 149.697 L
416.958 149.695 L
417 149.696 L
417 149.696 L
417.106 149.694 L
417.249 149.697 L
417.25 149.697 L
417.25 149.697 L
417.287 149.697 L
417.363 149.696 L
417.5 149.697 L
417.5 149.697 L
417.558 149.696 L
417.745 149.701 L
417.75 149.701 L
417.75 149.701 L
417.759 149.701 L
418 149.71 L
418 149.71 L
418.247 149.717 L
418.25 149.717 L
418.25 149.717 L
418.259 149.717 L
418.499 149.727 L
418.5 149.727 L
418.5 149.727 L
418.75 149.746 L
418.75 149.746 L
418.751 149.746 L
419 149.77 L
419 149.77 L
419.249 149.793 L
419.25 149.793 L
419.25 149.793 L
419.5 149.819 L
419.5 149.819 L
419.75 149.848 L
419.75 149.848 L
419.751 149.848 L
420 149.873 L
420 149.873 L
420.25 149.897 L
420.25 149.897 L
420.499 149.915 L
420.5 149.915 L
420.5 149.915 L
420.75 149.931 L
420.75 149.931 L
420.75 149.931 L
420.999 149.947 L
421 149.947 L
421 149.947 L
421.001 149.947 L
421.249 149.959 L
421.25 149.959 L
421.25 149.959 L
421.251 149.959 L
421.481 149.968 L
421.5 149.967 L
421.5 149.967 L
421.503 149.967 L
421.75 149.978 L
421.75 149.978 L
421.752 149.978 L
421.996 149.985 L
422 149.984 L
422 149.984 L
422.085 149.984 L
422.236 149.986 L
422.25 149.986 L
422.25 149.986 L
422.312 149.986 L
422.498 149.985 L
422.5 149.985 L
422.5 149.985 L
422.511 149.986 L
422.731 149.984 L
422.75 149.984 L
422.75 149.984 L
422.778 149.984 L
422.85 149.982 L
423 149.983 L
423 149.983 L
423.024 149.982 L
423.249 149.984 L
423.25 149.984 L
423.25 149.984 L
423.251 149.984 L
423.46 149.989 L
423.5 149.988 L
423.5 149.988 L
423.518 149.988 L
423.748 149.997 L
423.75 149.997 L
423.75 149.997 L
423.75 149.997 L
424 150.008 L
424 150.008 L
424.25 150.019 L
424.25 150.019 L
424.25 150.019 L
424.5 150.031 L
424.5 150.031 L
424.501 150.031 L
424.75 150.04 L
424.75 150.04 L
424.76 150.04 L
424.996 150.048 L
425 150.048 L
425 150.048 L
425 150.048 L
425.249 150.056 L
425.25 150.056 L
425.25 150.056 L
425.251 150.056 L
425.499 150.066 L
425.5 150.066 L
425.5 150.066 L
425.501 150.066 L
425.749 150.079 L
425.75 150.079 L
425.75 150.079 L
425.999 150.09 L
426 150.09 L
426 150.09 L
426.002 150.09 L
426.249 150.103 L
426.25 150.103 L
426.25 150.103 L
426.498 150.115 L
426.5 150.115 L
426.5 150.115 L
426.501 150.115 L
426.749 150.129 L
426.75 150.129 L
426.75 150.129 L
426.998 150.142 L
427 150.142 L
427 150.141 L
427.249 150.157 L
427.25 150.157 L
427.25 150.157 L
427.498 150.172 L
427.5 150.172 L
427.5 150.172 L
427.745 150.186 L
427.75 150.186 L
427.75 150.186 L
427.999 150.201 L
428 150.201 L
428 150.201 L
428 150.201 L
428.25 150.219 L
428.25 150.219 L
428.25 150.219 L
428.5 150.24 L
428.5 150.24 L
428.75 150.26 L
428.75 150.26 L
428.999 150.284 L
429 150.284 L
429 150.284 L
429.25 150.312 L
429.25 150.312 L
429.25 150.312 L
429.251 150.312 L
429.5 150.343 L
429.5 150.343 L
429.75 150.371 L
429.75 150.371 L
429.75 150.371 L
430 150.399 L
430 150.399 L
430 150.399 L
430.25 150.423 L
430.25 150.423 L
430.498 150.442 L
430.5 150.442 L
430.5 150.442 L
430.501 150.442 L
430.749 150.456 L
430.75 150.456 L
430.75 150.456 L
430.998 150.467 L
431 150.467 L
431 150.467 L
431.249 150.478 L
431.25 150.478 L
431.25 150.478 L
431.254 150.478 L
431.499 150.485 L
431.5 150.485 L
431.5 150.484 L
431.75 150.489 L
431.75 150.489 L
431.75 150.489 L
431.811 150.49 L
431.947 150.487 L
432 150.488 L
432 150.488 L
432.25 150.477 L
432.25 150.477 L
432.25 150.477 L
432.5 150.458 L
432.5 150.458 L
432.501 150.458 L
432.749 150.436 L
432.75 150.437 L
432.75 150.437 L
432.752 150.437 L
433 150.413 L
433 150.413 L
433 150.413 L
433.001 150.413 L
433.25 150.387 L
433.25 150.387 L
433.25 150.387 L
433.5 150.361 L
433.5 150.36 L
433.75 150.338 L
433.75 150.338 L
433.995 150.322 L
434 150.322 L
434 150.322 L
434.249 150.306 L
434.25 150.306 L
434.25 150.306 L
434.497 150.293 L
434.5 150.293 L
434.5 150.293 L
434.501 150.293 L
434.746 150.288 L
434.75 150.288 L
434.75 150.288 L
434.908 150.285 L
435 150.286 L
435 150.286 L
435.249 150.298 L
435.25 150.298 L
435.25 150.298 L
435.498 150.314 L
435.5 150.314 L
435.5 150.314 L
435.75 150.344 L
435.75 150.344 L
436 150.381 L
436 150.381 L
436.001 150.381 L
436.25 150.422 L
436.25 150.422 L
436.5 150.476 L
436.5 150.476 L
436.75 150.544 L
436.75 150.544 L
437 150.627 L
437 150.627 L
437.25 150.721 L
437.25 150.721 L
437.5 150.824 L
437.5 150.824 L
437.75 150.926 L
437.75 150.926 L
438 150.999 L
438 150.999 L
438 150.999 L
438.186 151.023 L
438.25 151.019 L
438.25 151.019 L
438.5 150.936 L
438.5 150.936 L
438.75 150.687 L
438.75 150.686 L
439 150.203 L
439 150.202 L
439.25 149.404 L
439.25 149.403 L
439.5 148.156 L
439.5 148.155 L
439.75 146.308 L
439.75 146.306 L
440 143.706 L
440 143.703 L
440.25 140.307 L
440.25 140.304 L
440.5 136.285 L
440.5 136.281 L
440.75 131.894 L
440.75 131.89 L
441 127.316 L
441 127.312 L
441.25 122.693 L
441.25 122.689 L
441.5 118.097 L
441.5 118.093 L
441.75 113.593 L
441.75 113.589 L
442 109.223 L
442 109.219 L
442.25 105.071 L
442.25 105.068 L
442.5 101.201 L
442.5 101.198 L
442.75 97.696 L
442.75 97.693 L
443 94.7 L
443 94.698 L
443.25 92.357 L
443.25 92.355 L
443.5 90.802 L
443.5 90.801 L
443.75 90.002 L
443.75 90.002 L
444 89.738 L
444 89.738 L
444 89.738 L
444.074 89.724 L
444.25 89.764 L
444.25 89.764 L
444.5 89.892 L
444.5 89.893 L
444.75 89.989 L
444.75 89.989 L
444.892 90.007 L
445 89.996 L
445 89.996 L
445.25 89.901 L
445.25 89.901 L
445.5 89.729 L
445.5 89.729 L
445.75 89.52 L
445.75 89.52 L
446 89.314 L
446 89.314 L
446.25 89.134 L
446.25 89.134 L
446.5 88.986 L
446.5 88.986 L
446.75 88.86 L
446.75 88.86 L
447 88.735 L
447 88.734 L
447.25 88.605 L
447.25 88.605 L
447.5 88.483 L
447.5 88.483 L
447.75 88.376 L
447.75 88.376 L
447.998 88.324 L
448 88.324 L
448 88.324 L
448.046 88.322 L
448.25 88.346 L
448.25 88.346 L
448.5 88.448 L
448.5 88.448 L
448.75 88.618 L
448.75 88.618 L
449 88.821 L
449 88.821 L
449.25 89.006 L
449.25 89.006 L
449.5 89.147 L
449.5 89.147 L
449.75 89.229 L
449.75 89.229 L
450 89.261 L
450 89.261 L
450.124 89.265 L
450.25 89.262 L
450.25 89.262 L
450.252 89.262 L
450.5 89.254 L
450.5 89.254 L
450.749 89.243 L
450.75 89.243 L
450.75 89.243 L
450.751 89.243 L
451 89.228 L
451 89.228 L
451.25 89.209 L
451.25 89.209 L
451.5 89.187 L
451.5 89.187 L
451.749 89.164 L
451.75 89.164 L
451.75 89.164 L
452 89.147 L
452 89.147 L
452 89.147 L
452.249 89.136 L
452.25 89.136 L
452.25 89.137 L
452.404 89.134 L
452.5 89.135 L
452.5 89.135 L
452.517 89.135 L
452.75 89.144 L
452.75 89.144 L
452.75 89.144 L
452.751 89.144 L
453 89.162 L
453 89.162 L
453.25 89.188 L
453.25 89.188 L
453.25 89.188 L
453.5 89.219 L
453.5 89.219 L
453.75 89.258 L
453.75 89.258 L
453.75 89.258 L
454 89.298 L
454 89.298 L
454.25 89.338 L
454.25 89.338 L
454.25 89.338 L
454.5 89.381 L
454.5 89.381 L
454.5 89.381 L
454.75 89.425 L
454.75 89.425 L
455 89.465 L
455 89.465 L
455.25 89.506 L
455.25 89.506 L
455.5 89.549 L
455.5 89.549 L
455.5 89.549 L
455.75 89.589 L
455.75 89.589 L
455.75 89.589 L
455.751 89.589 L
456 89.621 L
456 89.621 L
456.249 89.644 L
456.25 89.644 L
456.25 89.644 L
456.5 89.676 L
456.5 89.676 L
456.75 89.717 L
456.75 89.717 L
456.75 89.717 L
457 89.753 L
457 89.753 L
457.25 89.771 L
457.25 89.771 L
457.25 89.771 L
457.251 89.771 L
457.5 89.784 L
457.5 89.784 L
457.501 89.784 L
457.75 89.805 L
457.75 89.805 L
457.751 89.805 L
457.999 89.829 L
458 89.829 L
458 89.829 L
458.001 89.829 L
458.248 89.847 L
458.25 89.847 L
458.25 89.847 L
458.5 89.862 L
458.5 89.862 L
458.746 89.875 L
458.75 89.875 L
458.75 89.875 L
458.756 89.874 L
459 89.886 L
459 89.886 L
459.001 89.886 L
459.248 89.899 L
459.25 89.899 L
459.25 89.899 L
459.25 89.899 L
459.5 89.918 L
459.5 89.918 L
459.749 89.944 L
459.75 89.944 L
459.75 89.944 L
459.752 89.944 L
459.986 89.955 L
460 89.954 L
460 89.954 L
460.151 89.955 L
460.249 89.954 L
460.25 89.954 L
460.25 89.954 L
460.294 89.952 L
460.5 89.961 L
460.5 89.961 L
460.501 89.961 L
460.75 89.981 L
460.75 89.981 L
460.752 89.981 L
460.999 90.001 L
461 90.001 L
461 90.001 L
461.236 90.008 L
461.25 90.008 L
461.25 90.008 L
461.254 90.008 L
461.496 90.011 L
461.5 90.011 L
461.5 90.011 L
461.75 90.022 L
461.75 90.021 L
461.75 90.021 L
461.75 90.021 L
461.995 90.031 L
462 90.031 L
462 90.031 L
462.003 90.031 L
462.239 90.039 L
462.25 90.039 L
462.25 90.039 L
462.313 90.038 L
462.498 90.045 L
462.5 90.045 L
462.5 90.045 L
462.512 90.044 L
462.746 90.051 L
462.75 90.051 L
462.75 90.051 L
463 90.056 L
463 90.056 L
463 90.056 L
463.039 90.055 L
463.129 90.056 L
463.25 90.056 L
463.25 90.056 L
463.259 90.056 L
463.479 90.062 L
463.5 90.061 L
463.5 90.061 L
463.507 90.061 L
463.749 90.065 L
463.75 90.065 L
463.75 90.065 L
463.998 90.071 L
464 90.071 L
464 90.071 L
464.002 90.071 L
464.19 90.076 L
464.25 90.075 L
464.25 90.075 L
464.258 90.075 L
464.499 90.078 L
464.5 90.078 L
464.5 90.078 L
464.51 90.078 L
464.741 90.085 L
464.75 90.085 L
464.75 90.085 L
464.767 90.085 L
464.996 90.092 L
465 90.092 L
465 90.092 L
465.091 90.091 L
465.236 90.094 L
465.25 90.094 L
465.25 90.094 L
465.25 90.094 L
465.498 90.103 L
465.5 90.103 L
465.5 90.103 L
465.505 90.103 L
465.741 90.11 L
465.75 90.11 L
465.75 90.11 L
465.751 90.11 L
465.992 90.116 L
466 90.116 L
466 90.116 L
466.008 90.115 L
466.234 90.12 L
466.25 90.119 L
466.25 90.119 L
466.251 90.119 L
466.479 90.124 L
466.5 90.124 L
466.5 90.124 L
466.501 90.124 L
466.748 90.129 L
466.75 90.129 L
466.75 90.129 L
466.832 90.129 L
466.997 90.131 L
467 90.131 L
467 90.131 L
467.004 90.131 L
467.225 90.135 L
467.25 90.135 L
467.25 90.135 L
467.324 90.137 L
467.5 90.137 L
467.5 90.137 L
467.508 90.137 L
467.743 90.14 L
467.75 90.14 L
467.75 90.14 L
467.755 90.14 L
467.995 90.144 L
468 90.143 L
468 90.143 L
468.099 90.144 L
468.25 90.141 L
468.25 90.141 L
468.25 90.141 L
468.278 90.141 L
468.42 90.139 L
468.5 90.14 L
468.5 90.14 L
468.52 90.141 L
468.745 90.138 L
468.75 90.138 L
468.75 90.138 L
468.8 90.139 L
468.995 90.136 L
469 90.136 L
469 90.136 L
469.001 90.136 L
469.2 90.133 L
469.25 90.133 L
469.25 90.133 L
469.252 90.133 L
469.456 90.13 L
469.5 90.131 L
469.5 90.131 L
469.647 90.13 L
469.711 90.132 L
469.75 90.131 L
469.75 90.131 L
469.931 90.132 L
469.997 90.13 L
470 90.13 L
470 90.13 L
470.012 90.131 L
470.248 90.128 L
470.25 90.129 L
470.25 90.129 L
470.256 90.129 L
470.5 90.128 L
470.5 90.128 L
470.635 90.128 L
470.728 90.126 L
470.75 90.127 L
470.75 90.127 L
470.821 90.128 L
470.979 90.126 L
471 90.126 L
471 90.126 L
471.098 90.126 L
471.219 90.124 L
471.25 90.125 L
471.25 90.125 L
471.255 90.125 L
471.449 90.121 L
471.5 90.121 L
471.5 90.121 L
471.508 90.121 L
471.741 90.125 L
471.75 90.124 L
471.75 90.124 L
471.824 90.124 L
471.905 90.126 L
472 90.125 L
472 90.125 L
472.001 90.125 L
472.09 90.127 L
472.25 90.126 L
472.25 90.126 L
472.259 90.126 L
472.453 90.128 L
472.5 90.128 L
472.5 90.128 L
472.632 90.129 L
472.737 90.127 L
472.75 90.127 L
472.75 90.127 L
472.827 90.127 L
472.903 90.128 L
473 90.127 L
473 90.127 L
473.038 90.128 L
473.149 90.124 L
473.25 90.126 L
473.25 90.126 L
473.253 90.125 L
473.429 90.127 L
473.5 90.127 L
473.5 90.127 L
473.599 90.126 L
473.727 90.128 L
473.75 90.127 L
473.75 90.127 L
473.788 90.127 L
474 90.128 L
474 90.128 L
474 90.128 L
474 90.128 L
474.135 90.127 L
474.25 90.127 L
474.25 90.127 L
474.286 90.128 L
474.332 90.126 L
474.5 90.127 L
474.5 90.127 L
474.548 90.126 L
474.743 90.128 L
474.75 90.128 L
474.75 90.128 L
474.774 90.129 L
474.996 90.127 L
475 90.127 L
475 90.127 L
475.167 90.126 L
475.242 90.127 L
475.25 90.127 L
475.25 90.127 L
475.311 90.126 L
475.484 90.128 L
475.5 90.128 L
475.5 90.128 L
475.502 90.128 L
475.73 90.129 L
475.75 90.129 L
475.75 90.129 L
475.791 90.128 L
475.974 90.13 L
476 90.13 L
476 90.13 L
476.106 90.129 L
476.25 90.131 L
476.25 90.131 L
476.382 90.128 L
476.499 90.131 L
476.5 90.131 L
476.5 90.131 L
476.598 90.132 L
476.743 90.13 L
476.75 90.13 L
476.75 90.13 L
476.79 90.13 L
476.923 90.131 L
477 90.131 L
477 90.131 L
477.002 90.131 L
477.236 90.135 L
477.25 90.135 L
477.25 90.135 L
477.251 90.135 L
477.487 90.138 L
477.5 90.138 L
477.5 90.138 L
477.623 90.137 L
477.731 90.138 L
477.75 90.138 L
477.75 90.138 L
477.831 90.139 L
477.928 90.137 L
478 90.139 L
478 90.139 L
478.247 90.142 L
478.25 90.142 L
478.25 90.142 L
478.271 90.142 L
478.489 90.145 L
478.5 90.145 L
478.5 90.145 L
478.736 90.148 L
478.75 90.148 L
478.75 90.148 L
478.875 90.148 L
478.973 90.145 L
479 90.146 L
479 90.146 L
479.103 90.145 L
479.218 90.147 L
479.25 90.147 L
479.25 90.147 L
479.329 90.147 L
479.415 90.146 L
479.5 90.147 L
479.5 90.147 L
479.504 90.147 L
479.7 90.149 L
479.75 90.149 L
479.75 90.149 L
479.771 90.148 L
480 90.15 L
480 90.15 L
480.006 90.15 L
480.204 90.152 L
480.25 90.151 L
480.25 90.151 L
480.302 90.15 L
480.437 90.152 L
480.5 90.151 L
480.5 90.151 L
480.597 90.152 L
480.703 90.15 L
480.75 90.151 L
480.75 90.151 L
480.784 90.15 L
480.996 90.152 L
481 90.152 L
481 90.152 L
481.137 90.151 L
481.224 90.153 L
481.25 90.152 L
481.25 90.152 L
481.255 90.152 L
481.41 90.155 L
481.5 90.155 L
481.5 90.155 L
481.514 90.155 L
481.749 90.153 L
481.75 90.153 L
481.75 90.154 L
481.795 90.153 L
481.872 90.155 L
482 90.154 L
482 90.154 L
482.025 90.153 L
482.061 90.154 L
482.25 90.153 L
482.25 90.153 L
482.288 90.153 L
482.498 90.157 L
482.5 90.157 L
482.5 90.157 L
482.51 90.157 L
482.669 90.16 L
482.75 90.16 L
482.75 90.16 L
482.841 90.162 L
483 90.162 L
483 90.162 L
483.234 90.165 L
483.25 90.165 L
483.25 90.165 L
483.254 90.165 L
483.419 90.164 L
483.5 90.165 L
483.5 90.165 L
483.738 90.167 L
483.75 90.167 L
483.75 90.167 L
483.809 90.167 L
483.9 90.169 L
484 90.169 L
484 90.168 L
484.002 90.168 L
484.214 90.17 L
484.25 90.17 L
484.25 90.17 L
484.276 90.169 L
484.5 90.173 L
484.5 90.173 L
484.5 90.173 L
484.501 90.173 L
484.712 90.177 L
484.75 90.177 L
484.75 90.177 L
484.753 90.176 L
484.994 90.18 L
485 90.18 L
485 90.18 L
485.003 90.18 L
485.239 90.186 L
485.25 90.186 L
485.25 90.186 L
485.457 90.189 L
485.5 90.189 L
485.5 90.189 L
485.75 90.195 L
485.75 90.195 L
485.769 90.195 L
485.992 90.2 L
486 90.2 L
486 90.2 L
486.008 90.199 L
486.174 90.203 L
486.25 90.202 L
486.25 90.202 L
486.251 90.202 L
486.5 90.205 L
486.5 90.205 L
486.578 90.204 L
486.691 90.207 L
486.75 90.206 L
486.75 90.206 L
486.813 90.206 L
486.879 90.207 L
487 90.206 L
487 90.206 L
487.123 90.208 L
487.216 90.206 L
487.25 90.206 L
487.25 90.206 L
487.295 90.207 L
487.491 90.203 L
487.5 90.204 L
487.5 90.204 L
487.537 90.204 L
487.725 90.199 L
487.75 90.2 L
487.75 90.2 L
487.999 90.19 L
488 90.19 L
488 90.19 L
488 90.19 L
488.248 90.18 L
488.25 90.18 L
488.25 90.18 L
488.25 90.18 L
488.5 90.168 L
488.5 90.168 L
488.5 90.168 L
488.747 90.155 L
488.75 90.156 L
488.75 90.156 L
488.758 90.156 L
488.999 90.141 L
489 90.141 L
489 90.141 L
489 90.141 L
489.249 90.114 L
489.25 90.114 L
489.25 90.114 L
489.5 90.084 L
489.5 90.084 L
489.749 90.056 L
489.75 90.056 L
489.75 90.056 L
490 90.024 L
490 90.024 L
490 90.024 L
490.25 89.987 L
490.25 89.987 L
490.5 89.946 L
490.5 89.946 L
490.75 89.9 L
490.75 89.9 L
490.75 89.9 L
491 89.852 L
491 89.852 L
491.25 89.807 L
491.25 89.807 L
491.25 89.807 L
491.25 89.807 L
491.5 89.762 L
491.5 89.761 L
491.75 89.71 L
491.75 89.71 L
492 89.655 L
492 89.655 L
492.25 89.588 L
492.25 89.588 L
492.5 89.517 L
492.5 89.517 L
492.75 89.445 L
492.75 89.445 L
493 89.368 L
493 89.368 L
493.25 89.298 L
493.25 89.297 L
493.5 89.236 L
493.5 89.236 L
493.75 89.184 L
493.75 89.184 L
494 89.148 L
494 89.148 L
494.237 89.133 L
494.25 89.133 L
494.25 89.133 L
494.305 89.132 L
494.5 89.139 L
494.5 89.139 L
494.5 89.139 L
494.5 89.139 L
494.75 89.168 L
494.75 89.168 L
495 89.231 L
495 89.231 L
495.25 89.334 L
495.25 89.334 L
495.5 89.487 L
495.5 89.487 L
495.75 89.677 L
495.75 89.677 L
496 89.881 L
496 89.881 L
496.25 90.066 L
496.25 90.066 L
496.5 90.212 L
496.5 90.212 L
496.75 90.295 L
496.75 90.295 L
496.973 90.319 L
497 90.319 L
497 90.319 L
497.01 90.319 L
497.249 90.3 L
497.25 90.3 L
497.25 90.299 L
497.5 90.249 L
497.5 90.249 L
497.75 90.187 L
497.75 90.187 L
498 90.123 L
498 90.123 L
498.25 90.066 L
498.25 90.066 L
498.499 90.02 L
498.5 90.02 L
498.5 90.02 L
498.75 89.984 L
498.75 89.984 L
498.75 89.984 L
498.997 89.961 L
499 89.961 L
499 89.961 L
499.073 89.959 L
499.25 89.968 L
499.25 89.968 L
499.5 90.022 L
499.5 90.022 L
499.75 90.144 L
499.75 90.145 L
500 90.343 L
500 90.343 L
500.25 90.617 L
500.25 90.617 L
500.5 90.947 L
500.5 90.948 L
500.75 91.311 L
500.75 91.312 L
501 91.681 L
501 91.681 L
501.25 92.036 L
501.25 92.036 L
501.5 92.362 L
501.5 92.362 L
501.75 92.64 L
501.75 92.64 L
502 92.859 L
502 92.859 L
502.25 93.014 L
502.25 93.014 L
502.5 93.104 L
502.5 93.104 L
502.747 93.132 L
502.75 93.132 L
502.75 93.132 L
503 93.103 L
503 93.103 L
503.25 93.031 L
503.25 93.031 L
503.5 92.929 L
503.5 92.929 L
503.75 92.801 L
503.75 92.801 L
504 92.66 L
504 92.66 L
504.25 92.51 L
504.25 92.509 L
504.5 92.36 L
504.5 92.36 L
504.75 92.215 L
504.75 92.215 L
505 92.076 L
505 92.076 L
505.25 91.945 L
505.25 91.945 L
505.5 91.827 L
505.5 91.827 L
505.75 91.721 L
505.75 91.721 L
506 91.632 L
506 91.632 L
506.25 91.563 L
506.25 91.563 L
506.5 91.509 L
506.5 91.509 L
506.75 91.467 L
506.75 91.467 L
507 91.434 L
507 91.434 L
507.043 91.431 L
S
GR
GS
[0.75 0 0 0.75 217.5 20.5] CT
/Helvetica-Bold 15 F
GS
[1 0 0 1 0 0] CT
-27.089 -3.787 moveto 
1 -1 scale
(Filtered) t 
GR
GR
%%Trailer
%%Pages: 1
%%EOF
