%!PS-Adobe-3.0 EPSF-3.0
%%Creator: (MATLAB, The Mathworks, Inc. Version 8.4.0.150421 \(R2014b\). Operating System: Windows 8)
%%Title: (C:/Users/Tina/Documents/nus/Waveguide Figures/proximity_data_sameheight2_aug16.eps)
%%CreationDate: 2018-08-16T21:26:07
%%Pages: (atend)
%%BoundingBox: 0 0 420 315
%%LanguageLevel: 2
%%EndComments
%%BeginProlog
%%BeginResource: procset (Apache XML Graphics Std ProcSet) 1.2 0
%%Version: 1.2 0
%%Copyright: (Copyright 2001-2003,2010 The Apache Software Foundation. License terms: http://www.apache.org/licenses/LICENSE-2.0)
/bd{bind def}bind def
/ld{load def}bd
/GR/grestore ld
/M/moveto ld
/LJ/setlinejoin ld
/C/curveto ld
/f/fill ld
/LW/setlinewidth ld
/GC/setgray ld
/t/show ld
/N/newpath ld
/CT/concat ld
/cp/closepath ld
/S/stroke ld
/L/lineto ld
/CC/setcmykcolor ld
/A/ashow ld
/GS/gsave ld
/RC/setrgbcolor ld
/RM/rmoveto ld
/ML/setmiterlimit ld
/re {4 2 roll M
1 index 0 rlineto
0 exch rlineto
neg 0 rlineto
cp } bd
/_ctm matrix def
/_tm matrix def
/BT { _ctm currentmatrix pop matrix _tm copy pop 0 0 moveto } bd
/ET { _ctm setmatrix } bd
/iTm { _ctm setmatrix _tm concat } bd
/Tm { _tm astore pop iTm 0 0 moveto } bd
/ux 0.0 def
/uy 0.0 def
/F {
  /Tp exch def
  /Tf exch def
  Tf findfont Tp scalefont setfont
  /cf Tf def  /cs Tp def
} bd
/ULS {currentpoint /uy exch def /ux exch def} bd
/ULE {
  /Tcx currentpoint pop def
  gsave
  newpath
  cf findfont cs scalefont dup
  /FontMatrix get 0 get /Ts exch def /FontInfo get dup
  /UnderlinePosition get Ts mul /To exch def
  /UnderlineThickness get Ts mul /Tt exch def
  ux uy To add moveto  Tcx uy To add lineto
  Tt setlinewidth stroke
  grestore
} bd
/OLE {
  /Tcx currentpoint pop def
  gsave
  newpath
  cf findfont cs scalefont dup
  /FontMatrix get 0 get /Ts exch def /FontInfo get dup
  /UnderlinePosition get Ts mul /To exch def
  /UnderlineThickness get Ts mul /Tt exch def
  ux uy To add cs add moveto Tcx uy To add cs add lineto
  Tt setlinewidth stroke
  grestore
} bd
/SOE {
  /Tcx currentpoint pop def
  gsave
  newpath
  cf findfont cs scalefont dup
  /FontMatrix get 0 get /Ts exch def /FontInfo get dup
  /UnderlinePosition get Ts mul /To exch def
  /UnderlineThickness get Ts mul /Tt exch def
  ux uy To add cs 10 mul 26 idiv add moveto Tcx uy To add cs 10 mul 26 idiv add lineto
  Tt setlinewidth stroke
  grestore
} bd
/QT {
/Y22 exch store
/X22 exch store
/Y21 exch store
/X21 exch store
currentpoint
/Y21 load 2 mul add 3 div exch
/X21 load 2 mul add 3 div exch
/X21 load 2 mul /X22 load add 3 div
/Y21 load 2 mul /Y22 load add 3 div
/X22 load /Y22 load curveto
} bd
/SSPD {
dup length /d exch dict def
{
/v exch def
/k exch def
currentpagedevice k known {
/cpdv currentpagedevice k get def
v cpdv ne {
/upd false def
/nullv v type /nulltype eq def
/nullcpdv cpdv type /nulltype eq def
nullv nullcpdv or
{
/upd true def
} {
/sametype v type cpdv type eq def
sametype {
v type /arraytype eq {
/vlen v length def
/cpdvlen cpdv length def
vlen cpdvlen eq {
0 1 vlen 1 sub {
/i exch def
/obj v i get def
/cpdobj cpdv i get def
obj cpdobj ne {
/upd true def
exit
} if
} for
} {
/upd true def
} ifelse
} {
v type /dicttype eq {
v {
/dv exch def
/dk exch def
/cpddv cpdv dk get def
dv cpddv ne {
/upd true def
exit
} if
} forall
} {
/upd true def
} ifelse
} ifelse
} if
} ifelse
upd true eq {
d k v put
} if
} if
} if
} forall
d length 0 gt {
d setpagedevice
} if
} bd
%%EndResource
%%BeginResource: procset (Apache XML Graphics EPS ProcSet) 1.0 0
%%Version: 1.0 0
%%Copyright: (Copyright 2002-2003 The Apache Software Foundation. License terms: http://www.apache.org/licenses/LICENSE-2.0)
/BeginEPSF { %def
/b4_Inc_state save def         % Save state for cleanup
/dict_count countdictstack def % Count objects on dict stack
/op_count count 1 sub def      % Count objects on operand stack
userdict begin                 % Push userdict on dict stack
/showpage { } def              % Redefine showpage, { } = null proc
0 setgray 0 setlinecap         % Prepare graphics state
1 setlinewidth 0 setlinejoin
10 setmiterlimit [ ] 0 setdash newpath
/languagelevel where           % If level not equal to 1 then
{pop languagelevel             % set strokeadjust and
1 ne                           % overprint to their defaults.
{false setstrokeadjust false setoverprint
} if
} if
} bd
/EndEPSF { %def
count op_count sub {pop} repeat            % Clean up stacks
countdictstack dict_count sub {end} repeat
b4_Inc_state restore
} bd
%%EndResource
%FOPBeginFontDict
%%IncludeResource: font Courier-Bold
%%IncludeResource: font Helvetica
%%IncludeResource: font Courier-BoldOblique
%%IncludeResource: font Courier-Oblique
%%IncludeResource: font Times-Roman
%%IncludeResource: font Helvetica-BoldOblique
%%IncludeResource: font Helvetica-Bold
%%IncludeResource: font Helvetica-Oblique
%%IncludeResource: font Times-BoldItalic
%%IncludeResource: font Courier
%%IncludeResource: font Times-Italic
%%IncludeResource: font Times-Bold
%%IncludeResource: font Symbol
%%IncludeResource: font ZapfDingbats
%FOPEndFontDict
%%BeginResource: encoding WinAnsiEncoding
/WinAnsiEncoding [
/.notdef /.notdef /.notdef /.notdef /.notdef
/.notdef /.notdef /.notdef /.notdef /.notdef
/.notdef /.notdef /.notdef /.notdef /.notdef
/.notdef /.notdef /.notdef /.notdef /.notdef
/.notdef /.notdef /.notdef /.notdef /.notdef
/.notdef /.notdef /.notdef /.notdef /.notdef
/.notdef /.notdef /space /exclam /quotedbl
/numbersign /dollar /percent /ampersand /quotesingle
/parenleft /parenright /asterisk /plus /comma
/hyphen /period /slash /zero /one
/two /three /four /five /six
/seven /eight /nine /colon /semicolon
/less /equal /greater /question /at
/A /B /C /D /E
/F /G /H /I /J
/K /L /M /N /O
/P /Q /R /S /T
/U /V /W /X /Y
/Z /bracketleft /backslash /bracketright /asciicircum
/underscore /quoteleft /a /b /c
/d /e /f /g /h
/i /j /k /l /m
/n /o /p /q /r
/s /t /u /v /w
/x /y /z /braceleft /bar
/braceright /asciitilde /bullet /Euro /bullet
/quotesinglbase /florin /quotedblbase /ellipsis /dagger
/daggerdbl /circumflex /perthousand /Scaron /guilsinglleft
/OE /bullet /Zcaron /bullet /bullet
/quoteleft /quoteright /quotedblleft /quotedblright /bullet
/endash /emdash /asciitilde /trademark /scaron
/guilsinglright /oe /bullet /zcaron /Ydieresis
/space /exclamdown /cent /sterling /currency
/yen /brokenbar /section /dieresis /copyright
/ordfeminine /guillemotleft /logicalnot /sfthyphen /registered
/macron /degree /plusminus /twosuperior /threesuperior
/acute /mu /paragraph /middot /cedilla
/onesuperior /ordmasculine /guillemotright /onequarter /onehalf
/threequarters /questiondown /Agrave /Aacute /Acircumflex
/Atilde /Adieresis /Aring /AE /Ccedilla
/Egrave /Eacute /Ecircumflex /Edieresis /Igrave
/Iacute /Icircumflex /Idieresis /Eth /Ntilde
/Ograve /Oacute /Ocircumflex /Otilde /Odieresis
/multiply /Oslash /Ugrave /Uacute /Ucircumflex
/Udieresis /Yacute /Thorn /germandbls /agrave
/aacute /acircumflex /atilde /adieresis /aring
/ae /ccedilla /egrave /eacute /ecircumflex
/edieresis /igrave /iacute /icircumflex /idieresis
/eth /ntilde /ograve /oacute /ocircumflex
/otilde /odieresis /divide /oslash /ugrave
/uacute /ucircumflex /udieresis /yacute /thorn
/ydieresis
] def
%%EndResource
%FOPBeginFontReencode
/Courier-Bold findfont
dup length dict begin
  {1 index /FID ne {def} {pop pop} ifelse} forall
  /Encoding WinAnsiEncoding def
  currentdict
end
/Courier-Bold exch definefont pop
/Helvetica findfont
dup length dict begin
  {1 index /FID ne {def} {pop pop} ifelse} forall
  /Encoding WinAnsiEncoding def
  currentdict
end
/Helvetica exch definefont pop
/Courier-BoldOblique findfont
dup length dict begin
  {1 index /FID ne {def} {pop pop} ifelse} forall
  /Encoding WinAnsiEncoding def
  currentdict
end
/Courier-BoldOblique exch definefont pop
/Courier-Oblique findfont
dup length dict begin
  {1 index /FID ne {def} {pop pop} ifelse} forall
  /Encoding WinAnsiEncoding def
  currentdict
end
/Courier-Oblique exch definefont pop
/Times-Roman findfont
dup length dict begin
  {1 index /FID ne {def} {pop pop} ifelse} forall
  /Encoding WinAnsiEncoding def
  currentdict
end
/Times-Roman exch definefont pop
/Helvetica-BoldOblique findfont
dup length dict begin
  {1 index /FID ne {def} {pop pop} ifelse} forall
  /Encoding WinAnsiEncoding def
  currentdict
end
/Helvetica-BoldOblique exch definefont pop
/Helvetica-Bold findfont
dup length dict begin
  {1 index /FID ne {def} {pop pop} ifelse} forall
  /Encoding WinAnsiEncoding def
  currentdict
end
/Helvetica-Bold exch definefont pop
/Helvetica-Oblique findfont
dup length dict begin
  {1 index /FID ne {def} {pop pop} ifelse} forall
  /Encoding WinAnsiEncoding def
  currentdict
end
/Helvetica-Oblique exch definefont pop
/Times-BoldItalic findfont
dup length dict begin
  {1 index /FID ne {def} {pop pop} ifelse} forall
  /Encoding WinAnsiEncoding def
  currentdict
end
/Times-BoldItalic exch definefont pop
/Courier findfont
dup length dict begin
  {1 index /FID ne {def} {pop pop} ifelse} forall
  /Encoding WinAnsiEncoding def
  currentdict
end
/Courier exch definefont pop
/Times-Italic findfont
dup length dict begin
  {1 index /FID ne {def} {pop pop} ifelse} forall
  /Encoding WinAnsiEncoding def
  currentdict
end
/Times-Italic exch definefont pop
/Times-Bold findfont
dup length dict begin
  {1 index /FID ne {def} {pop pop} ifelse} forall
  /Encoding WinAnsiEncoding def
  currentdict
end
/Times-Bold exch definefont pop
%FOPEndFontReencode
%%EndProlog
%%Page: 1 1
%%PageBoundingBox: 0 0 420 315
%%BeginPageSetup
[1 0 0 -1 0 315] CT
%%EndPageSetup
GS
[0.75 0 0 0.75 0 0] CT
1 GC
N
0 0 560 420 re
f
GR
GS
[0.75 0 0 0.75 0 0] CT
1 GC
N
0 0 560 420 re
f
GR
GS
[0.75 0 0 0.75 0 0] CT
1 GC
N
73 374 M
507 374 L
507 31 L
73 31 L
cp
f
GR
GS
[0.75 0 0 0.75 217.5 297.01366] CT
0.149 GC
/Helvetica 15 F
GS
[1 0 0 1 0 0] CT
-27.495 15.081 moveto 
1 -1 scale
(Time \(s\)) t 
GR
GR
GS
[0.75 0 0 0.75 0 0] CT
0.149 GC
2 setlinecap
10.0 ML
N
73 374 M
507 374 L
S
GR
GS
[0.75 0 0 0.75 0 0] CT
0.149 GC
2 setlinecap
10.0 ML
N
73 31 M
507 31 L
S
GR
GS
[0.75 0 0 0.75 0 0] CT
0.149 GC
2 setlinecap
10.0 ML
N
73 374 M
73 369.66 L
S
GR
GS
[0.75 0 0 0.75 0 0] CT
0.149 GC
2 setlinecap
10.0 ML
N
73 31 M
73 35.34 L
S
GR
GS
[0.75 0 0 0.75 0 0] CT
0.149 GC
2 setlinecap
10.0 ML
N
118.684 374 M
118.684 369.66 L
S
GR
GS
[0.75 0 0 0.75 0 0] CT
0.149 GC
2 setlinecap
10.0 ML
N
118.684 31 M
118.684 35.34 L
S
GR
GS
[0.75 0 0 0.75 0 0] CT
0.149 GC
2 setlinecap
10.0 ML
N
164.368 374 M
164.368 369.66 L
S
GR
GS
[0.75 0 0 0.75 0 0] CT
0.149 GC
2 setlinecap
10.0 ML
N
164.368 31 M
164.368 35.34 L
S
GR
GS
[0.75 0 0 0.75 0 0] CT
0.149 GC
2 setlinecap
10.0 ML
N
210.053 374 M
210.053 369.66 L
S
GR
GS
[0.75 0 0 0.75 0 0] CT
0.149 GC
2 setlinecap
10.0 ML
N
210.053 31 M
210.053 35.34 L
S
GR
GS
[0.75 0 0 0.75 0 0] CT
0.149 GC
2 setlinecap
10.0 ML
N
255.737 374 M
255.737 369.66 L
S
GR
GS
[0.75 0 0 0.75 0 0] CT
0.149 GC
2 setlinecap
10.0 ML
N
255.737 31 M
255.737 35.34 L
S
GR
GS
[0.75 0 0 0.75 0 0] CT
0.149 GC
2 setlinecap
10.0 ML
N
301.421 374 M
301.421 369.66 L
S
GR
GS
[0.75 0 0 0.75 0 0] CT
0.149 GC
2 setlinecap
10.0 ML
N
301.421 31 M
301.421 35.34 L
S
GR
GS
[0.75 0 0 0.75 0 0] CT
0.149 GC
2 setlinecap
10.0 ML
N
347.105 374 M
347.105 369.66 L
S
GR
GS
[0.75 0 0 0.75 0 0] CT
0.149 GC
2 setlinecap
10.0 ML
N
347.105 31 M
347.105 35.34 L
S
GR
GS
[0.75 0 0 0.75 0 0] CT
0.149 GC
2 setlinecap
10.0 ML
N
392.789 374 M
392.789 369.66 L
S
GR
GS
[0.75 0 0 0.75 0 0] CT
0.149 GC
2 setlinecap
10.0 ML
N
392.789 31 M
392.789 35.34 L
S
GR
GS
[0.75 0 0 0.75 0 0] CT
0.149 GC
2 setlinecap
10.0 ML
N
438.474 374 M
438.474 369.66 L
S
GR
GS
[0.75 0 0 0.75 0 0] CT
0.149 GC
2 setlinecap
10.0 ML
N
438.474 31 M
438.474 35.34 L
S
GR
GS
[0.75 0 0 0.75 0 0] CT
0.149 GC
2 setlinecap
10.0 ML
N
484.158 374 M
484.158 369.66 L
S
GR
GS
[0.75 0 0 0.75 0 0] CT
0.149 GC
2 setlinecap
10.0 ML
N
484.158 31 M
484.158 35.34 L
S
GR
GS
[0.75 0 0 0.75 54.75 284.50001] CT
0.149 GC
/Helvetica 13 F
GS
[1 0 0 1 0 0] CT
-3.615 13.07 moveto 
1 -1 scale
(0) t 
GR
GR
GS
[0.75 0 0 0.75 89.01316 284.50001] CT
0.149 GC
/Helvetica 13 F
GS
[1 0 0 1 0 0] CT
-3.615 13.07 moveto 
1 -1 scale
(2) t 
GR
GR
GS
[0.75 0 0 0.75 123.27632 284.50001] CT
0.149 GC
/Helvetica 13 F
GS
[1 0 0 1 0 0] CT
-3.615 13.07 moveto 
1 -1 scale
(4) t 
GR
GR
GS
[0.75 0 0 0.75 157.53947 284.50001] CT
0.149 GC
/Helvetica 13 F
GS
[1 0 0 1 0 0] CT
-3.615 13.07 moveto 
1 -1 scale
(6) t 
GR
GR
GS
[0.75 0 0 0.75 191.80264 284.50001] CT
0.149 GC
/Helvetica 13 F
GS
[1 0 0 1 0 0] CT
-3.615 13.07 moveto 
1 -1 scale
(8) t 
GR
GR
GS
[0.75 0 0 0.75 226.06579 284.50001] CT
0.149 GC
/Helvetica 13 F
GS
[1 0 0 1 0 0] CT
-7.23 13.07 moveto 
1 -1 scale
(10) t 
GR
GR
GS
[0.75 0 0 0.75 260.32894 284.50001] CT
0.149 GC
/Helvetica 13 F
GS
[1 0 0 1 0 0] CT
-7.23 13.07 moveto 
1 -1 scale
(12) t 
GR
GR
GS
[0.75 0 0 0.75 294.59209 284.50001] CT
0.149 GC
/Helvetica 13 F
GS
[1 0 0 1 0 0] CT
-7.23 13.07 moveto 
1 -1 scale
(14) t 
GR
GR
GS
[0.75 0 0 0.75 328.85527 284.50001] CT
0.149 GC
/Helvetica 13 F
GS
[1 0 0 1 0 0] CT
-7.23 13.07 moveto 
1 -1 scale
(16) t 
GR
GR
GS
[0.75 0 0 0.75 363.11842 284.50001] CT
0.149 GC
/Helvetica 13 F
GS
[1 0 0 1 0 0] CT
-7.23 13.07 moveto 
1 -1 scale
(18) t 
GR
GR
GS
[0 -0.75 0.75 0 42.32752 151.875] CT
0.149 GC
/Helvetica 15 F
GS
[1 0 0 1 0 0] CT
-37.518 -3.787 moveto 
1 -1 scale
(Voltage \(V\)) t 
GR
GR
GS
[0.75 0 0 0.75 0 0] CT
0.149 GC
2 setlinecap
10.0 ML
N
73 374 M
73 31 L
S
GR
GS
[0.75 0 0 0.75 0 0] CT
0.149 GC
2 setlinecap
10.0 ML
N
507 374 M
507 31 L
S
GR
GS
[0.75 0 0 0.75 0 0] CT
0.149 GC
2 setlinecap
10.0 ML
N
73 345.417 M
77.34 345.417 L
S
GR
GS
[0.75 0 0 0.75 0 0] CT
0.149 GC
2 setlinecap
10.0 ML
N
507 345.417 M
502.66 345.417 L
S
GR
GS
[0.75 0 0 0.75 0 0] CT
0.149 GC
2 setlinecap
10.0 ML
N
73 288.25 M
77.34 288.25 L
S
GR
GS
[0.75 0 0 0.75 0 0] CT
0.149 GC
2 setlinecap
10.0 ML
N
507 288.25 M
502.66 288.25 L
S
GR
GS
[0.75 0 0 0.75 0 0] CT
0.149 GC
2 setlinecap
10.0 ML
N
73 231.083 M
77.34 231.083 L
S
GR
GS
[0.75 0 0 0.75 0 0] CT
0.149 GC
2 setlinecap
10.0 ML
N
507 231.083 M
502.66 231.083 L
S
GR
GS
[0.75 0 0 0.75 0 0] CT
0.149 GC
2 setlinecap
10.0 ML
N
73 173.917 M
77.34 173.917 L
S
GR
GS
[0.75 0 0 0.75 0 0] CT
0.149 GC
2 setlinecap
10.0 ML
N
507 173.917 M
502.66 173.917 L
S
GR
GS
[0.75 0 0 0.75 0 0] CT
0.149 GC
2 setlinecap
10.0 ML
N
73 116.75 M
77.34 116.75 L
S
GR
GS
[0.75 0 0 0.75 0 0] CT
0.149 GC
2 setlinecap
10.0 ML
N
507 116.75 M
502.66 116.75 L
S
GR
GS
[0.75 0 0 0.75 0 0] CT
0.149 GC
2 setlinecap
10.0 ML
N
73 59.583 M
77.34 59.583 L
S
GR
GS
[0.75 0 0 0.75 0 0] CT
0.149 GC
2 setlinecap
10.0 ML
N
507 59.583 M
502.66 59.583 L
S
GR
GS
[0.75 0 0 0.75 50.75 259.06249] CT
0.149 GC
/Helvetica 13 F
GS
[1 0 0 1 0 0] CT
-7.23 5.394 moveto 
1 -1 scale
(1) t 
GR
GR
GS
[0.75 0 0 0.75 50.75 216.1875] CT
0.149 GC
/Helvetica 13 F
GS
[1 0 0 1 0 0] CT
-7.23 5.394 moveto 
1 -1 scale
(2) t 
GR
GR
GS
[0.75 0 0 0.75 50.75 173.3125] CT
0.149 GC
/Helvetica 13 F
GS
[1 0 0 1 0 0] CT
-7.23 5.394 moveto 
1 -1 scale
(3) t 
GR
GR
GS
[0.75 0 0 0.75 50.75 130.4375] CT
0.149 GC
/Helvetica 13 F
GS
[1 0 0 1 0 0] CT
-7.23 5.394 moveto 
1 -1 scale
(4) t 
GR
GR
GS
[0.75 0 0 0.75 50.75 87.5625] CT
0.149 GC
/Helvetica 13 F
GS
[1 0 0 1 0 0] CT
-7.23 5.394 moveto 
1 -1 scale
(5) t 
GR
GR
GS
[0.75 0 0 0.75 50.75 44.6875] CT
0.149 GC
/Helvetica 13 F
GS
[1 0 0 1 0 0] CT
-7.23 5.394 moveto 
1 -1 scale
(6) t 
GR
GR
GS
[0.75 0 0 0.75 0 0] CT
0 0.447 0.741 RC
2 setlinecap
10.0 ML
N
73 110.522 M
73 110.522 L
73.25 110.268 L
73.25 110.268 L
73.5 110.052 L
73.5 110.052 L
73.75 109.885 L
73.75 109.885 L
74 109.779 L
74 109.778 L
74.25 109.731 L
74.25 109.731 L
74.25 109.731 L
74.301 109.728 L
74.5 109.748 L
74.5 109.748 L
74.75 109.826 L
74.75 109.826 L
75 109.961 L
75 109.961 L
75.25 110.143 L
75.25 110.143 L
75.5 110.369 L
75.5 110.369 L
75.75 110.627 L
75.75 110.627 L
76 110.916 L
76 110.917 L
76.25 111.219 L
76.25 111.219 L
76.5 111.51 L
76.5 111.511 L
76.75 111.786 L
76.75 111.786 L
77 112.03 L
77 112.03 L
77.25 112.236 L
77.25 112.236 L
77.5 112.399 L
77.5 112.4 L
77.75 112.527 L
77.75 112.528 L
78 112.619 L
78 112.619 L
78.25 112.68 L
78.25 112.68 L
78.5 112.712 L
78.5 112.712 L
78.748 112.728 L
78.75 112.728 L
78.75 112.728 L
78.785 112.729 L
78.999 112.724 L
79 112.724 L
79 112.724 L
79.005 112.724 L
79.249 112.715 L
79.25 112.715 L
79.25 112.715 L
79.253 112.716 L
79.5 112.697 L
79.5 112.697 L
79.75 112.676 L
79.75 112.676 L
79.75 112.676 L
79.999 112.653 L
80 112.653 L
80 112.653 L
80.25 112.629 L
80.25 112.629 L
80.25 112.629 L
80.5 112.606 L
80.5 112.606 L
80.749 112.586 L
80.75 112.586 L
80.75 112.586 L
80.751 112.586 L
81 112.57 L
81 112.57 L
81.245 112.554 L
81.25 112.554 L
81.25 112.554 L
81.5 112.538 L
81.5 112.538 L
81.5 112.538 L
81.75 112.519 L
81.75 112.519 L
81.999 112.507 L
82 112.507 L
82 112.506 L
82 112.507 L
82.241 112.494 L
82.25 112.494 L
82.25 112.494 L
82.498 112.483 L
82.5 112.484 L
82.5 112.484 L
82.749 112.47 L
82.75 112.47 L
82.75 112.47 L
82.753 112.47 L
82.999 112.455 L
83 112.455 L
83 112.455 L
83.001 112.455 L
83.248 112.439 L
83.25 112.44 L
83.25 112.439 L
83.499 112.425 L
83.5 112.425 L
83.5 112.425 L
83.501 112.425 L
83.75 112.413 L
83.75 112.413 L
83.75 112.413 L
83.999 112.4 L
84 112.4 L
84 112.4 L
84.001 112.4 L
84.25 112.383 L
84.25 112.383 L
84.25 112.383 L
84.251 112.383 L
84.5 112.362 L
84.5 112.362 L
84.5 112.362 L
84.75 112.342 L
84.75 112.342 L
84.75 112.342 L
84.999 112.325 L
85 112.325 L
85 112.325 L
85 112.325 L
85.25 112.315 L
85.25 112.315 L
85.25 112.315 L
85.499 112.303 L
85.5 112.303 L
85.5 112.303 L
85.75 112.288 L
85.75 112.288 L
86 112.273 L
86 112.273 L
86.001 112.273 L
86.248 112.258 L
86.25 112.259 L
86.25 112.259 L
86.5 112.246 L
86.5 112.246 L
86.5 112.246 L
86.502 112.246 L
86.747 112.233 L
86.75 112.233 L
86.75 112.233 L
86.998 112.222 L
87 112.222 L
87 112.222 L
87.003 112.222 L
87.25 112.207 L
87.25 112.207 L
87.5 112.193 L
87.5 112.193 L
87.5 112.193 L
87.506 112.193 L
87.75 112.181 L
87.75 112.181 L
87.751 112.181 L
88 112.166 L
88 112.166 L
88.002 112.166 L
88.248 112.156 L
88.25 112.156 L
88.25 112.156 L
88.26 112.156 L
88.5 112.137 L
88.5 112.137 L
88.501 112.137 L
88.75 112.113 L
88.75 112.113 L
88.752 112.113 L
89 112.09 L
89 112.09 L
89.248 112.068 L
89.25 112.068 L
89.25 112.068 L
89.255 112.068 L
89.499 112.051 L
89.5 112.051 L
89.5 112.051 L
89.75 112.033 L
89.75 112.033 L
89.751 112.033 L
90 112.012 L
90 112.012 L
90.249 111.986 L
90.25 111.986 L
90.25 111.986 L
90.5 111.96 L
90.5 111.96 L
90.5 111.96 L
90.501 111.96 L
90.75 111.932 L
90.75 111.932 L
90.999 111.899 L
91 111.899 L
91 111.899 L
91.249 111.866 L
91.25 111.866 L
91.25 111.866 L
91.5 111.831 L
91.5 111.831 L
91.75 111.794 L
91.75 111.794 L
92 111.759 L
92 111.759 L
92 111.759 L
92.25 111.724 L
92.25 111.724 L
92.25 111.724 L
92.5 111.688 L
92.5 111.688 L
92.5 111.688 L
92.75 111.648 L
92.75 111.648 L
93 111.607 L
93 111.607 L
93 111.607 L
93.25 111.569 L
93.25 111.569 L
93.5 111.536 L
93.5 111.536 L
93.5 111.536 L
93.5 111.536 L
93.75 111.502 L
93.75 111.502 L
94 111.467 L
94 111.467 L
94.25 111.438 L
94.25 111.438 L
94.25 111.438 L
94.497 111.413 L
94.5 111.413 L
94.5 111.413 L
94.748 111.391 L
94.75 111.391 L
94.75 111.391 L
94.75 111.391 L
95 111.372 L
95 111.372 L
95.25 111.35 L
95.25 111.35 L
95.499 111.33 L
95.5 111.33 L
95.5 111.33 L
95.749 111.312 L
95.75 111.312 L
95.75 111.312 L
95.752 111.312 L
96 111.295 L
96 111.294 L
96.25 111.278 L
96.25 111.278 L
96.25 111.278 L
96.499 111.261 L
96.5 111.262 L
96.5 111.262 L
96.501 111.262 L
96.75 111.246 L
96.75 111.246 L
97 111.23 L
97 111.23 L
97.001 111.23 L
97.244 111.216 L
97.25 111.216 L
97.25 111.216 L
97.5 111.204 L
97.5 111.204 L
97.749 111.191 L
97.75 111.191 L
97.75 111.191 L
97.751 111.191 L
97.999 111.174 L
98 111.174 L
98 111.174 L
98.001 111.174 L
98.25 111.16 L
98.25 111.16 L
98.499 111.148 L
98.5 111.148 L
98.5 111.148 L
98.503 111.148 L
98.75 111.14 L
98.75 111.14 L
98.75 111.14 L
98.751 111.141 L
99 111.132 L
99 111.132 L
99.003 111.132 L
99.25 111.123 L
99.25 111.123 L
99.25 111.123 L
99.499 111.12 L
99.5 111.12 L
99.5 111.12 L
99.502 111.12 L
99.747 111.116 L
99.75 111.116 L
99.75 111.116 L
99.759 111.116 L
99.998 111.111 L
100 111.112 L
100 111.112 L
100.001 111.112 L
100.25 111.104 L
100.25 111.104 L
100.25 111.104 L
100.254 111.104 L
100.496 111.097 L
100.5 111.097 L
100.5 111.097 L
100.501 111.097 L
100.75 111.09 L
100.75 111.09 L
100.763 111.091 L
101 111.083 L
101 111.083 L
101 111.083 L
101.25 111.076 L
101.25 111.076 L
101.25 111.076 L
101.492 111.068 L
101.5 111.068 L
101.5 111.068 L
101.523 111.069 L
101.75 111.059 L
101.75 111.059 L
101.999 111.048 L
102 111.048 L
102 111.048 L
102.002 111.048 L
102.249 111.035 L
102.25 111.035 L
102.25 111.035 L
102.5 111.02 L
102.5 111.02 L
102.502 111.02 L
102.75 111.005 L
102.75 111.005 L
103 110.986 L
103 110.986 L
103 110.986 L
103.001 110.986 L
103.249 110.968 L
103.25 110.968 L
103.25 110.968 L
103.25 110.968 L
103.499 110.95 L
103.5 110.95 L
103.5 110.95 L
103.501 110.95 L
103.749 110.932 L
103.75 110.932 L
103.75 110.932 L
104 110.911 L
104 110.911 L
104 110.911 L
104.002 110.911 L
104.249 110.892 L
104.25 110.892 L
104.25 110.892 L
104.5 110.869 L
104.5 110.869 L
104.75 110.847 L
104.75 110.847 L
105 110.822 L
105 110.822 L
105 110.822 L
105.249 110.797 L
105.25 110.797 L
105.25 110.797 L
105.498 110.772 L
105.5 110.772 L
105.5 110.772 L
105.75 110.752 L
105.75 110.752 L
105.75 110.752 L
105.75 110.752 L
106 110.732 L
106 110.732 L
106.25 110.712 L
106.25 110.711 L
106.251 110.712 L
106.5 110.688 L
106.5 110.688 L
106.75 110.666 L
106.75 110.666 L
106.75 110.666 L
106.999 110.643 L
107 110.644 L
107 110.643 L
107.003 110.644 L
107.249 110.622 L
107.25 110.622 L
107.25 110.622 L
107.499 110.598 L
107.5 110.598 L
107.5 110.598 L
107.501 110.598 L
107.75 110.572 L
107.75 110.572 L
107.998 110.549 L
108 110.549 L
108 110.549 L
108.25 110.522 L
108.25 110.522 L
108.25 110.522 L
108.25 110.522 L
108.5 110.497 L
108.5 110.497 L
108.5 110.497 L
108.501 110.497 L
108.75 110.471 L
108.75 110.471 L
108.75 110.471 L
109 110.444 L
109 110.444 L
109 110.444 L
109.25 110.415 L
109.25 110.415 L
109.25 110.415 L
109.5 110.391 L
109.5 110.391 L
109.5 110.391 L
109.75 110.369 L
109.75 110.369 L
109.75 110.369 L
109.752 110.369 L
110 110.35 L
110 110.35 L
110 110.35 L
110.247 110.334 L
110.25 110.334 L
110.25 110.334 L
110.25 110.334 L
110.499 110.319 L
110.5 110.319 L
110.5 110.319 L
110.501 110.319 L
110.742 110.31 L
110.75 110.31 L
110.75 110.31 L
110.765 110.31 L
110.874 110.307 L
111 110.309 L
111 110.309 L
111.001 110.309 L
111.246 110.314 L
111.25 110.314 L
111.25 110.314 L
111.5 110.326 L
111.5 110.326 L
111.5 110.326 L
111.75 110.344 L
111.75 110.344 L
111.75 110.344 L
112 110.366 L
112 110.366 L
112.002 110.366 L
112.25 110.39 L
112.25 110.39 L
112.499 110.418 L
112.5 110.418 L
112.5 110.418 L
112.75 110.447 L
112.75 110.447 L
112.75 110.447 L
113 110.478 L
113 110.478 L
113.25 110.512 L
113.25 110.512 L
113.5 110.545 L
113.5 110.545 L
113.75 110.576 L
113.75 110.576 L
114 110.607 L
114 110.607 L
114 110.607 L
114.25 110.633 L
114.25 110.633 L
114.25 110.633 L
114.5 110.657 L
114.5 110.657 L
114.749 110.677 L
114.75 110.677 L
114.75 110.677 L
114.999 110.688 L
115 110.688 L
115 110.688 L
115.248 110.701 L
115.25 110.701 L
115.25 110.701 L
115.26 110.701 L
115.499 110.71 L
115.5 110.71 L
115.5 110.71 L
115.748 110.721 L
115.75 110.721 L
115.75 110.721 L
115.756 110.721 L
116 110.729 L
116 110.729 L
116.221 110.734 L
116.25 110.734 L
116.25 110.734 L
116.496 110.741 L
116.5 110.741 L
116.5 110.741 L
116.501 110.741 L
116.66 110.742 L
116.75 110.741 L
116.75 110.741 L
116.812 110.742 L
116.868 110.741 L
117 110.742 L
117 110.741 L
117.107 110.74 L
117.237 110.742 L
117.25 110.742 L
117.25 110.742 L
117.257 110.742 L
117.496 110.745 L
117.5 110.745 L
117.5 110.745 L
117.575 110.745 L
117.725 110.744 L
117.75 110.744 L
117.75 110.744 L
117.752 110.744 L
117.915 110.742 L
118 110.742 L
118 110.742 L
118.212 110.742 L
118.25 110.744 L
118.25 110.744 L
118.254 110.743 L
118.399 110.748 L
118.5 110.747 L
118.5 110.747 L
118.749 110.752 L
118.75 110.752 L
118.75 110.752 L
118.756 110.752 L
118.97 110.757 L
119 110.757 L
119 110.757 L
119.016 110.757 L
119.159 110.755 L
119.25 110.756 L
119.25 110.756 L
119.299 110.756 L
119.498 110.757 L
119.5 110.757 L
119.5 110.757 L
119.587 110.758 L
119.748 110.756 L
119.75 110.756 L
119.75 110.756 L
119.753 110.756 L
119.972 110.755 L
120 110.755 L
120 110.755 L
120.002 110.755 L
120.082 110.753 L
120.25 110.753 L
120.25 110.753 L
120.332 110.752 L
120.491 110.754 L
120.5 110.754 L
120.5 110.754 L
120.678 110.755 L
120.72 110.753 L
120.75 110.754 L
120.75 110.754 L
120.759 110.753 L
120.944 110.755 L
121 110.754 L
121 110.754 L
121.076 110.754 L
121.245 110.751 L
121.25 110.751 L
121.25 110.751 L
121.254 110.751 L
121.499 110.743 L
121.5 110.743 L
121.5 110.743 L
121.506 110.744 L
121.732 110.74 L
121.75 110.74 L
121.75 110.74 L
121.759 110.74 L
121.999 110.735 L
122 110.735 L
122 110.735 L
122.001 110.735 L
122.244 110.728 L
122.25 110.729 L
122.25 110.728 L
122.498 110.721 L
122.5 110.721 L
122.5 110.721 L
122.5 110.721 L
122.676 110.717 L
122.75 110.718 L
122.75 110.718 L
122.771 110.718 L
122.995 110.715 L
123 110.715 L
123 110.715 L
123.035 110.716 L
123.243 110.712 L
123.25 110.712 L
123.25 110.712 L
123.401 110.712 L
123.492 110.714 L
123.5 110.714 L
123.5 110.714 L
123.542 110.713 L
123.731 110.716 L
123.75 110.716 L
123.75 110.716 L
123.824 110.715 L
123.988 110.717 L
124 110.717 L
124 110.717 L
124.002 110.716 L
124.25 110.724 L
124.25 110.724 L
124.254 110.724 L
124.499 110.733 L
124.5 110.733 L
124.5 110.732 L
124.747 110.749 L
124.75 110.749 L
124.75 110.749 L
124.753 110.749 L
124.996 110.771 L
125 110.771 L
125 110.771 L
125.249 110.793 L
125.25 110.793 L
125.25 110.793 L
125.5 110.822 L
125.5 110.822 L
125.75 110.853 L
125.75 110.853 L
125.75 110.853 L
126 110.891 L
126 110.891 L
126.25 110.933 L
126.25 110.933 L
126.5 110.983 L
126.5 110.983 L
126.75 111.041 L
126.75 111.041 L
127 111.107 L
127 111.107 L
127.25 111.181 L
127.25 111.181 L
127.5 111.26 L
127.5 111.26 L
127.75 111.343 L
127.75 111.343 L
128 111.436 L
128 111.436 L
128.25 111.532 L
128.25 111.532 L
128.5 111.634 L
128.5 111.634 L
128.75 111.738 L
128.75 111.738 L
129 111.849 L
129 111.849 L
129.25 111.963 L
129.25 111.963 L
129.5 112.078 L
129.5 112.078 L
129.75 112.193 L
129.75 112.193 L
130 112.308 L
130 112.308 L
130.25 112.415 L
130.25 112.416 L
130.5 112.52 L
130.5 112.521 L
130.75 112.621 L
130.75 112.621 L
131 112.719 L
131 112.719 L
131.25 112.815 L
131.25 112.816 L
131.5 112.911 L
131.5 112.911 L
131.75 113.008 L
131.75 113.008 L
132 113.109 L
132 113.109 L
132.25 113.214 L
132.25 113.214 L
132.5 113.324 L
132.5 113.325 L
132.75 113.448 L
132.75 113.448 L
133 113.584 L
133 113.585 L
133.25 113.741 L
133.25 113.741 L
133.5 113.921 L
133.5 113.921 L
133.75 114.129 L
133.75 114.129 L
134 114.371 L
134 114.371 L
134.25 114.651 L
134.25 114.651 L
134.5 114.969 L
134.5 114.969 L
134.75 115.325 L
134.75 115.325 L
135 115.723 L
135 115.724 L
135.25 116.166 L
135.25 116.167 L
135.5 116.656 L
135.5 116.657 L
135.75 117.185 L
135.75 117.185 L
136 117.759 L
136 117.759 L
136.25 118.372 L
136.25 118.373 L
136.5 119.011 L
136.5 119.011 L
136.75 119.668 L
136.75 119.668 L
137 120.335 L
137 120.335 L
137.25 121 L
137.25 121 L
137.5 121.654 L
137.5 121.655 L
137.75 122.297 L
137.75 122.298 L
138 122.941 L
138 122.942 L
138.25 123.596 L
138.25 123.596 L
138.5 124.276 L
138.5 124.277 L
138.75 125.013 L
138.75 125.014 L
139 125.847 L
139 125.848 L
139.25 126.831 L
139.25 126.832 L
139.5 127.996 L
139.5 127.997 L
139.75 129.368 L
139.75 129.369 L
140 130.913 L
140 130.914 L
140.25 132.533 L
140.25 132.535 L
140.5 134.15 L
140.5 134.152 L
140.75 135.742 L
140.75 135.743 L
141 137.312 L
141 137.313 L
141.25 138.877 L
141.25 138.879 L
141.5 140.443 L
141.5 140.444 L
141.75 141.987 L
141.75 141.988 L
142 143.477 L
142 143.478 L
142.25 144.854 L
142.25 144.855 L
142.5 146.066 L
142.5 146.067 L
142.75 147.07 L
142.75 147.071 L
143 147.832 L
143 147.833 L
143.25 148.346 L
143.25 148.346 L
143.5 148.675 L
143.5 148.675 L
143.75 148.928 L
143.75 148.928 L
144 149.178 L
144 149.178 L
144.25 149.433 L
144.25 149.433 L
144.5 149.677 L
144.5 149.677 L
144.75 149.885 L
144.75 149.885 L
145 150.049 L
145 150.049 L
145.25 150.174 L
145.25 150.174 L
145.5 150.278 L
145.5 150.278 L
145.75 150.374 L
145.75 150.375 L
146 150.465 L
146 150.466 L
146.25 150.557 L
146.25 150.557 L
146.5 150.642 L
146.5 150.642 L
146.75 150.731 L
146.75 150.731 L
147 150.82 L
147 150.82 L
147.25 150.907 L
147.25 150.907 L
147.5 150.978 L
147.5 150.979 L
147.75 151.049 L
147.75 151.049 L
148 151.118 L
148 151.119 L
148.25 151.194 L
148.25 151.194 L
148.5 151.28 L
148.5 151.28 L
148.75 151.379 L
148.75 151.379 L
149 151.474 L
149 151.474 L
149.25 151.553 L
149.25 151.553 L
149.5 151.608 L
149.5 151.608 L
149.5 151.608 L
149.75 151.64 L
149.75 151.64 L
149.75 151.64 L
149.994 151.661 L
150 151.661 L
150 151.661 L
150.208 151.67 L
150.25 151.669 L
150.25 151.669 L
150.5 151.657 L
150.5 151.657 L
150.5 151.657 L
150.75 151.626 L
150.75 151.626 L
151 151.582 L
151 151.582 L
151.25 151.521 L
151.25 151.521 L
151.5 151.445 L
151.5 151.445 L
151.75 151.345 L
151.75 151.345 L
152 151.221 L
152 151.221 L
152.25 151.082 L
152.25 151.082 L
152.5 150.946 L
152.5 150.946 L
152.75 150.826 L
152.75 150.826 L
153 150.722 L
153 150.721 L
153.25 150.621 L
153.25 150.621 L
153.5 150.515 L
153.5 150.515 L
153.75 150.411 L
153.75 150.411 L
154 150.318 L
154 150.318 L
154.25 150.239 L
154.25 150.239 L
154.5 150.172 L
154.5 150.172 L
154.75 150.115 L
154.75 150.115 L
155 150.067 L
155 150.067 L
155.249 150.028 L
155.25 150.028 L
155.25 150.028 L
155.5 149.991 L
155.5 149.991 L
155.75 149.945 L
155.75 149.945 L
156 149.891 L
156 149.891 L
156.25 149.831 L
156.25 149.831 L
156.5 149.777 L
156.5 149.777 L
156.75 149.735 L
156.75 149.735 L
156.75 149.735 L
157 149.7 L
157 149.7 L
157.25 149.663 L
157.25 149.663 L
157.25 149.663 L
157.5 149.613 L
157.5 149.612 L
157.75 149.554 L
157.75 149.554 L
158 149.491 L
158 149.491 L
158.25 149.433 L
158.25 149.433 L
158.25 149.433 L
158.5 149.384 L
158.5 149.384 L
158.75 149.339 L
158.75 149.339 L
159 149.297 L
159 149.297 L
159 149.297 L
159.25 149.265 L
159.25 149.265 L
159.25 149.265 L
159.5 149.246 L
159.5 149.246 L
159.501 149.246 L
159.735 149.238 L
159.75 149.238 L
159.75 149.238 L
159.752 149.238 L
160 149.23 L
160 149.23 L
160 149.23 L
160 149.23 L
160.25 149.22 L
160.25 149.22 L
160.5 149.209 L
160.5 149.209 L
160.5 149.209 L
160.502 149.209 L
160.703 149.203 L
160.75 149.204 L
160.75 149.204 L
160.751 149.204 L
161 149.214 L
161 149.214 L
161 149.213 L
161.25 149.233 L
161.25 149.233 L
161.25 149.233 L
161.499 149.259 L
161.5 149.259 L
161.5 149.259 L
161.749 149.288 L
161.75 149.288 L
161.75 149.288 L
162 149.313 L
162 149.313 L
162 149.313 L
162.248 149.339 L
162.25 149.339 L
162.25 149.339 L
162.5 149.37 L
162.5 149.37 L
162.75 149.408 L
162.75 149.408 L
163 149.448 L
163 149.448 L
163 149.448 L
163.25 149.489 L
163.25 149.489 L
163.25 149.489 L
163.5 149.538 L
163.5 149.538 L
163.75 149.592 L
163.75 149.592 L
164 149.659 L
164 149.659 L
164 149.659 L
164.25 149.727 L
164.25 149.727 L
164.5 149.795 L
164.5 149.795 L
164.75 149.867 L
164.75 149.867 L
165 149.942 L
165 149.942 L
165.25 150.018 L
165.25 150.018 L
165.5 150.097 L
165.5 150.097 L
165.5 150.097 L
165.75 150.178 L
165.75 150.178 L
166 150.26 L
166 150.26 L
166 150.26 L
166.25 150.338 L
166.25 150.338 L
166.5 150.411 L
166.5 150.411 L
166.75 150.483 L
166.75 150.483 L
167 150.552 L
167 150.552 L
167.25 150.614 L
167.25 150.614 L
167.25 150.615 L
167.5 150.672 L
167.5 150.672 L
167.5 150.672 L
167.75 150.725 L
167.75 150.725 L
168 150.774 L
168 150.774 L
168.248 150.819 L
168.25 150.819 L
168.25 150.819 L
168.5 150.861 L
168.5 150.861 L
168.5 150.861 L
168.75 150.9 L
168.75 150.9 L
169 150.936 L
169 150.936 L
169.248 150.97 L
169.25 150.97 L
169.25 150.97 L
169.5 150.998 L
169.5 150.998 L
169.749 151.025 L
169.75 151.025 L
169.75 151.025 L
169.999 151.054 L
170 151.054 L
170 151.054 L
170.25 151.082 L
170.25 151.082 L
170.25 151.082 L
170.5 151.11 L
170.5 151.11 L
170.5 151.11 L
170.749 151.137 L
170.75 151.137 L
170.75 151.137 L
171 151.165 L
171 151.165 L
171.001 151.165 L
171.25 151.194 L
171.25 151.194 L
171.5 151.23 L
171.5 151.23 L
171.75 151.267 L
171.75 151.267 L
171.75 151.267 L
172 151.306 L
172 151.306 L
172.25 151.347 L
172.25 151.347 L
172.499 151.387 L
172.5 151.387 L
172.5 151.387 L
172.75 151.426 L
172.75 151.426 L
173 151.465 L
173 151.465 L
173.25 151.502 L
173.25 151.502 L
173.5 151.537 L
173.5 151.538 L
173.75 151.566 L
173.75 151.566 L
173.75 151.566 L
174 151.591 L
174 151.591 L
174.25 151.613 L
174.25 151.613 L
174.496 151.633 L
174.5 151.633 L
174.5 151.633 L
174.5 151.633 L
174.749 151.649 L
174.75 151.649 L
174.75 151.649 L
174.994 151.658 L
175 151.658 L
175 151.658 L
175.003 151.658 L
175.245 151.666 L
175.25 151.666 L
175.25 151.666 L
175.491 151.671 L
175.5 151.671 L
175.5 151.671 L
175.737 151.676 L
175.75 151.675 L
175.75 151.675 L
175.753 151.675 L
175.999 151.679 L
176 151.679 L
176 151.679 L
176.245 151.685 L
176.25 151.685 L
176.25 151.684 L
176.25 151.684 L
176.5 151.693 L
176.5 151.693 L
176.749 151.706 L
176.75 151.706 L
176.75 151.706 L
176.75 151.706 L
177 151.72 L
177 151.72 L
177 151.72 L
177.249 151.735 L
177.25 151.735 L
177.25 151.735 L
177.251 151.735 L
177.5 151.756 L
177.5 151.756 L
177.502 151.756 L
177.75 151.772 L
177.75 151.772 L
178 151.785 L
178 151.785 L
178.249 151.802 L
178.25 151.802 L
178.25 151.802 L
178.499 151.823 L
178.5 151.823 L
178.5 151.823 L
178.502 151.823 L
178.75 151.849 L
178.75 151.849 L
179 151.878 L
179 151.878 L
179.25 151.91 L
179.25 151.91 L
179.251 151.91 L
179.5 151.944 L
179.5 151.944 L
179.75 151.98 L
179.75 151.98 L
180 152.013 L
180 152.013 L
180 152.013 L
180.25 152.045 L
180.25 152.045 L
180.5 152.082 L
180.5 152.082 L
180.749 152.121 L
180.75 152.121 L
180.75 152.121 L
181 152.162 L
181 152.162 L
181.25 152.2 L
181.25 152.2 L
181.251 152.2 L
181.5 152.237 L
181.5 152.237 L
181.749 152.272 L
181.75 152.272 L
181.75 152.272 L
182 152.306 L
182 152.306 L
182.249 152.331 L
182.25 152.331 L
182.25 152.331 L
182.5 152.354 L
182.5 152.354 L
182.5 152.354 L
182.501 152.354 L
182.747 152.373 L
182.75 152.372 L
182.75 152.372 L
182.999 152.394 L
183 152.394 L
183 152.394 L
183 152.394 L
183.248 152.416 L
183.25 152.416 L
183.25 152.416 L
183.5 152.435 L
183.5 152.435 L
183.749 152.452 L
183.75 152.452 L
183.75 152.452 L
183.75 152.452 L
184 152.465 L
184 152.465 L
184.001 152.465 L
184.248 152.476 L
184.25 152.476 L
184.25 152.476 L
184.499 152.486 L
184.5 152.486 L
184.5 152.486 L
184.745 152.5 L
184.75 152.5 L
184.75 152.5 L
185 152.516 L
185 152.516 L
185 152.516 L
185.25 152.531 L
185.25 152.531 L
185.253 152.531 L
185.5 152.547 L
185.5 152.547 L
185.503 152.547 L
185.75 152.565 L
185.75 152.565 L
186 152.585 L
186 152.585 L
186.25 152.604 L
186.25 152.604 L
186.5 152.625 L
186.5 152.625 L
186.5 152.625 L
186.75 152.647 L
186.75 152.647 L
186.75 152.647 L
187 152.674 L
187 152.674 L
187.249 152.704 L
187.25 152.704 L
187.25 152.704 L
187.5 152.738 L
187.5 152.738 L
187.501 152.738 L
187.75 152.774 L
187.75 152.774 L
188 152.812 L
188 152.813 L
188.25 152.852 L
188.25 152.852 L
188.25 152.852 L
188.5 152.887 L
188.5 152.887 L
188.5 152.887 L
188.75 152.923 L
188.75 152.923 L
189 152.955 L
189 152.955 L
189.248 152.985 L
189.25 152.985 L
189.25 152.985 L
189.25 152.985 L
189.5 153.017 L
189.5 153.017 L
189.75 153.055 L
189.75 153.055 L
189.75 153.055 L
190 153.096 L
190 153.096 L
190 153.096 L
190.25 153.143 L
190.25 153.143 L
190.25 153.143 L
190.5 153.189 L
190.5 153.189 L
190.75 153.238 L
190.75 153.238 L
191 153.284 L
191 153.284 L
191.249 153.328 L
191.25 153.328 L
191.25 153.328 L
191.5 153.364 L
191.5 153.364 L
191.75 153.4 L
191.75 153.4 L
192 153.437 L
192 153.437 L
192.001 153.437 L
192.25 153.476 L
192.25 153.476 L
192.5 153.516 L
192.5 153.516 L
192.5 153.516 L
192.749 153.555 L
192.75 153.555 L
192.75 153.555 L
193 153.592 L
193 153.592 L
193.249 153.618 L
193.25 153.618 L
193.25 153.618 L
193.251 153.618 L
193.497 153.638 L
193.5 153.638 L
193.5 153.638 L
193.75 153.654 L
193.75 153.654 L
193.75 153.654 L
193.751 153.654 L
193.989 153.666 L
194 153.666 L
194 153.666 L
194.237 153.674 L
194.25 153.674 L
194.25 153.674 L
194.253 153.673 L
194.5 153.679 L
194.5 153.679 L
194.51 153.678 L
194.749 153.687 L
194.75 153.687 L
194.75 153.687 L
194.75 153.687 L
194.992 153.699 L
195 153.699 L
195 153.699 L
195 153.699 L
195.25 153.714 L
195.25 153.714 L
195.25 153.714 L
195.5 153.735 L
195.5 153.735 L
195.748 153.761 L
195.75 153.761 L
195.75 153.761 L
196 153.789 L
196 153.789 L
196.25 153.82 L
196.25 153.82 L
196.25 153.82 L
196.5 153.851 L
196.5 153.851 L
196.75 153.881 L
196.75 153.881 L
196.75 153.881 L
196.75 153.881 L
196.999 153.911 L
197 153.911 L
197 153.911 L
197.249 153.945 L
197.25 153.945 L
197.25 153.945 L
197.5 153.981 L
197.5 153.981 L
197.75 154.019 L
197.75 154.019 L
198 154.058 L
198 154.058 L
198.25 154.096 L
198.25 154.097 L
198.251 154.097 L
198.5 154.13 L
198.5 154.129 L
198.5 154.13 L
198.75 154.163 L
198.75 154.163 L
198.75 154.163 L
199 154.188 L
199 154.188 L
199.001 154.188 L
199.25 154.21 L
199.25 154.21 L
199.25 154.21 L
199.5 154.229 L
199.5 154.229 L
199.75 154.246 L
199.75 154.246 L
199.996 154.265 L
200 154.265 L
200 154.265 L
200.25 154.286 L
200.25 154.286 L
200.5 154.308 L
200.5 154.308 L
200.75 154.328 L
200.75 154.328 L
200.999 154.349 L
201 154.349 L
201 154.349 L
201.25 154.372 L
201.25 154.372 L
201.25 154.372 L
201.5 154.396 L
201.5 154.396 L
201.75 154.426 L
201.75 154.426 L
201.75 154.426 L
202 154.457 L
202 154.457 L
202 154.457 L
202.25 154.489 L
202.25 154.489 L
202.5 154.523 L
202.5 154.524 L
202.75 154.559 L
202.75 154.559 L
203 154.593 L
203 154.593 L
203.25 154.631 L
203.25 154.631 L
203.25 154.631 L
203.5 154.669 L
203.5 154.669 L
203.75 154.705 L
203.75 154.705 L
203.75 154.705 L
204 154.734 L
204 154.734 L
204.248 154.761 L
204.25 154.761 L
204.25 154.761 L
204.5 154.784 L
204.5 154.784 L
204.75 154.804 L
204.75 154.804 L
204.75 154.804 L
204.751 154.804 L
204.999 154.815 L
205 154.815 L
205 154.816 L
205.059 154.817 L
205.25 154.81 L
205.25 154.81 L
205.5 154.772 L
205.5 154.772 L
205.5 154.772 L
205.75 154.678 L
205.75 154.678 L
206 154.508 L
206 154.508 L
206.25 154.24 L
206.25 154.24 L
206.5 153.857 L
206.5 153.856 L
206.75 153.334 L
206.75 153.333 L
207 152.637 L
207 152.636 L
207.25 151.733 L
207.25 151.732 L
207.5 150.588 L
207.5 150.587 L
207.75 149.15 L
207.75 149.149 L
208 147.386 L
208 147.384 L
208.25 145.286 L
208.25 145.284 L
208.5 142.896 L
208.5 142.894 L
208.75 140.281 L
208.75 140.278 L
209 137.506 L
209 137.504 L
209.25 134.633 L
209.25 134.63 L
209.5 131.728 L
209.5 131.725 L
209.75 128.854 L
209.75 128.852 L
210 126.044 L
210 126.042 L
210.25 123.344 L
210.25 123.341 L
210.5 120.795 L
210.5 120.792 L
210.75 118.445 L
210.75 118.443 L
211 116.334 L
211 116.332 L
211.25 114.513 L
211.25 114.512 L
211.5 113.019 L
211.5 113.018 L
211.75 111.848 L
211.75 111.847 L
212 110.959 L
212 110.958 L
212.25 110.304 L
212.25 110.303 L
212.5 109.834 L
212.5 109.833 L
212.75 109.507 L
212.75 109.507 L
213 109.283 L
213 109.282 L
213.25 109.134 L
213.25 109.134 L
213.5 109.044 L
213.5 109.044 L
213.75 109.009 L
213.75 109.009 L
213.825 109.006 L
213.999 109.017 L
214 109.017 L
214 109.017 L
214.25 109.064 L
214.25 109.064 L
214.5 109.15 L
214.5 109.15 L
214.75 109.276 L
214.75 109.276 L
215 109.442 L
215 109.442 L
215.25 109.652 L
215.25 109.653 L
215.5 109.918 L
215.5 109.918 L
215.75 110.255 L
215.75 110.255 L
216 110.677 L
216 110.677 L
216.25 111.201 L
216.25 111.202 L
216.5 111.851 L
216.5 111.852 L
216.75 112.638 L
216.75 112.639 L
217 113.602 L
217 113.603 L
217.25 114.771 L
217.25 114.772 L
217.5 116.162 L
217.5 116.164 L
217.75 117.751 L
217.75 117.752 L
218 119.471 L
218 119.472 L
218.25 121.244 L
218.25 121.246 L
218.5 123.04 L
218.5 123.042 L
218.75 124.855 L
218.75 124.856 L
219 126.695 L
219 126.696 L
219.25 128.537 L
219.25 128.538 L
219.5 130.354 L
219.5 130.355 L
219.75 132.111 L
219.75 132.113 L
220 133.777 L
220 133.779 L
220.25 135.33 L
220.25 135.331 L
220.5 136.726 L
220.5 136.727 L
220.75 137.922 L
220.75 137.923 L
221 138.897 L
221 138.898 L
221.25 139.684 L
221.25 139.685 L
221.5 140.352 L
221.5 140.352 L
221.75 140.968 L
221.75 140.968 L
222 141.537 L
222 141.538 L
222.25 142.041 L
222.25 142.041 L
222.5 142.47 L
222.5 142.47 L
222.75 142.835 L
222.75 142.835 L
223 143.148 L
223 143.149 L
223.25 143.433 L
223.25 143.433 L
223.5 143.687 L
223.5 143.687 L
223.75 143.906 L
223.75 143.907 L
224 144.102 L
224 144.102 L
224.25 144.292 L
224.25 144.292 L
224.5 144.483 L
224.5 144.483 L
224.75 144.675 L
224.75 144.675 L
225 144.86 L
225 144.86 L
225.25 145.035 L
225.25 145.035 L
225.5 145.206 L
225.5 145.206 L
225.75 145.375 L
225.75 145.375 L
226 145.532 L
226 145.532 L
226.25 145.671 L
226.25 145.671 L
226.5 145.792 L
226.5 145.792 L
226.75 145.895 L
226.75 145.895 L
227 145.981 L
227 145.982 L
227.25 146.058 L
227.25 146.058 L
227.5 146.116 L
227.5 146.116 L
227.75 146.159 L
227.75 146.159 L
227.999 146.182 L
228 146.182 L
228 146.182 L
228.248 146.193 L
228.25 146.193 L
228.25 146.193 L
228.256 146.193 L
228.484 146.199 L
228.5 146.199 L
228.5 146.199 L
228.5 146.199 L
228.746 146.203 L
228.75 146.203 L
228.75 146.203 L
228.751 146.203 L
228.997 146.21 L
229 146.21 L
229 146.21 L
229.002 146.21 L
229.248 146.22 L
229.25 146.22 L
229.25 146.22 L
229.499 146.236 L
229.5 146.236 L
229.5 146.236 L
229.5 146.236 L
229.75 146.262 L
229.75 146.262 L
229.75 146.262 L
229.999 146.297 L
230 146.297 L
230 146.297 L
230.249 146.338 L
230.25 146.338 L
230.25 146.338 L
230.499 146.388 L
230.5 146.388 L
230.5 146.388 L
230.5 146.388 L
230.75 146.442 L
230.75 146.442 L
231 146.497 L
231 146.498 L
231.25 146.551 L
231.25 146.552 L
231.5 146.604 L
231.5 146.604 L
231.75 146.659 L
231.75 146.659 L
231.75 146.659 L
232 146.714 L
232 146.714 L
232 146.714 L
232.25 146.765 L
232.25 146.765 L
232.5 146.812 L
232.5 146.812 L
232.75 146.853 L
232.75 146.853 L
232.75 146.853 L
232.998 146.88 L
233 146.88 L
233 146.88 L
233.001 146.88 L
233.248 146.895 L
233.25 146.895 L
233.25 146.895 L
233.5 146.901 L
233.5 146.901 L
233.5 146.901 L
233.505 146.901 L
233.716 146.904 L
233.75 146.904 L
233.75 146.904 L
233.795 146.904 L
233.993 146.9 L
234 146.9 L
234 146.9 L
234.028 146.901 L
234.248 146.895 L
234.25 146.895 L
234.25 146.895 L
234.251 146.895 L
234.499 146.887 L
234.5 146.887 L
234.5 146.887 L
234.503 146.887 L
234.749 146.877 L
234.75 146.877 L
234.75 146.877 L
234.769 146.877 L
235 146.867 L
235 146.867 L
235.25 146.853 L
235.25 146.853 L
235.499 146.837 L
235.5 146.837 L
235.5 146.837 L
235.75 146.819 L
235.75 146.819 L
235.75 146.819 L
235.751 146.819 L
235.999 146.802 L
236 146.802 L
236 146.802 L
236.249 146.789 L
236.25 146.789 L
236.25 146.789 L
236.25 146.789 L
236.499 146.783 L
236.5 146.783 L
236.5 146.783 L
236.507 146.784 L
236.749 146.78 L
236.75 146.78 L
236.75 146.78 L
236.906 146.781 L
236.988 146.778 L
237 146.778 L
237 146.778 L
237.003 146.778 L
237.214 146.773 L
237.25 146.774 L
237.25 146.774 L
237.263 146.774 L
237.464 146.771 L
237.5 146.772 L
237.5 146.772 L
237.589 146.771 L
237.75 146.773 L
237.75 146.773 L
237.75 146.773 L
237.755 146.773 L
238 146.777 L
238 146.777 L
238.249 146.784 L
238.25 146.784 L
238.25 146.784 L
238.261 146.784 L
238.498 146.792 L
238.5 146.792 L
238.5 146.792 L
238.747 146.798 L
238.75 146.798 L
238.75 146.798 L
238.813 146.798 L
238.981 146.801 L
239 146.8 L
239 146.8 L
239.002 146.8 L
239.248 146.797 L
239.25 146.797 L
239.25 146.797 L
239.25 146.797 L
239.499 146.786 L
239.5 146.786 L
239.5 146.786 L
239.501 146.786 L
239.75 146.773 L
239.75 146.773 L
240 146.756 L
240 146.756 L
240.249 146.74 L
240.25 146.74 L
240.25 146.74 L
240.257 146.74 L
240.497 146.728 L
240.5 146.728 L
240.5 146.728 L
240.501 146.728 L
240.75 146.71 L
240.75 146.71 L
240.75 146.71 L
240.993 146.693 L
241 146.693 L
241 146.693 L
241.003 146.693 L
241.248 146.674 L
241.25 146.675 L
241.25 146.675 L
241.251 146.675 L
241.498 146.657 L
241.5 146.657 L
241.5 146.656 L
241.75 146.641 L
241.75 146.641 L
242 146.623 L
242 146.623 L
242.249 146.608 L
242.25 146.608 L
242.25 146.608 L
242.499 146.593 L
242.5 146.593 L
242.5 146.593 L
242.501 146.593 L
242.682 146.587 L
242.75 146.587 L
242.75 146.587 L
242.989 146.583 L
243 146.583 L
243 146.583 L
243.017 146.582 L
243.25 146.586 L
243.25 146.586 L
243.251 146.586 L
243.499 146.597 L
243.5 146.597 L
243.5 146.597 L
243.75 146.615 L
243.75 146.615 L
243.751 146.615 L
244 146.637 L
244 146.637 L
244.001 146.637 L
244.249 146.663 L
244.25 146.663 L
244.25 146.663 L
244.251 146.663 L
244.5 146.685 L
244.5 146.685 L
244.75 146.703 L
244.75 146.703 L
244.997 146.718 L
245 146.718 L
245 146.718 L
245.249 146.733 L
245.25 146.733 L
245.25 146.733 L
245.499 146.755 L
245.5 146.755 L
245.5 146.755 L
245.507 146.755 L
245.75 146.783 L
245.75 146.783 L
246 146.815 L
246 146.815 L
246.25 146.844 L
246.25 146.844 L
246.5 146.869 L
246.5 146.869 L
246.5 146.869 L
246.75 146.891 L
246.75 146.891 L
247 146.91 L
247 146.91 L
247.25 146.926 L
247.25 146.926 L
247.25 146.926 L
247.499 146.943 L
247.5 146.943 L
247.5 146.943 L
247.749 146.964 L
247.75 146.964 L
247.75 146.964 L
247.75 146.964 L
248 146.987 L
248 146.987 L
248 146.987 L
248.25 147.01 L
248.25 147.01 L
248.499 147.03 L
248.5 147.03 L
248.5 147.03 L
248.75 147.049 L
248.75 147.049 L
248.75 147.049 L
249 147.068 L
249 147.068 L
249.25 147.088 L
249.25 147.088 L
249.5 147.116 L
249.5 147.116 L
249.75 147.155 L
249.75 147.156 L
250 147.197 L
250 147.197 L
250 147.197 L
250.25 147.239 L
250.25 147.239 L
250.5 147.277 L
250.5 147.277 L
250.749 147.307 L
250.75 147.307 L
250.75 147.307 L
250.999 147.327 L
251 147.327 L
251 147.327 L
251.25 147.347 L
251.25 147.347 L
251.251 147.347 L
251.496 147.36 L
251.5 147.36 L
251.5 147.36 L
251.749 147.371 L
251.75 147.371 L
251.75 147.371 L
251.751 147.371 L
251.998 147.385 L
252 147.385 L
252 147.385 L
252.001 147.385 L
252.25 147.394 L
252.25 147.394 L
252.25 147.394 L
252.259 147.394 L
252.497 147.4 L
252.5 147.4 L
252.5 147.4 L
252.597 147.402 L
252.75 147.401 L
252.75 147.401 L
252.856 147.402 L
252.992 147.395 L
253 147.396 L
253 147.396 L
253.001 147.396 L
253.248 147.381 L
253.25 147.382 L
253.25 147.382 L
253.499 147.367 L
253.5 147.367 L
253.5 147.367 L
253.5 147.367 L
253.747 147.353 L
253.75 147.353 L
253.75 147.353 L
253.75 147.353 L
254 147.339 L
254 147.339 L
254 147.339 L
254.241 147.331 L
254.25 147.331 L
254.25 147.331 L
254.5 147.323 L
254.5 147.323 L
254.5 147.323 L
254.683 147.318 L
254.75 147.32 L
254.75 147.32 L
254.828 147.321 L
254.963 147.32 L
255 147.321 L
255 147.321 L
255.218 147.325 L
255.25 147.325 L
255.25 147.325 L
255.251 147.325 L
255.496 147.329 L
255.5 147.329 L
255.5 147.329 L
255.748 147.334 L
255.75 147.333 L
255.75 147.333 L
255.75 147.333 L
256 147.337 L
256 147.337 L
256 147.337 L
256.248 147.334 L
256.25 147.334 L
256.25 147.334 L
256.297 147.332 L
256.484 147.335 L
256.5 147.334 L
256.5 147.334 L
256.594 147.334 L
256.725 147.335 L
256.75 147.335 L
256.75 147.335 L
256.825 147.334 L
256.924 147.336 L
257 147.335 L
257 147.335 L
257.175 147.334 L
257.249 147.336 L
257.25 147.336 L
257.25 147.336 L
257.253 147.335 L
257.494 147.338 L
257.5 147.338 L
257.5 147.338 L
257.559 147.337 L
257.723 147.34 L
257.75 147.34 L
257.75 147.34 L
257.999 147.345 L
258 147.345 L
258 147.345 L
258.002 147.344 L
258.174 147.347 L
258.25 147.346 L
258.25 147.346 L
258.252 147.346 L
258.39 147.348 L
258.5 147.346 L
258.5 147.346 L
258.5 147.346 L
258.741 147.344 L
258.75 147.344 L
258.75 147.344 L
258.863 147.345 L
258.985 147.344 L
259 147.345 L
259 147.345 L
259.15 147.346 L
259.244 147.343 L
259.25 147.344 L
259.25 147.344 L
259.424 147.343 L
259.498 147.346 L
259.5 147.345 L
259.5 147.345 L
259.51 147.345 L
259.71 147.351 L
259.75 147.351 L
259.75 147.351 L
259.755 147.351 L
259.997 147.354 L
260 147.354 L
260 147.354 L
260.015 147.353 L
260.241 147.36 L
260.25 147.36 L
260.25 147.36 L
260.5 147.37 L
260.5 147.37 L
260.5 147.37 L
260.75 147.378 L
260.75 147.378 L
260.752 147.378 L
260.992 147.384 L
261 147.383 L
261 147.383 L
261.099 147.384 L
261.119 147.383 L
261.25 147.383 L
261.25 147.383 L
261.252 147.383 L
261.486 147.378 L
261.5 147.379 L
261.5 147.379 L
261.504 147.378 L
261.662 147.38 L
261.75 147.38 L
261.75 147.38 L
261.91 147.378 L
261.991 147.38 L
262 147.38 L
262 147.38 L
262.015 147.38 L
262.249 147.385 L
262.25 147.385 L
262.25 147.385 L
262.256 147.385 L
262.5 147.392 L
262.5 147.392 L
262.75 147.403 L
262.75 147.403 L
262.75 147.403 L
262.751 147.403 L
263 147.418 L
263 147.418 L
263 147.418 L
263.002 147.418 L
263.25 147.43 L
263.25 147.43 L
263.5 147.438 L
263.5 147.438 L
263.516 147.438 L
263.731 147.444 L
263.75 147.444 L
263.75 147.444 L
263.75 147.443 L
263.999 147.447 L
264 147.447 L
264 147.447 L
264.007 147.447 L
264.25 147.457 L
264.25 147.457 L
264.499 147.47 L
264.5 147.47 L
264.5 147.47 L
264.75 147.484 L
264.75 147.484 L
264.998 147.5 L
265 147.5 L
265 147.5 L
265.002 147.5 L
265.249 147.515 L
265.25 147.515 L
265.25 147.515 L
265.5 147.532 L
265.5 147.532 L
265.75 147.546 L
265.75 147.546 L
265.999 147.56 L
266 147.56 L
266 147.56 L
266.246 147.571 L
266.25 147.571 L
266.25 147.571 L
266.25 147.571 L
266.499 147.582 L
266.5 147.582 L
266.5 147.582 L
266.505 147.582 L
266.749 147.594 L
266.75 147.594 L
266.75 147.594 L
266.997 147.609 L
267 147.609 L
267 147.609 L
267.249 147.619 L
267.25 147.619 L
267.25 147.619 L
267.26 147.618 L
267.495 147.627 L
267.5 147.627 L
267.5 147.627 L
267.516 147.627 L
267.749 147.633 L
267.75 147.632 L
267.75 147.632 L
267.792 147.632 L
267.999 147.638 L
268 147.638 L
268 147.638 L
268.25 147.647 L
268.25 147.647 L
268.25 147.647 L
268.257 147.647 L
268.498 147.656 L
268.5 147.656 L
268.5 147.656 L
268.5 147.656 L
268.746 147.664 L
268.75 147.664 L
268.75 147.664 L
268.75 147.664 L
269 147.672 L
269 147.672 L
269 147.672 L
269.241 147.678 L
269.25 147.678 L
269.25 147.678 L
269.251 147.677 L
269.497 147.686 L
269.5 147.686 L
269.5 147.686 L
269.501 147.686 L
269.736 147.69 L
269.75 147.69 L
269.75 147.69 L
269.761 147.689 L
269.998 147.693 L
270 147.693 L
270 147.693 L
270.006 147.693 L
270.169 147.696 L
270.25 147.694 L
270.25 147.694 L
270.276 147.694 L
270.5 147.701 L
270.5 147.701 L
270.743 147.709 L
270.75 147.709 L
270.75 147.709 L
270.99 147.718 L
271 147.718 L
271 147.718 L
271.001 147.718 L
271.25 147.726 L
271.25 147.726 L
271.25 147.726 L
271.256 147.726 L
271.5 147.737 L
271.5 147.737 L
271.503 147.736 L
271.741 147.746 L
271.75 147.746 L
271.75 147.746 L
272 147.753 L
272 147.753 L
272 147.753 L
272.012 147.753 L
272.248 147.763 L
272.25 147.763 L
272.25 147.763 L
272.497 147.769 L
272.5 147.769 L
272.5 147.769 L
272.502 147.769 L
272.737 147.773 L
272.75 147.772 L
272.75 147.772 L
272.764 147.772 L
272.99 147.778 L
273 147.778 L
273 147.778 L
273.002 147.777 L
273.25 147.784 L
273.25 147.784 L
273.25 147.784 L
273.5 147.792 L
273.5 147.792 L
273.516 147.792 L
273.75 147.801 L
273.75 147.801 L
273.753 147.801 L
273.995 147.81 L
274 147.81 L
274 147.81 L
274.25 147.822 L
274.25 147.821 L
274.251 147.821 L
274.499 147.83 L
274.5 147.83 L
274.5 147.83 L
274.501 147.83 L
274.749 147.84 L
274.75 147.84 L
274.75 147.84 L
274.767 147.839 L
274.999 147.846 L
275 147.846 L
275 147.846 L
275.001 147.846 L
275.249 147.856 L
275.25 147.856 L
275.25 147.856 L
275.256 147.856 L
275.5 147.869 L
275.5 147.869 L
275.748 147.882 L
275.75 147.882 L
275.75 147.882 L
275.75 147.882 L
275.996 147.895 L
276 147.894 L
276 147.894 L
276.248 147.906 L
276.25 147.906 L
276.25 147.906 L
276.25 147.906 L
276.477 147.909 L
276.5 147.909 L
276.5 147.909 L
276.642 147.909 L
276.698 147.908 L
276.75 147.909 L
276.75 147.908 L
276.999 147.903 L
277 147.903 L
277 147.903 L
277.002 147.903 L
277.221 147.897 L
277.25 147.897 L
277.25 147.897 L
277.253 147.897 L
277.321 147.898 L
277.5 147.897 L
277.5 147.897 L
277.503 147.897 L
277.75 147.9 L
277.75 147.9 L
277.755 147.9 L
277.998 147.906 L
278 147.906 L
278 147.906 L
278 147.906 L
278.249 147.914 L
278.25 147.914 L
278.25 147.914 L
278.255 147.914 L
278.498 147.926 L
278.5 147.926 L
278.5 147.926 L
278.747 147.937 L
278.75 147.937 L
278.75 147.937 L
278.999 147.946 L
279 147.946 L
279 147.946 L
279.002 147.946 L
279.25 147.962 L
279.25 147.962 L
279.5 147.985 L
279.5 147.985 L
279.501 147.985 L
279.75 148.015 L
279.75 148.015 L
280 148.05 L
280 148.05 L
280 148.05 L
280.25 148.093 L
280.25 148.093 L
280.5 148.143 L
280.5 148.143 L
280.75 148.195 L
280.75 148.195 L
281 148.245 L
281 148.245 L
281.25 148.297 L
281.25 148.297 L
281.5 148.355 L
281.5 148.355 L
281.75 148.413 L
281.75 148.413 L
282 148.468 L
282 148.468 L
282.25 148.523 L
282.25 148.523 L
282.5 148.58 L
282.5 148.58 L
282.75 148.635 L
282.75 148.635 L
282.75 148.635 L
283 148.691 L
283 148.691 L
283.25 148.748 L
283.25 148.748 L
283.5 148.806 L
283.5 148.806 L
283.75 148.857 L
283.75 148.857 L
284 148.907 L
284 148.907 L
284.25 148.952 L
284.25 148.952 L
284.5 148.999 L
284.5 148.999 L
284.75 149.042 L
284.75 149.042 L
284.75 149.042 L
284.999 149.08 L
285 149.08 L
285 149.08 L
285.25 149.117 L
285.25 149.117 L
285.5 149.148 L
285.5 149.148 L
285.5 149.148 L
285.722 149.16 L
285.75 149.159 L
285.75 149.159 L
286 149.118 L
286 149.118 L
286.25 148.969 L
286.25 148.969 L
286.5 148.657 L
286.5 148.657 L
286.75 148.126 L
286.75 148.125 L
287 147.328 L
287 147.327 L
287.25 146.224 L
287.25 146.223 L
287.5 144.783 L
287.5 144.782 L
287.75 142.984 L
287.75 142.982 L
288 140.837 L
288 140.835 L
288.25 138.396 L
288.25 138.394 L
288.5 135.746 L
288.5 135.744 L
288.75 132.946 L
288.75 132.943 L
289 130.062 L
289 130.059 L
289.25 127.155 L
289.25 127.153 L
289.5 124.294 L
289.5 124.291 L
289.75 121.545 L
289.75 121.543 L
290 118.982 L
290 118.98 L
290.25 116.657 L
290.25 116.655 L
290.5 114.622 L
290.5 114.62 L
290.75 112.909 L
290.75 112.908 L
291 111.55 L
291 111.549 L
291.25 110.557 L
291.25 110.556 L
291.5 109.905 L
291.5 109.904 L
291.75 109.528 L
291.75 109.527 L
292 109.345 L
292 109.345 L
292.237 109.302 L
292.25 109.302 L
292.25 109.302 L
292.25 109.302 L
292.5 109.345 L
292.5 109.345 L
292.75 109.433 L
292.75 109.433 L
293 109.552 L
293 109.552 L
293.25 109.689 L
293.25 109.69 L
293.5 109.843 L
293.5 109.843 L
293.75 110.022 L
293.75 110.022 L
294 110.229 L
294 110.229 L
294.25 110.473 L
294.25 110.473 L
294.5 110.765 L
294.5 110.765 L
294.75 111.109 L
294.75 111.109 L
295 111.51 L
295 111.51 L
295.25 111.973 L
295.25 111.973 L
295.5 112.501 L
295.5 112.501 L
295.75 113.104 L
295.75 113.104 L
296 113.797 L
296 113.798 L
296.25 114.601 L
296.25 114.602 L
296.5 115.552 L
296.5 115.553 L
296.75 116.7 L
296.75 116.701 L
297 118.118 L
297 118.119 L
297.25 119.927 L
297.25 119.929 L
297.5 122.151 L
297.5 122.153 L
297.75 124.654 L
297.75 124.656 L
298 127.248 L
298 127.25 L
298.25 129.841 L
298.25 129.844 L
298.5 132.441 L
298.5 132.443 L
298.75 135.075 L
298.75 135.077 L
299 137.736 L
299 137.738 L
299.25 140.38 L
299.25 140.382 L
299.5 142.958 L
299.5 142.96 L
299.75 145.426 L
299.75 145.429 L
300 147.763 L
300 147.765 L
300.25 149.934 L
300.25 149.936 L
300.5 151.846 L
300.5 151.847 L
300.75 153.356 L
300.75 153.357 L
301 154.448 L
301 154.449 L
301.25 155.286 L
301.25 155.287 L
301.5 156.037 L
301.5 156.038 L
301.75 156.756 L
301.75 156.757 L
302 157.415 L
302 157.416 L
302.25 157.977 L
302.25 157.978 L
302.5 158.457 L
302.5 158.458 L
302.75 158.891 L
302.75 158.891 L
303 159.312 L
303 159.312 L
303.25 159.719 L
303.25 159.719 L
303.5 160.093 L
303.5 160.093 L
303.75 160.41 L
303.75 160.411 L
304 160.679 L
304 160.679 L
304.25 160.931 L
304.25 160.931 L
304.5 161.178 L
304.5 161.179 L
304.75 161.414 L
304.75 161.414 L
305 161.625 L
305 161.625 L
305.25 161.815 L
305.25 161.815 L
305.5 161.993 L
305.5 161.993 L
305.75 162.174 L
305.75 162.174 L
306 162.36 L
306 162.36 L
306.25 162.537 L
306.25 162.537 L
306.5 162.697 L
306.5 162.697 L
306.75 162.849 L
306.75 162.849 L
307 162.984 L
307 162.984 L
307.25 163.102 L
307.25 163.102 L
307.5 163.201 L
307.5 163.201 L
307.75 163.283 L
307.75 163.283 L
308 163.361 L
308 163.361 L
308.25 163.441 L
308.25 163.441 L
308.5 163.517 L
308.5 163.517 L
308.75 163.589 L
308.75 163.59 L
309 163.656 L
309 163.656 L
309.25 163.711 L
309.25 163.711 L
309.5 163.748 L
309.5 163.748 L
309.747 163.772 L
309.75 163.772 L
309.75 163.772 L
310 163.79 L
310 163.79 L
310 163.79 L
310.002 163.79 L
310.248 163.8 L
310.25 163.8 L
310.25 163.8 L
310.259 163.8 L
310.491 163.803 L
310.5 163.803 L
310.5 163.803 L
310.505 163.803 L
310.669 163.808 L
310.75 163.807 L
310.75 163.807 L
310.756 163.807 L
311 163.81 L
311 163.81 L
311 163.81 L
311.059 163.81 L
311.248 163.806 L
311.25 163.806 L
311.25 163.806 L
311.499 163.79 L
311.5 163.79 L
311.5 163.79 L
311.513 163.79 L
311.75 163.769 L
311.75 163.769 L
311.997 163.746 L
312 163.746 L
312 163.746 L
312.25 163.716 L
312.25 163.716 L
312.5 163.68 L
312.5 163.68 L
312.5 163.68 L
312.75 163.641 L
312.75 163.641 L
312.998 163.602 L
313 163.602 L
313 163.602 L
313.001 163.602 L
313.25 163.566 L
313.25 163.566 L
313.5 163.53 L
313.5 163.53 L
313.75 163.494 L
313.75 163.494 L
314 163.453 L
314 163.453 L
314.25 163.407 L
314.25 163.407 L
314.5 163.357 L
314.5 163.357 L
314.75 163.309 L
314.75 163.309 L
315 163.257 L
315 163.257 L
315 163.257 L
315.25 163.203 L
315.25 163.203 L
315.5 163.146 L
315.5 163.146 L
315.75 163.085 L
315.75 163.085 L
316 163.025 L
316 163.025 L
316.25 162.968 L
316.25 162.968 L
316.25 162.968 L
316.5 162.912 L
316.5 162.912 L
316.5 162.911 L
316.75 162.856 L
316.75 162.856 L
317 162.804 L
317 162.804 L
317.25 162.759 L
317.25 162.759 L
317.5 162.714 L
317.5 162.714 L
317.75 162.673 L
317.75 162.673 L
318 162.641 L
318 162.641 L
318 162.641 L
318.25 162.612 L
318.25 162.612 L
318.496 162.592 L
318.5 162.592 L
318.5 162.592 L
318.75 162.574 L
318.75 162.574 L
318.757 162.574 L
318.99 162.562 L
319 162.562 L
319 162.563 L
319.25 162.551 L
319.25 162.551 L
319.25 162.551 L
319.253 162.551 L
319.5 162.536 L
319.5 162.536 L
319.75 162.516 L
319.75 162.515 L
319.998 162.494 L
320 162.494 L
320 162.494 L
320.249 162.473 L
320.25 162.473 L
320.25 162.473 L
320.251 162.473 L
320.5 162.451 L
320.5 162.451 L
320.749 162.431 L
320.75 162.431 L
320.75 162.431 L
320.995 162.417 L
321 162.417 L
321 162.417 L
321.249 162.401 L
321.25 162.401 L
321.25 162.401 L
321.251 162.401 L
321.496 162.384 L
321.5 162.384 L
321.5 162.384 L
321.746 162.363 L
321.75 162.363 L
321.75 162.363 L
321.75 162.363 L
321.998 162.346 L
322 162.346 L
322 162.346 L
322.002 162.346 L
322.25 162.329 L
322.25 162.329 L
322.25 162.329 L
322.498 162.316 L
322.5 162.316 L
322.5 162.316 L
322.747 162.311 L
322.75 162.312 L
322.75 162.312 L
322.779 162.311 L
322.999 162.32 L
323 162.319 L
323 162.319 L
323.001 162.319 L
323.249 162.344 L
323.25 162.344 L
323.25 162.344 L
323.5 162.38 L
323.5 162.38 L
323.75 162.419 L
323.75 162.419 L
324 162.464 L
324 162.464 L
324.25 162.504 L
324.25 162.504 L
324.5 162.544 L
324.5 162.544 L
324.75 162.585 L
324.75 162.586 L
325 162.63 L
325 162.63 L
325 162.63 L
325.25 162.677 L
325.25 162.677 L
325.5 162.727 L
325.5 162.727 L
325.75 162.779 L
325.75 162.779 L
325.75 162.779 L
326 162.829 L
326 162.829 L
326.25 162.874 L
326.25 162.874 L
326.251 162.874 L
326.5 162.911 L
326.5 162.911 L
326.5 162.911 L
326.75 162.94 L
326.75 162.94 L
327 162.967 L
327 162.967 L
327.25 162.992 L
327.25 162.992 L
327.251 162.992 L
327.5 163.016 L
327.5 163.016 L
327.75 163.048 L
327.75 163.048 L
327.999 163.081 L
328 163.081 L
328 163.081 L
328.25 163.112 L
328.25 163.112 L
328.25 163.112 L
328.5 163.141 L
328.5 163.141 L
328.5 163.141 L
328.75 163.166 L
328.75 163.166 L
328.751 163.166 L
329 163.191 L
329 163.191 L
329.248 163.208 L
329.25 163.208 L
329.25 163.208 L
329.5 163.23 L
329.5 163.23 L
329.5 163.23 L
329.501 163.23 L
329.749 163.253 L
329.75 163.253 L
329.75 163.253 L
329.751 163.253 L
330 163.279 L
330 163.279 L
330.249 163.302 L
330.25 163.302 L
330.25 163.302 L
330.499 163.318 L
330.5 163.318 L
330.5 163.318 L
330.749 163.336 L
330.75 163.336 L
330.75 163.336 L
331 163.352 L
331 163.352 L
331.25 163.363 L
331.25 163.363 L
331.5 163.376 L
331.5 163.376 L
331.749 163.385 L
331.75 163.385 L
331.75 163.385 L
332 163.4 L
332 163.4 L
332.247 163.416 L
332.25 163.416 L
332.25 163.416 L
332.25 163.415 L
332.5 163.429 L
332.5 163.429 L
332.75 163.447 L
332.75 163.447 L
332.999 163.463 L
333 163.463 L
333 163.463 L
333.002 163.463 L
333.248 163.481 L
333.25 163.481 L
333.25 163.481 L
333.25 163.481 L
333.5 163.501 L
333.5 163.501 L
333.749 163.525 L
333.75 163.525 L
333.75 163.525 L
333.75 163.525 L
333.998 163.553 L
334 163.553 L
334 163.553 L
334.249 163.576 L
334.25 163.576 L
334.25 163.576 L
334.499 163.597 L
334.5 163.597 L
334.5 163.597 L
334.501 163.597 L
334.75 163.614 L
334.75 163.614 L
335 163.629 L
335 163.629 L
335.001 163.629 L
335.249 163.643 L
335.25 163.643 L
335.25 163.643 L
335.5 163.657 L
335.5 163.657 L
335.75 163.671 L
335.75 163.671 L
335.756 163.671 L
336 163.684 L
336 163.684 L
336.245 163.697 L
336.25 163.697 L
336.25 163.697 L
336.253 163.697 L
336.492 163.707 L
336.5 163.707 L
336.5 163.707 L
336.5 163.706 L
336.745 163.714 L
336.75 163.714 L
336.75 163.714 L
336.756 163.714 L
336.999 163.717 L
337 163.717 L
337 163.717 L
337.055 163.718 L
337.25 163.713 L
337.25 163.713 L
337.25 163.713 L
337.251 163.713 L
337.5 163.704 L
337.5 163.704 L
337.5 163.704 L
337.75 163.697 L
337.75 163.697 L
337.75 163.697 L
337.996 163.689 L
338 163.689 L
338 163.689 L
338.004 163.689 L
338.25 163.679 L
338.25 163.679 L
338.25 163.679 L
338.252 163.679 L
338.497 163.672 L
338.5 163.672 L
338.5 163.672 L
338.506 163.672 L
338.75 163.664 L
338.75 163.664 L
338.75 163.664 L
338.997 163.657 L
339 163.657 L
339 163.657 L
339.001 163.657 L
339.25 163.649 L
339.25 163.649 L
339.252 163.649 L
339.5 163.638 L
339.5 163.638 L
339.749 163.626 L
339.75 163.626 L
339.75 163.626 L
339.75 163.626 L
340 163.611 L
340 163.611 L
340 163.611 L
340.002 163.611 L
340.25 163.592 L
340.25 163.592 L
340.496 163.577 L
340.5 163.577 L
340.5 163.577 L
340.75 163.568 L
340.75 163.568 L
340.753 163.568 L
340.998 163.563 L
341 163.563 L
341 163.563 L
341.001 163.563 L
341.248 163.557 L
341.25 163.557 L
341.25 163.557 L
341.253 163.558 L
341.472 163.553 L
341.5 163.554 L
341.5 163.554 L
341.63 163.555 L
341.748 163.552 L
341.75 163.552 L
341.75 163.552 L
341.772 163.552 L
341.99 163.546 L
342 163.546 L
342 163.546 L
342.001 163.546 L
342.246 163.537 L
342.25 163.537 L
342.25 163.537 L
342.493 163.526 L
342.5 163.527 L
342.5 163.526 L
342.746 163.511 L
342.75 163.511 L
342.75 163.511 L
342.75 163.511 L
343 163.499 L
343 163.5 L
343 163.499 L
343.006 163.5 L
343.249 163.489 L
343.25 163.489 L
343.25 163.489 L
343.253 163.489 L
343.497 163.478 L
343.5 163.479 L
343.5 163.479 L
343.749 163.472 L
343.75 163.472 L
343.75 163.472 L
344 163.467 L
344 163.467 L
344.238 163.463 L
344.25 163.463 L
344.25 163.463 L
344.461 163.459 L
344.5 163.46 L
344.5 163.46 L
344.5 163.46 L
344.744 163.456 L
344.75 163.457 L
344.75 163.456 L
344.752 163.457 L
344.994 163.453 L
345 163.453 L
345 163.453 L
345 163.453 L
345.248 163.446 L
345.25 163.447 L
345.25 163.447 L
345.26 163.447 L
345.499 163.442 L
345.5 163.442 L
345.5 163.442 L
345.511 163.442 L
345.75 163.433 L
345.75 163.433 L
346 163.422 L
346 163.422 L
346.005 163.422 L
346.25 163.408 L
346.25 163.408 L
346.25 163.408 L
346.251 163.408 L
346.5 163.39 L
346.5 163.39 L
346.749 163.37 L
346.75 163.371 L
346.75 163.371 L
347 163.347 L
347 163.347 L
347 163.347 L
347.25 163.319 L
347.25 163.319 L
347.251 163.319 L
347.5 163.287 L
347.5 163.287 L
347.5 163.287 L
347.75 163.254 L
347.75 163.254 L
348 163.225 L
348 163.225 L
348.25 163.198 L
348.25 163.198 L
348.251 163.198 L
348.498 163.175 L
348.5 163.175 L
348.5 163.175 L
348.748 163.155 L
348.75 163.155 L
348.75 163.155 L
348.996 163.136 L
349 163.136 L
349 163.136 L
349.006 163.136 L
349.25 163.122 L
349.25 163.122 L
349.5 163.11 L
349.5 163.11 L
349.749 163.105 L
349.75 163.105 L
349.75 163.105 L
349.999 163.101 L
350 163.101 L
350 163.101 L
350.249 163.107 L
350.25 163.107 L
350.25 163.107 L
350.497 163.118 L
350.5 163.118 L
350.5 163.118 L
350.743 163.133 L
350.75 163.133 L
350.75 163.132 L
351 163.147 L
351 163.147 L
351.249 163.162 L
351.25 163.162 L
351.25 163.162 L
351.251 163.161 L
351.5 163.17 L
351.5 163.17 L
351.5 163.17 L
351.501 163.17 L
351.748 163.177 L
351.75 163.177 L
351.75 163.177 L
351.992 163.187 L
352 163.186 L
352 163.186 L
352.001 163.186 L
352.246 163.198 L
352.25 163.198 L
352.25 163.198 L
352.499 163.209 L
352.5 163.209 L
352.5 163.209 L
352.502 163.209 L
352.749 163.227 L
352.75 163.227 L
352.75 163.227 L
352.751 163.227 L
352.998 163.244 L
353 163.244 L
353 163.244 L
353.003 163.244 L
353.25 163.26 L
353.25 163.26 L
353.5 163.276 L
353.5 163.276 L
353.5 163.276 L
353.749 163.284 L
353.75 163.284 L
353.75 163.284 L
353.998 163.294 L
354 163.294 L
354 163.294 L
354 163.294 L
354.25 163.307 L
354.25 163.307 L
354.25 163.307 L
354.25 163.307 L
354.5 163.323 L
354.5 163.323 L
354.748 163.34 L
354.75 163.34 L
354.75 163.34 L
355 163.358 L
355 163.358 L
355.25 163.369 L
355.25 163.369 L
355.25 163.369 L
355.496 163.381 L
355.5 163.381 L
355.5 163.381 L
355.502 163.381 L
355.75 163.394 L
355.75 163.394 L
355.995 163.405 L
356 163.405 L
356 163.405 L
356.247 163.414 L
356.25 163.414 L
356.25 163.414 L
356.253 163.414 L
356.498 163.424 L
356.5 163.424 L
356.5 163.424 L
356.75 163.431 L
356.75 163.431 L
356.75 163.431 L
356.753 163.431 L
356.999 163.436 L
357 163.435 L
357 163.435 L
357.246 163.444 L
357.25 163.444 L
357.25 163.444 L
357.484 163.452 L
357.5 163.452 L
357.5 163.452 L
357.5 163.452 L
357.692 163.454 L
357.75 163.453 L
357.75 163.453 L
357.751 163.453 L
357.999 163.45 L
358 163.451 L
358 163.451 L
358.248 163.453 L
358.25 163.453 L
358.25 163.453 L
358.252 163.453 L
358.497 163.457 L
358.5 163.457 L
358.5 163.457 L
358.513 163.457 L
358.748 163.463 L
358.75 163.463 L
358.75 163.463 L
358.981 163.468 L
359 163.468 L
359 163.468 L
359.015 163.468 L
359.249 163.474 L
359.25 163.474 L
359.25 163.474 L
359.258 163.474 L
359.497 163.483 L
359.5 163.483 L
359.5 163.483 L
359.501 163.483 L
359.75 163.492 L
359.75 163.492 L
359.75 163.492 L
359.999 163.512 L
360 163.512 L
360 163.511 L
360.249 163.538 L
360.25 163.538 L
360.25 163.538 L
360.251 163.538 L
360.5 163.567 L
360.5 163.567 L
360.75 163.592 L
360.75 163.592 L
360.75 163.592 L
360.999 163.621 L
361 163.621 L
361 163.621 L
361.246 163.649 L
361.25 163.649 L
361.25 163.649 L
361.25 163.649 L
361.5 163.675 L
361.5 163.674 L
361.5 163.675 L
361.75 163.699 L
361.75 163.699 L
361.75 163.699 L
362 163.724 L
362 163.724 L
362.25 163.746 L
362.25 163.746 L
362.5 163.766 L
362.5 163.766 L
362.749 163.784 L
362.75 163.784 L
362.75 163.784 L
362.998 163.798 L
363 163.798 L
363 163.798 L
363.008 163.798 L
363.136 163.802 L
363.25 163.8 L
363.25 163.8 L
363.5 163.776 L
363.5 163.776 L
363.75 163.708 L
363.75 163.708 L
364 163.582 L
364 163.582 L
364.25 163.38 L
364.25 163.38 L
364.5 163.063 L
364.5 163.063 L
364.75 162.593 L
364.75 162.592 L
365 161.893 L
365 161.892 L
365.25 160.879 L
365.25 160.878 L
365.5 159.449 L
365.5 159.448 L
365.75 157.515 L
365.75 157.513 L
366 155.044 L
366 155.042 L
366.25 152.078 L
366.25 152.075 L
366.5 148.74 L
366.5 148.737 L
366.75 145.17 L
366.75 145.167 L
367 141.475 L
367 141.472 L
367.25 137.748 L
367.25 137.745 L
367.5 134.036 L
367.5 134.032 L
367.75 130.391 L
367.75 130.388 L
368 126.854 L
368 126.851 L
368.25 123.487 L
368.25 123.484 L
368.5 120.37 L
368.5 120.367 L
368.75 117.588 L
368.75 117.586 L
369 115.249 L
369 115.247 L
369.25 113.43 L
369.25 113.428 L
369.5 112.139 L
369.5 112.138 L
369.75 111.311 L
369.75 111.31 L
370 110.815 L
370 110.815 L
370.25 110.528 L
370.25 110.527 L
370.5 110.37 L
370.5 110.369 L
370.75 110.279 L
370.75 110.279 L
371 110.226 L
371 110.226 L
371.25 110.197 L
371.25 110.197 L
371.498 110.183 L
371.5 110.183 L
371.5 110.183 L
371.653 110.182 L
371.75 110.185 L
371.75 110.185 L
371.75 110.185 L
371.75 110.184 L
371.994 110.194 L
372 110.193 L
372 110.193 L
372.25 110.215 L
372.25 110.215 L
372.25 110.215 L
372.5 110.248 L
372.5 110.248 L
372.75 110.294 L
372.75 110.294 L
373 110.352 L
373 110.352 L
373.25 110.419 L
373.25 110.42 L
373.5 110.498 L
373.5 110.498 L
373.75 110.585 L
373.75 110.585 L
374 110.679 L
374 110.679 L
374.25 110.78 L
374.25 110.78 L
374.5 110.892 L
374.5 110.892 L
374.75 111.014 L
374.75 111.014 L
375 111.146 L
375 111.147 L
375.25 111.299 L
375.25 111.299 L
375.5 111.481 L
375.5 111.482 L
375.75 111.699 L
375.75 111.699 L
376 111.968 L
376 111.968 L
376.25 112.313 L
376.25 112.313 L
376.5 112.774 L
376.5 112.775 L
376.75 113.403 L
376.75 113.404 L
377 114.284 L
377 114.285 L
377.25 115.569 L
377.25 115.57 L
377.5 117.374 L
377.5 117.376 L
377.75 119.584 L
377.75 119.587 L
378 121.97 L
378 121.973 L
378.25 124.402 L
378.25 124.405 L
378.5 126.813 L
378.5 126.816 L
378.75 129.228 L
378.75 129.23 L
379 131.666 L
379 131.668 L
379.25 134.12 L
379.25 134.122 L
379.5 136.55 L
379.5 136.552 L
379.75 138.924 L
379.75 138.926 L
380 141.195 L
380 141.197 L
380.25 143.323 L
380.25 143.325 L
380.5 145.18 L
380.5 145.182 L
380.75 146.562 L
380.75 146.563 L
381 147.43 L
381 147.431 L
381.25 147.95 L
381.25 147.95 L
381.5 148.332 L
381.5 148.332 L
381.75 148.705 L
381.75 148.706 L
382 149.092 L
382 149.093 L
382.25 149.456 L
382.25 149.456 L
382.5 149.766 L
382.5 149.766 L
382.75 150.047 L
382.75 150.048 L
383 150.323 L
383 150.323 L
383.25 150.593 L
383.25 150.594 L
383.5 150.837 L
383.5 150.837 L
383.75 151.052 L
383.75 151.052 L
384 151.273 L
384 151.273 L
384.25 151.523 L
384.25 151.524 L
384.5 151.785 L
384.5 151.785 L
384.75 152.067 L
384.75 152.068 L
385 152.36 L
385 152.36 L
385.25 152.643 L
385.25 152.643 L
385.5 152.916 L
385.5 152.916 L
385.75 153.179 L
385.75 153.179 L
386 153.421 L
386 153.421 L
386.25 153.628 L
386.25 153.628 L
386.5 153.798 L
386.5 153.799 L
386.75 153.946 L
386.75 153.946 L
387 154.077 L
387 154.077 L
387.25 154.187 L
387.25 154.187 L
387.5 154.281 L
387.5 154.282 L
387.75 154.362 L
387.75 154.362 L
388 154.427 L
388 154.427 L
388.25 154.479 L
388.25 154.479 L
388.25 154.479 L
388.251 154.479 L
388.497 154.513 L
388.5 154.513 L
388.5 154.513 L
388.748 154.531 L
388.75 154.531 L
388.75 154.531 L
388.998 154.546 L
389 154.546 L
389 154.546 L
389.25 154.554 L
389.25 154.554 L
389.251 154.554 L
389.496 154.564 L
389.5 154.564 L
389.5 154.564 L
389.75 154.576 L
389.75 154.576 L
389.75 154.576 L
390 154.593 L
390 154.593 L
390.25 154.612 L
390.25 154.612 L
390.5 154.633 L
390.5 154.633 L
390.75 154.657 L
390.75 154.657 L
391 154.679 L
391 154.679 L
391 154.679 L
391.25 154.698 L
391.25 154.698 L
391.498 154.715 L
391.5 154.715 L
391.5 154.715 L
391.503 154.715 L
391.748 154.725 L
391.75 154.725 L
391.75 154.725 L
391.997 154.731 L
392 154.73 L
392 154.73 L
392 154.73 L
392.244 154.737 L
392.25 154.737 L
392.25 154.737 L
392.5 154.747 L
392.5 154.747 L
392.502 154.747 L
392.749 154.762 L
392.75 154.762 L
392.75 154.762 L
392.752 154.762 L
393 154.783 L
393 154.783 L
393.25 154.817 L
393.25 154.817 L
393.499 154.856 L
393.5 154.856 L
393.5 154.856 L
393.75 154.902 L
393.75 154.902 L
394 154.949 L
394 154.949 L
394.25 154.996 L
394.25 154.996 L
394.5 155.041 L
394.5 155.041 L
394.749 155.084 L
394.75 155.084 L
394.75 155.084 L
395 155.125 L
395 155.126 L
395.25 155.168 L
395.25 155.168 L
395.25 155.168 L
395.5 155.212 L
395.5 155.212 L
395.5 155.212 L
395.75 155.25 L
395.75 155.25 L
396 155.281 L
396 155.281 L
396.25 155.307 L
396.25 155.307 L
396.252 155.307 L
396.498 155.318 L
396.5 155.318 L
396.5 155.318 L
396.625 155.321 L
396.742 155.318 L
396.75 155.318 L
396.75 155.318 L
397 155.307 L
397 155.307 L
397.249 155.285 L
397.25 155.285 L
397.25 155.285 L
397.499 155.257 L
397.5 155.257 L
397.5 155.257 L
397.75 155.23 L
397.75 155.23 L
398 155.203 L
398 155.203 L
398.001 155.203 L
398.25 155.173 L
398.25 155.173 L
398.5 155.144 L
398.5 155.144 L
398.5 155.144 L
398.75 155.112 L
398.75 155.112 L
398.999 155.082 L
399 155.082 L
399 155.082 L
399.25 155.054 L
399.25 155.054 L
399.25 155.054 L
399.5 155.03 L
399.5 155.03 L
399.75 155.004 L
399.75 155.004 L
400 154.982 L
400 154.982 L
400 154.982 L
400.249 154.956 L
400.25 154.956 L
400.25 154.956 L
400.25 154.956 L
400.5 154.929 L
400.5 154.929 L
400.5 154.929 L
400.75 154.9 L
400.75 154.9 L
400.751 154.9 L
401 154.868 L
401 154.868 L
401.25 154.834 L
401.25 154.834 L
401.5 154.801 L
401.5 154.801 L
401.5 154.801 L
401.75 154.768 L
401.75 154.768 L
401.998 154.737 L
402 154.737 L
402 154.737 L
402.249 154.704 L
402.25 154.704 L
402.25 154.704 L
402.5 154.674 L
402.5 154.674 L
402.5 154.674 L
402.749 154.65 L
402.75 154.65 L
402.75 154.65 L
402.999 154.622 L
403 154.622 L
403 154.622 L
403.25 154.599 L
403.25 154.599 L
403.5 154.578 L
403.5 154.578 L
403.75 154.557 L
403.75 154.557 L
403.75 154.557 L
403.75 154.557 L
403.998 154.535 L
404 154.535 L
404 154.535 L
404.249 154.514 L
404.25 154.514 L
404.25 154.514 L
404.499 154.491 L
404.5 154.491 L
404.5 154.491 L
404.501 154.491 L
404.75 154.471 L
404.75 154.471 L
404.75 154.471 L
404.751 154.471 L
404.999 154.453 L
405 154.453 L
405 154.453 L
405.005 154.453 L
405.249 154.439 L
405.25 154.439 L
405.25 154.439 L
405.25 154.439 L
405.499 154.429 L
405.5 154.429 L
405.5 154.429 L
405.533 154.429 L
405.749 154.423 L
405.75 154.423 L
405.75 154.423 L
405.999 154.409 L
406 154.409 L
406 154.409 L
406.001 154.409 L
406.248 154.393 L
406.25 154.393 L
406.25 154.393 L
406.251 154.393 L
406.5 154.378 L
406.5 154.378 L
406.747 154.365 L
406.75 154.366 L
406.75 154.366 L
406.973 154.362 L
407 154.362 L
407 154.362 L
407.003 154.362 L
407.242 154.364 L
407.25 154.364 L
407.25 154.364 L
407.254 154.363 L
407.5 154.37 L
407.5 154.37 L
407.5 154.37 L
407.5 154.37 L
407.748 154.382 L
407.75 154.382 L
407.75 154.382 L
407.998 154.392 L
408 154.392 L
408 154.392 L
408.001 154.391 L
408.247 154.401 L
408.25 154.401 L
408.25 154.401 L
408.252 154.401 L
408.452 154.407 L
408.5 154.407 L
408.5 154.407 L
408.5 154.407 L
408.712 154.411 L
408.75 154.41 L
408.75 154.41 L
408.753 154.41 L
408.977 154.407 L
409 154.408 L
409 154.408 L
409.247 154.412 L
409.25 154.412 L
409.25 154.412 L
409.497 154.418 L
409.5 154.417 L
409.5 154.418 L
409.502 154.417 L
409.75 154.427 L
409.75 154.427 L
409.998 154.433 L
410 154.433 L
410 154.433 L
410.005 154.433 L
410.249 154.438 L
410.25 154.438 L
410.25 154.438 L
410.27 154.439 L
410.496 154.437 L
410.5 154.437 L
410.5 154.437 L
410.5 154.437 L
410.592 154.435 L
410.75 154.436 L
410.75 154.436 L
410.756 154.436 L
410.995 154.432 L
411 154.432 L
411 154.432 L
411.001 154.432 L
411.216 154.427 L
411.25 154.427 L
411.25 154.427 L
411.309 154.428 L
411.495 154.424 L
411.5 154.424 L
411.5 154.424 L
411.501 154.424 L
411.75 154.422 L
411.75 154.422 L
411.993 154.416 L
412 154.416 L
412 154.416 L
412.004 154.416 L
412.145 154.414 L
412.25 154.416 L
412.25 154.415 L
412.253 154.416 L
412.476 154.411 L
412.5 154.411 L
412.5 154.411 L
412.516 154.412 L
412.723 154.406 L
412.75 154.407 L
412.75 154.407 L
412.769 154.408 L
412.98 154.404 L
413 154.404 L
413 154.404 L
413.051 154.404 L
413.235 154.399 L
413.25 154.399 L
413.25 154.4 L
413.32 154.399 L
413.498 154.4 L
413.5 154.4 L
413.5 154.4 L
413.747 154.396 L
413.75 154.397 L
413.75 154.397 L
413.784 154.395 L
413.938 154.398 L
414 154.397 L
414 154.397 L
414.001 154.397 L
414.247 154.391 L
414.25 154.391 L
414.25 154.391 L
414.25 154.391 L
414.391 154.389 L
414.5 154.39 L
414.5 154.39 L
414.75 154.386 L
414.75 154.386 L
414.94 154.381 L
415 154.382 L
415 154.382 L
415.247 154.374 L
415.25 154.374 L
415.25 154.375 L
415.252 154.375 L
415.495 154.371 L
415.5 154.371 L
415.5 154.371 L
415.501 154.371 L
415.75 154.364 L
415.75 154.364 L
415.995 154.353 L
416 154.353 L
416 154.353 L
416.015 154.353 L
416.25 154.337 L
416.25 154.337 L
416.499 154.321 L
416.5 154.321 L
416.5 154.321 L
416.75 154.306 L
416.75 154.306 L
416.997 154.287 L
417 154.287 L
417 154.287 L
417.001 154.288 L
417.25 154.275 L
417.25 154.275 L
417.25 154.275 L
417.5 154.263 L
417.5 154.263 L
417.5 154.263 L
417.505 154.263 L
417.75 154.254 L
417.75 154.254 L
417.761 154.254 L
417.99 154.245 L
418 154.245 L
418 154.245 L
418.001 154.245 L
418.249 154.237 L
418.25 154.237 L
418.25 154.237 L
418.459 154.231 L
418.5 154.231 L
418.5 154.231 L
418.502 154.231 L
418.71 154.229 L
418.75 154.229 L
418.75 154.229 L
418.767 154.23 L
418.905 154.227 L
419 154.228 L
419 154.228 L
419.03 154.227 L
419.219 154.23 L
419.25 154.229 L
419.25 154.229 L
419.25 154.229 L
419.493 154.234 L
419.5 154.234 L
419.5 154.234 L
419.519 154.233 L
419.748 154.239 L
419.75 154.239 L
419.75 154.239 L
419.751 154.239 L
419.858 154.242 L
420 154.241 L
420 154.241 L
420.023 154.241 L
420.206 154.244 L
420.25 154.244 L
420.25 154.244 L
420.402 154.245 L
420.5 154.244 L
420.5 154.244 L
420.502 154.244 L
420.75 154.242 L
420.75 154.242 L
420.752 154.242 L
420.947 154.236 L
421 154.237 L
421 154.237 L
421.095 154.236 L
421.18 154.238 L
421.25 154.237 L
421.25 154.237 L
421.492 154.241 L
421.5 154.241 L
421.5 154.241 L
421.512 154.24 L
421.742 154.244 L
421.75 154.244 L
421.75 154.244 L
421.752 154.244 L
421.992 154.248 L
422 154.247 L
422 154.247 L
422.009 154.247 L
422.156 154.25 L
422.25 154.249 L
422.25 154.249 L
422.282 154.25 L
422.5 154.246 L
422.5 154.246 L
422.5 154.246 L
422.75 154.239 L
422.75 154.239 L
422.75 154.239 L
422.751 154.24 L
422.999 154.234 L
423 154.234 L
423 154.234 L
423.003 154.235 L
423.246 154.23 L
423.25 154.23 L
423.25 154.23 L
423.474 154.227 L
423.5 154.227 L
423.5 154.227 L
423.59 154.228 L
423.748 154.224 L
423.75 154.225 L
423.75 154.224 L
423.78 154.225 L
423.982 154.221 L
424 154.221 L
424 154.221 L
424.006 154.221 L
424.228 154.219 L
424.25 154.219 L
424.25 154.219 L
424.343 154.221 L
424.475 154.217 L
424.5 154.218 L
424.5 154.218 L
424.501 154.218 L
424.737 154.211 L
424.75 154.211 L
424.75 154.211 L
424.999 154.208 L
425 154.208 L
425 154.209 L
425.048 154.208 L
425.158 154.21 L
425.25 154.208 L
425.25 154.208 L
425.272 154.208 L
425.488 154.213 L
425.5 154.213 L
425.5 154.213 L
425.501 154.213 L
425.749 154.219 L
425.75 154.219 L
425.75 154.219 L
426 154.229 L
426 154.229 L
426 154.23 L
426.25 154.244 L
426.25 154.244 L
426.499 154.258 L
426.5 154.258 L
426.5 154.258 L
426.501 154.258 L
426.75 154.274 L
426.75 154.274 L
426.751 154.274 L
427 154.29 L
427 154.29 L
427 154.29 L
427.25 154.31 L
427.25 154.309 L
427.25 154.31 L
427.5 154.328 L
427.5 154.328 L
427.75 154.344 L
427.75 154.344 L
427.999 154.36 L
428 154.36 L
428 154.36 L
428.247 154.372 L
428.25 154.372 L
428.25 154.372 L
428.495 154.382 L
428.5 154.382 L
428.5 154.382 L
428.502 154.382 L
428.749 154.389 L
428.75 154.389 L
428.75 154.389 L
428.754 154.389 L
428.999 154.398 L
429 154.398 L
429 154.398 L
429.005 154.398 L
429.249 154.405 L
429.25 154.405 L
429.25 154.405 L
429.251 154.405 L
429.486 154.412 L
429.5 154.411 L
429.5 154.411 L
429.712 154.418 L
429.75 154.418 L
429.75 154.418 L
429.978 154.419 L
430 154.419 L
430 154.419 L
430.073 154.419 L
430.248 154.415 L
430.25 154.415 L
430.25 154.415 L
430.263 154.415 L
430.5 154.41 L
430.5 154.41 L
430.506 154.41 L
430.741 154.406 L
430.75 154.406 L
430.75 154.406 L
430.935 154.402 L
431 154.403 L
431 154.402 L
431.046 154.403 L
431.249 154.4 L
431.25 154.4 L
431.25 154.4 L
431.373 154.401 L
431.456 154.399 L
431.5 154.4 L
431.5 154.399 L
431.521 154.399 L
431.746 154.403 L
431.75 154.403 L
431.75 154.403 L
431.753 154.402 L
431.888 154.404 L
432 154.403 L
432 154.403 L
432.169 154.404 L
432.25 154.402 L
432.25 154.402 L
432.36 154.403 L
432.496 154.401 L
432.5 154.401 L
432.5 154.401 L
432.535 154.402 L
432.725 154.401 L
432.75 154.401 L
432.75 154.401 L
432.758 154.401 L
432.99 154.403 L
433 154.403 L
433 154.403 L
433.128 154.401 L
433.245 154.403 L
433.25 154.403 L
433.25 154.403 L
433.252 154.402 L
433.472 154.405 L
433.5 154.405 L
433.5 154.405 L
433.744 154.41 L
433.75 154.41 L
433.75 154.41 L
433.993 154.414 L
434 154.414 L
434 154.414 L
434.009 154.414 L
434.234 154.417 L
434.25 154.416 L
434.25 154.416 L
434.27 154.416 L
434.48 154.419 L
434.5 154.419 L
434.5 154.419 L
434.512 154.419 L
434.744 154.425 L
434.75 154.424 L
434.75 154.424 L
434.987 154.432 L
435 154.431 L
435 154.431 L
435.003 154.431 L
435.241 154.436 L
435.25 154.435 L
435.25 154.436 L
435.251 154.435 L
435.42 154.44 L
435.5 154.439 L
435.5 154.439 L
435.695 154.442 L
435.75 154.441 L
435.75 154.441 L
435.759 154.442 L
435.953 154.438 L
436 154.439 L
436 154.439 L
436.036 154.439 L
436.21 154.437 L
436.25 154.437 L
436.25 154.437 L
436.261 154.437 L
436.417 154.434 L
436.5 154.434 L
436.5 154.434 L
436.503 154.435 L
436.738 154.431 L
436.75 154.431 L
436.75 154.431 L
436.771 154.43 L
436.88 154.432 L
437 154.431 L
437 154.431 L
437.073 154.43 L
437.25 154.432 L
437.25 154.432 L
437.267 154.431 L
437.496 154.439 L
437.5 154.439 L
437.5 154.439 L
437.5 154.439 L
437.744 154.448 L
437.75 154.448 L
437.75 154.448 L
437.75 154.448 L
437.995 154.457 L
438 154.456 L
438 154.456 L
438.001 154.456 L
438.249 154.466 L
438.25 154.466 L
438.25 154.466 L
438.25 154.466 L
438.49 154.472 L
438.5 154.472 L
438.5 154.472 L
438.726 154.474 L
438.75 154.473 L
438.75 154.473 L
438.97 154.478 L
439 154.477 L
439 154.477 L
439.249 154.483 L
439.25 154.483 L
439.25 154.483 L
439.254 154.483 L
439.499 154.494 L
439.5 154.494 L
439.5 154.494 L
439.75 154.503 L
439.75 154.503 L
439.75 154.503 L
439.75 154.503 L
439.994 154.516 L
440 154.516 L
440 154.516 L
440.001 154.516 L
440.248 154.526 L
440.25 154.526 L
440.25 154.526 L
440.5 154.535 L
440.5 154.535 L
440.5 154.535 L
440.586 154.534 L
440.748 154.536 L
440.75 154.536 L
440.75 154.536 L
440.767 154.536 L
440.997 154.531 L
441 154.531 L
441 154.531 L
441.084 154.532 L
441.233 154.527 L
441.25 154.528 L
441.25 154.528 L
441.262 154.528 L
441.499 154.522 L
441.5 154.522 L
441.5 154.522 L
441.533 154.522 L
441.748 154.516 L
441.75 154.516 L
441.75 154.516 L
441.77 154.516 L
441.99 154.519 L
442 154.518 L
442 154.518 L
442.001 154.518 L
442.14 154.52 L
442.25 154.52 L
442.25 154.52 L
442.251 154.52 L
442.448 154.517 L
442.5 154.518 L
442.5 154.518 L
442.501 154.518 L
442.747 154.512 L
442.75 154.512 L
442.75 154.512 L
442.774 154.512 L
442.999 154.507 L
443 154.507 L
443 154.507 L
443.107 154.507 L
443.244 154.501 L
443.25 154.501 L
443.25 154.501 L
443.251 154.501 L
443.485 154.498 L
443.5 154.498 L
443.5 154.498 L
443.608 154.497 L
443.739 154.498 L
443.75 154.498 L
443.75 154.498 L
443.754 154.498 L
444 154.502 L
444 154.502 L
444 154.502 L
444.25 154.511 L
444.25 154.511 L
444.25 154.511 L
444.251 154.511 L
444.471 154.517 L
444.5 154.516 L
444.5 154.516 L
444.509 154.516 L
444.736 154.519 L
444.75 154.519 L
444.75 154.519 L
444.875 154.519 L
444.981 154.517 L
445 154.518 L
445 154.518 L
445.026 154.518 L
445.249 154.513 L
445.25 154.513 L
445.25 154.513 L
445.254 154.513 L
445.398 154.51 L
445.5 154.51 L
445.5 154.51 L
445.522 154.51 L
445.646 154.508 L
445.75 154.51 L
445.75 154.51 L
445.756 154.51 L
445.997 154.514 L
446 154.514 L
446 154.514 L
446.09 154.513 L
446.248 154.518 L
446.25 154.518 L
446.25 154.518 L
446.474 154.525 L
446.5 154.525 L
446.5 154.525 L
446.518 154.525 L
446.744 154.53 L
446.75 154.53 L
446.75 154.53 L
446.751 154.53 L
446.823 154.531 L
447 154.531 L
447 154.531 L
447.032 154.531 L
447.229 154.529 L
447.25 154.53 L
447.25 154.53 L
447.348 154.53 L
447.472 154.528 L
447.5 154.529 L
447.5 154.529 L
447.586 154.527 L
447.75 154.531 L
447.75 154.531 L
447.761 154.531 L
447.998 154.543 L
448 154.543 L
448 154.543 L
448.25 154.562 L
448.25 154.562 L
448.25 154.562 L
448.5 154.585 L
448.5 154.585 L
448.5 154.585 L
448.75 154.613 L
448.75 154.613 L
448.751 154.613 L
449 154.642 L
449 154.642 L
449 154.642 L
449.25 154.675 L
449.25 154.675 L
449.25 154.675 L
449.5 154.703 L
449.5 154.703 L
449.749 154.726 L
449.75 154.726 L
449.75 154.726 L
449.75 154.726 L
450 154.747 L
450 154.747 L
450.001 154.747 L
450.25 154.76 L
450.25 154.76 L
450.368 154.764 L
450.5 154.762 L
450.5 154.762 L
450.5 154.762 L
450.75 154.73 L
450.75 154.73 L
451 154.64 L
451 154.64 L
451.25 154.474 L
451.25 154.473 L
451.5 154.216 L
451.5 154.216 L
451.75 153.844 L
451.75 153.843 L
452 153.289 L
452 153.288 L
452.25 152.422 L
452.25 152.421 L
452.5 151.072 L
452.5 151.071 L
452.75 149.101 L
452.75 149.099 L
453 146.569 L
453 146.566 L
453.25 143.609 L
453.25 143.606 L
453.5 140.436 L
453.5 140.433 L
453.75 137.194 L
453.75 137.191 L
454 133.963 L
454 133.96 L
454.25 130.781 L
454.25 130.778 L
454.5 127.684 L
454.5 127.681 L
454.75 124.69 L
454.75 124.687 L
455 121.8 L
455 121.797 L
455.25 119.056 L
455.25 119.054 L
455.5 116.529 L
455.5 116.526 L
455.75 114.362 L
455.75 114.36 L
456 112.715 L
456 112.714 L
456.25 111.686 L
456.25 111.685 L
456.5 111.176 L
456.5 111.175 L
456.75 111.027 L
456.75 111.027 L
456.804 111.024 L
457 111.044 L
457 111.044 L
457.25 111.109 L
457.25 111.109 L
457.5 111.178 L
457.5 111.178 L
457.75 111.24 L
457.75 111.24 L
458 111.292 L
458 111.292 L
458 111.292 L
458.25 111.33 L
458.25 111.33 L
458.499 111.356 L
458.5 111.356 L
458.5 111.356 L
458.715 111.362 L
458.75 111.362 L
458.75 111.362 L
458.764 111.363 L
458.999 111.356 L
459 111.356 L
459 111.356 L
459.25 111.336 L
459.25 111.336 L
459.25 111.336 L
459.25 111.336 L
459.5 111.307 L
459.5 111.307 L
459.5 111.306 L
459.75 111.27 L
459.75 111.27 L
460 111.218 L
460 111.218 L
460.25 111.142 L
460.25 111.142 L
460.5 111.043 L
460.5 111.043 L
460.75 110.916 L
460.75 110.916 L
461 110.764 L
461 110.764 L
461.25 110.577 L
461.25 110.576 L
461.5 110.363 L
461.5 110.363 L
461.75 110.134 L
461.75 110.133 L
462 109.905 L
462 109.904 L
462.25 109.691 L
462.25 109.691 L
462.5 109.508 L
462.5 109.507 L
462.75 109.36 L
462.75 109.36 L
463 109.257 L
463 109.257 L
463.25 109.206 L
463.25 109.206 L
463.363 109.201 L
463.499 109.212 L
463.5 109.212 L
463.5 109.212 L
463.75 109.275 L
463.75 109.275 L
464 109.391 L
464 109.391 L
464.25 109.565 L
464.25 109.565 L
464.5 109.792 L
464.5 109.792 L
464.75 110.075 L
464.75 110.075 L
465 110.399 L
465 110.399 L
465.25 110.758 L
465.25 110.758 L
465.5 111.144 L
465.5 111.145 L
465.75 111.539 L
465.75 111.54 L
466 111.936 L
466 111.937 L
466.25 112.328 L
466.25 112.329 L
466.5 112.71 L
466.5 112.71 L
466.75 113.071 L
466.75 113.071 L
467 113.408 L
467 113.408 L
467.25 113.726 L
467.25 113.726 L
467.5 114.018 L
467.5 114.018 L
467.75 114.282 L
467.75 114.282 L
468 114.512 L
468 114.513 L
468.25 114.71 L
468.25 114.71 L
468.5 114.876 L
468.5 114.876 L
468.75 115.007 L
468.75 115.007 L
469 115.096 L
469 115.097 L
469.25 115.157 L
469.25 115.157 L
469.25 115.157 L
469.499 115.192 L
469.5 115.192 L
469.5 115.192 L
469.705 115.202 L
469.75 115.201 L
469.75 115.201 L
469.762 115.202 L
470 115.19 L
470 115.19 L
470.25 115.161 L
470.25 115.161 L
470.25 115.161 L
470.5 115.115 L
470.5 115.115 L
470.75 115.054 L
470.75 115.054 L
471 114.982 L
471 114.982 L
471.25 114.906 L
471.25 114.905 L
471.5 114.826 L
471.5 114.825 L
471.75 114.739 L
471.75 114.739 L
472 114.65 L
472 114.65 L
472.25 114.563 L
472.25 114.563 L
472.5 114.484 L
472.5 114.484 L
472.75 114.409 L
472.75 114.409 L
473 114.337 L
473 114.337 L
473.25 114.27 L
473.25 114.27 L
473.5 114.209 L
473.5 114.209 L
473.75 114.152 L
473.75 114.152 L
473.75 114.152 L
474 114.103 L
474 114.103 L
474.25 114.064 L
474.25 114.064 L
474.25 114.064 L
474.5 114.033 L
474.5 114.033 L
474.5 114.033 L
474.501 114.033 L
474.749 114.004 L
474.75 114.004 L
474.75 114.004 L
475 113.975 L
475 113.975 L
475.001 113.975 L
475.249 113.953 L
475.25 113.953 L
475.25 113.953 L
475.5 113.937 L
475.5 113.937 L
475.511 113.938 L
475.747 113.928 L
475.75 113.928 L
475.75 113.928 L
475.993 113.921 L
476 113.921 L
476 113.921 L
476.213 113.916 L
476.25 113.916 L
476.25 113.916 L
476.259 113.916 L
476.457 113.912 L
476.5 113.913 L
476.5 113.913 L
476.525 113.912 L
476.744 113.915 L
476.75 113.914 L
476.75 113.914 L
476.756 113.914 L
476.999 113.918 L
477 113.918 L
477 113.918 L
477.004 113.918 L
477.249 113.925 L
477.25 113.925 L
477.25 113.925 L
477.49 113.932 L
477.5 113.932 L
477.5 113.932 L
477.746 113.943 L
477.75 113.943 L
477.75 113.943 L
477.751 113.943 L
477.997 113.952 L
478 113.952 L
478 113.952 L
478.246 113.958 L
478.25 113.958 L
478.25 113.958 L
478.494 113.968 L
478.5 113.968 L
478.5 113.968 L
478.742 113.98 L
478.75 113.979 L
478.75 113.979 L
478.765 113.979 L
478.999 113.986 L
479 113.986 L
479 113.986 L
479.217 113.992 L
479.25 113.992 L
479.25 113.992 L
479.25 113.992 L
479.481 113.996 L
479.5 113.996 L
479.5 113.996 L
479.547 113.995 L
479.726 113.997 L
479.75 113.996 L
479.75 113.996 L
479.761 113.996 L
479.914 113.998 L
480 113.998 L
480 113.998 L
480.142 113.997 L
480.242 113.998 L
480.25 113.997 L
480.25 113.997 L
480.347 113.998 L
480.461 113.997 L
480.5 113.997 L
480.5 113.997 L
480.544 113.998 L
480.75 113.992 L
480.75 113.992 L
480.754 113.992 L
481 113.984 L
481 113.984 L
481 113.984 L
481.249 113.969 L
481.25 113.969 L
481.25 113.969 L
481.5 113.952 L
481.5 113.951 L
481.501 113.952 L
481.75 113.935 L
481.75 113.935 L
481.75 113.935 L
481.999 113.917 L
482 113.917 L
482 113.917 L
482.249 113.899 L
482.25 113.899 L
482.25 113.899 L
482.5 113.873 L
482.5 113.873 L
482.75 113.851 L
482.75 113.851 L
482.75 113.851 L
483 113.824 L
483 113.824 L
483 113.824 L
483.25 113.796 L
483.25 113.796 L
483.5 113.764 L
483.5 113.763 L
483.75 113.727 L
483.75 113.727 L
483.75 113.727 L
483.999 113.69 L
484 113.69 L
484 113.69 L
484.25 113.655 L
484.25 113.655 L
484.25 113.655 L
484.5 113.619 L
484.5 113.619 L
484.5 113.619 L
484.75 113.589 L
484.75 113.589 L
484.999 113.559 L
485 113.56 L
485 113.56 L
485.001 113.56 L
485.25 113.528 L
485.25 113.528 L
485.5 113.495 L
485.5 113.495 L
485.75 113.465 L
485.75 113.465 L
486 113.439 L
486 113.439 L
486 113.439 L
486.25 113.416 L
486.25 113.416 L
486.25 113.416 L
486.499 113.393 L
486.5 113.393 L
486.5 113.393 L
486.5 113.393 L
486.749 113.374 L
486.75 113.374 L
486.75 113.374 L
486.999 113.356 L
487 113.356 L
487 113.356 L
487.001 113.356 L
487.25 113.342 L
487.25 113.342 L
487.25 113.342 L
487.251 113.342 L
487.498 113.333 L
487.5 113.333 L
487.5 113.333 L
487.749 113.324 L
487.75 113.324 L
487.75 113.324 L
487.752 113.324 L
487.994 113.32 L
488 113.32 L
488 113.32 L
488.001 113.32 L
488.249 113.312 L
488.25 113.312 L
488.25 113.313 L
488.416 113.309 L
488.5 113.309 L
488.5 113.309 L
488.506 113.309 L
488.738 113.305 L
488.75 113.305 L
488.75 113.305 L
488.761 113.305 L
488.997 113.303 L
489 113.304 L
489 113.304 L
489.249 113.3 L
489.25 113.3 L
489.25 113.3 L
489.491 113.296 L
489.5 113.296 L
489.5 113.296 L
489.501 113.296 L
489.729 113.29 L
489.75 113.291 L
489.75 113.291 L
489.855 113.292 L
489.988 113.289 L
490 113.289 L
490 113.289 L
490.001 113.29 L
490.06 113.288 L
490.25 113.288 L
490.25 113.288 L
490.291 113.289 L
490.5 113.287 L
490.5 113.287 L
490.5 113.287 L
490.736 113.284 L
490.75 113.285 L
490.75 113.284 L
490.752 113.285 L
490.955 113.282 L
491 113.282 L
491 113.282 L
491.245 113.278 L
491.25 113.278 L
491.25 113.278 L
491.265 113.278 L
491.492 113.272 L
491.5 113.273 L
491.5 113.273 L
491.519 113.273 L
491.747 113.269 L
491.75 113.269 L
491.75 113.269 L
491.753 113.269 L
491.994 113.264 L
492 113.264 L
492 113.264 L
492.016 113.264 L
492.247 113.258 L
492.25 113.258 L
492.25 113.258 L
492.478 113.256 L
492.5 113.256 L
492.5 113.256 L
492.54 113.256 L
492.699 113.253 L
492.75 113.253 L
492.75 113.253 L
492.751 113.253 L
492.89 113.251 L
493 113.252 L
493 113.252 L
493.017 113.252 L
493.25 113.248 L
493.25 113.248 L
493.25 113.248 L
493.463 113.245 L
493.5 113.245 L
493.5 113.245 L
493.5 113.245 L
493.736 113.239 L
493.75 113.239 L
493.75 113.239 L
493.751 113.239 L
493.998 113.233 L
494 113.233 L
494 113.233 L
494.244 113.225 L
494.25 113.225 L
494.25 113.225 L
494.254 113.225 L
494.497 113.218 L
494.5 113.218 L
494.5 113.218 L
494.506 113.218 L
494.748 113.209 L
494.75 113.209 L
494.75 113.209 L
494.755 113.21 L
494.998 113.202 L
495 113.202 L
495 113.202 L
495.246 113.194 L
495.25 113.194 L
495.25 113.194 L
495.499 113.182 L
495.5 113.182 L
495.5 113.182 L
495.504 113.182 L
495.75 113.171 L
495.75 113.171 L
495.999 113.159 L
496 113.159 L
496 113.159 L
496.007 113.159 L
496.249 113.147 L
496.25 113.147 L
496.25 113.147 L
496.25 113.147 L
496.5 113.132 L
496.5 113.132 L
496.503 113.132 L
496.75 113.113 L
496.75 113.112 L
496.999 113.096 L
497 113.096 L
497 113.096 L
497.249 113.079 L
497.25 113.079 L
497.25 113.079 L
497.5 113.063 L
497.5 113.063 L
497.5 113.063 L
497.75 113.045 L
497.75 113.045 L
497.75 113.045 L
498 113.026 L
498 113.026 L
498 113.026 L
498.25 113.006 L
498.25 113.006 L
498.499 112.988 L
498.5 112.988 L
498.5 112.988 L
498.749 112.967 L
498.75 112.967 L
498.75 112.967 L
499 112.952 L
499 112.952 L
499 112.952 L
499.249 112.935 L
499.25 112.935 L
499.25 112.935 L
499.251 112.935 L
499.499 112.921 L
499.5 112.921 L
499.5 112.921 L
499.748 112.908 L
499.75 112.908 L
499.75 112.909 L
499.998 112.899 L
500 112.899 L
500 112.899 L
500.013 112.899 L
500.247 112.895 L
500.25 112.895 L
500.25 112.895 L
500.251 112.895 L
500.495 112.89 L
500.5 112.89 L
500.5 112.89 L
500.501 112.89 L
500.702 112.886 L
500.75 112.887 L
500.75 112.887 L
500.842 112.887 L
500.976 112.886 L
501 112.886 L
501 112.886 L
501.05 112.885 L
501.231 112.889 L
501.25 112.889 L
501.25 112.889 L
501.253 112.889 L
501.5 112.891 L
501.5 112.891 L
501.75 112.895 L
501.75 112.895 L
501.759 112.895 L
501.922 112.899 L
502 112.899 L
502 112.899 L
502.008 112.899 L
502.238 112.904 L
502.25 112.903 L
502.25 112.903 L
502.251 112.903 L
502.418 112.905 L
502.5 112.905 L
502.5 112.905 L
502.743 112.902 L
502.75 112.902 L
502.75 112.902 L
502.761 112.903 L
502.999 112.894 L
503 112.895 L
503 112.894 L
503.25 112.884 L
503.25 112.884 L
503.251 112.884 L
503.5 112.868 L
503.5 112.868 L
503.75 112.847 L
503.75 112.847 L
503.75 112.847 L
503.75 112.847 L
503.998 112.827 L
504 112.827 L
504 112.827 L
504.002 112.827 L
504.25 112.8 L
504.25 112.8 L
504.25 112.8 L
504.5 112.774 L
504.5 112.774 L
504.75 112.747 L
504.75 112.747 L
504.999 112.718 L
505 112.718 L
505 112.718 L
505.25 112.691 L
505.25 112.691 L
505.25 112.691 L
505.5 112.668 L
505.5 112.668 L
505.75 112.646 L
505.75 112.646 L
505.757 112.646 L
506 112.629 L
506 112.629 L
506.002 112.629 L
506.25 112.619 L
506.25 112.619 L
506.25 112.619 L
506.25 112.619 L
506.486 112.613 L
506.5 112.613 L
506.5 112.613 L
506.505 112.613 L
506.741 112.609 L
506.75 112.609 L
506.75 112.609 L
506.889 112.61 L
506.934 112.608 L
507 112.609 L
507 112.609 L
507.009 112.608 L
507.043 112.609 L
S
GR
GS
[0.75 0 0 0.75 217.5 20.5] CT
/Helvetica-Bold 15 F
GS
[1 0 0 1 0 0] CT
-27.089 -3.787 moveto 
1 -1 scale
(Filtered) t 
GR
GR
%%Trailer
%%Pages: 1
%%EOF
