Px,0
Index, Latency (ms)
0, 27
1, 32
2, 26
3, 31
4, 27
5, 29
6, 27
7, 22
8, 30
9, 23
10, 24
11, 24
12, 29
13, 30
14, 24
15, 25
16, 27
17, 26
18, 24
19, 23
20, 33
21, 32
22, 30
23, 30
24, 31
25, 30
26, 32
27, 28
28, 30
29, 24
30, 24
31, 23
32, 24
33, 24
34, 30
35, 32
36, 24
37, 32
38, 28
39, 30
40, 23
41, 22
42, 25
43, 30
44, 25
45, 23
46, 32
47, 30
48, 30
49, 29
50, 29
51, 29
52, 27
53, 25
54, 31
55, 29
56, 26
57, 30
58, 32
59, 25
60, 23
61, 23
62, 29
63, 30
64, 32
65, 30
66, 29
67, 24
68, 31
69, 26
