Px,-12
Index, Latency (ms)
0, 73
1, 60
2, 62
3, 53
4, 80
5, 33
6, 44
7, 50
8, 144
9, 65
10, 72
11, 63
12, 50
13, 53
14, 28
15, 29
16, 36
17, 40
18, 56
19, 41
20, 90
21, 52
22, 37
23, 43
24, 52
25, 48
26, 78
27, 37
28, 33
29, 46
30, 58
31, 73
32, 68
33, 60
34, 51
35, 54
36, 64
37, 37
38, 64
39, 49
40, 44
41, 36
42, 57
43, 44
44, 26
45, 29
46, 177
47, 42
48, 70
49, 70
50, 23
51, 69
52, 50
53, 88
54, 67
55, 69
56, 47
57, 67
58, 92
59, 69
60, 39
61, 41
62, 43
63, 62
64, 70
65, 68
66, 37
67, 35
