Px,-4
Index, Latency (ms)
0, 31
1, 27
2, 30
3, 30
4, 30
5, 27
6, 27
7, 31
8, 26
9, 30
10, 30
11, 30
12, 31
13, 24
14, 25
15, 28
16, 25
17, 31
18, 31
19, 26
20, 29
21, 30
22, 30
23, 27
24, 30
25, 30
26, 29
27, 33
28, 30
29, 27
30, 26
31, 31
32, 31
33, 27
34, 29
35, 30
36, 26
37, 23
38, 26
39, 26
40, 27
41, 31
42, 24
43, 28
44, 28
45, 28
46, 31
47, 30
48, 25
49, 29
50, 28
51, 28
52, 27
53, 27
54, 32
55, 25
56, 30
57, 31
58, 33
59, 27
60, 30
61, 29
62, 29
63, 32
64, 29
65, 30
66, 29
67, 28
68, 26
69, 28
